Division,WeightClassKg,Place,Name,Team,BodyweightKg,Best3SquatKg,Best3BenchKg,Best3DeadliftKg,TotalKg,Equipment,Event,Sex
Boys,55.79,1,Raul Garcia,Cotulla,51.8,115.67,70.31,127.01,312.98,Single-ply,SBD,M
Boys,51.71,2,Oscar Sanchez,Seguin,50.26,106.59,70.31,113.4,290.3,Single-ply,SBD,M
Boys,51.71,3,Dylan Tesch,Blanco,51.35,99.79,52.16,111.13,263.08,Single-ply,SBD,M
Boys,55.79,1,Juan Chapa,San Antonio Southside,53.61,142.88,95.25,149.69,387.82,Single-ply,SBD,M
Boys,55.79,2,Philip Alvarado,Blanco,54.7,145.15,88.45,154.22,387.82,Single-ply,SBD,M
Boys,55.79,3,Eddie Torres,Blanco,55.25,111.13,83.91,145.15,340.19,Single-ply,SBD,M
Boys,55.79,4,Kade Lopez,San Antonio Southside,54.43,120.2,65.77,147.42,333.39,Single-ply,SBD,M
Boys,59.87,1,Christian Sanchez,Cotulla,58.79,154.22,99.79,192.78,446.79,Single-ply,SBD,M
Boys,59.87,2,Mark Livesay,Floresville,59.42,136.08,88.45,163.29,387.82,Single-ply,SBD,M
Boys,59.87,3,Jeffery Johnson,Seguin,59.06,117.93,83.91,183.7,385.55,Single-ply,SBD,M
Boys,59.87,4,David Montealvo,Seguin,58.6,111.13,65.77,149.69,326.59,Single-ply,SBD,M
Boys,59.87,5,Anthony Holguin,San Marcos,57.15,102.06,68.04,149.69,319.78,Single-ply,SBD,M
Boys,59.87,6,Robert Tappan,Comfort,58.06,102.06,65.77,117.93,285.76,Single-ply,SBD,M
Boys,74.84,1,Javier Sanchez,San Antonio Southside,67.22,176.9,102.06,190.51,469.47,Single-ply,SBD,M
Boys,74.84,2,Ricky Ayala,Cotulla,67.31,181.44,95.25,183.7,460.4,Single-ply,SBD,M
Boys,67.13,3,Albert Terrazas,San Antonio Southside,64.5,167.83,97.52,163.29,428.64,Single-ply,SBD,M
Boys,67.13,4,Andre Garza,Cotulla,63.87,142.88,79.38,163.29,385.55,Single-ply,SBD,M
Boys,67.13,5,Chase Horton,Blanco,66.41,151.95,72.57,145.15,369.68,Single-ply,SBD,M
Boys,74.84,6,De'Andrae High-Walls,Seguin,67.36,129.27,88.45,149.69,367.41,Single-ply,SBD,M
Boys,67.13,7,Preston Taggs,Floresville,64.5,129.27,83.91,142.88,356.07,Single-ply,SBD,M
Boys,67.13,8,Juan Medina,Floresville,63.41,117.93,74.84,158.76,351.53,Single-ply,SBD,M
Boys,67.13,9,Anthony McKnight,Seguin,60.87,104.33,79.38,127.01,310.71,Single-ply,SBD,M
Boys,67.13,10,Toni Lorenzo,Comfort,62.41,113.4,72.57,124.74,310.71,Single-ply,SBD,M
Boys,67.13,11,Hunter Rust,Comfort,60.69,90.72,65.77,97.52,254.01,Single-ply,SBD,M
Boys,82.1,1,Cj Felux,Floresville,74.93,188.24,102.06,226.8,517.1,Single-ply,SBD,M
Boys,74.84,2,Mark Ruiz,Cotulla,74.66,188.24,117.93,199.58,505.76,Single-ply,SBD,M
Boys,74.84,3,Chase Lindner,Comfort,73.75,161.03,111.13,183.7,455.86,Single-ply,SBD,M
Boys,74.84,4,Alex Juarez,Blanco,73.48,170.1,108.86,170.1,449.06,Single-ply,SBD,M
Boys,74.84,5,Caleb Lozano,Comfort,73.71,147.42,81.65,149.69,378.75,Single-ply,SBD,M
Boys,74.84,6,Jacob Hernandez,Comfort,68.49,142.88,81.65,145.15,369.68,Single-ply,SBD,M
Boys,74.84,7,Thomas Herring,Floresville,69.04,120.2,65.77,151.95,337.93,Single-ply,SBD,M
Boys,74.84,8,Andy Joslin,Floresville,67.68,129.27,70.31,129.27,328.85,Single-ply,SBD,M
Boys,74.84,9,Joseph Quintanilla,Floresville,70.85,117.93,83.91,124.74,326.59,Single-ply,SBD,M
Boys,74.84,10,Joel Hinojosa,San Marcos,70.4,122.47,65.77,127.01,315.25,Single-ply,SBD,M
Boys,82.1,1,Austin Gonzalez,San Antonio Southside,79.83,197.31,142.88,183.7,523.9,Single-ply,SBD,M
Boys,82.1,2,Sergio Zuniga,San Antonio Southside,80.29,192.78,117.93,190.51,501.22,Single-ply,SBD,M
Boys,82.1,3,Dustin Del Toro,Cotulla,81.83,154.22,102.06,185.97,442.25,Single-ply,SBD,M
Boys,82.1,4,Jake Breeding,Blanco,77.66,151.95,95.25,167.83,415.04,Single-ply,SBD,M
Boys,82.1,5,Justin Faulkner,Comfort,76.02,149.69,97.52,158.76,405.97,Single-ply,SBD,M
Boys,82.1,6,Christian Hinkley,Comfort,78.65,136.08,88.45,158.76,383.29,Single-ply,SBD,M
Boys,82.1,7,Gus Martinez,Blanco,79.47,122.47,68.04,136.08,326.59,Single-ply,SBD,M
Boys,89.81,1,David Garza,Cotulla,88,244.94,136.08,235.87,616.89,Single-ply,SBD,M
Boys,89.81,2,Jacob Almaguer,Seguin,89.27,215.46,129.27,235.87,580.6,Single-ply,SBD,M
Boys,89.81,3,Jessie Ruiz,Blanco,87.36,204.12,124.74,181.44,510.29,Single-ply,SBD,M
Boys,89.81,4,Garrett Pressler,Comfort,85.91,172.37,97.52,183.7,453.59,Single-ply,SBD,M
Boys,89.81,5,Steven Cardenas,Seguin,83.55,174.63,102.06,151.95,428.64,Single-ply,SBD,M
Boys,89.81,6,Rowdy Souter,Comfort,85.91,136.08,97.52,165.56,399.16,Single-ply,SBD,M
Boys,89.81,7,Coby Bauer,Floresville,86.73,102.06,79.38,120.2,301.64,Single-ply,SBD,M
Boys,99.79,1,Mason LeBlanc,Blanco,93.26,222.26,129.27,199.58,551.11,Single-ply,SBD,M
Boys,99.79,2,Chris Barnett,Blanco,98.7,195.04,124.74,199.58,519.36,Single-ply,SBD,M
Boys,99.79,3,Eric Cerda,San Marcos,97.89,163.29,95.25,156.49,415.04,Single-ply,SBD,M
Boys,99.79,4,AJ Bosquez,San Marcos,97.89,104.33,54.43,113.4,272.16,Single-ply,SBD,M
Boys,99.79,DQ,David Moyet,San Antonio Southside,96.98,,,,,Single-ply,SBD,M
Boys,109.77,1,Pj Hall,Seguin,109.32,317.51,161.03,294.84,773.37,Single-ply,SBD,M
Boys,109.77,2,Alexander Trevino,Floresville,104.87,233.6,138.35,229.06,601.01,Single-ply,SBD,M
Boys,109.77,3,Khalid Schuler,Seguin,108.41,238.14,142.88,190.51,571.53,Single-ply,SBD,M
Boys,109.77,4,Gilbert Garza,San Antonio Southside,108.23,231.33,136.08,188.24,555.65,Single-ply,SBD,M
Boys,109.77,5,Marc Hubbard,Comfort,108.5,192.78,117.93,233.6,544.31,Single-ply,SBD,M
Boys,109.77,DQ,Jack Richison,Comfort,106.96,190.51,122.47,,,Single-ply,SBD,M
Boys,124.74,1,R'vonte Chizer,Seguin,121.47,260.82,154.22,215.46,630.49,Single-ply,SBD,M
Boys,124.74,2,Hector Valadez,San Antonio Southside,112.4,215.46,145.15,192.78,553.38,Single-ply,SBD,M
Boys,124.74,3,Jesse Benavide,San Marcos,114.85,195.04,124.74,229.06,548.85,Single-ply,SBD,M
Boys,124.74,4,Edgar Chavez,Cotulla,111.58,192.78,131.54,195.04,519.36,Single-ply,SBD,M
Boys,124.74,5,Kaleb Quintanilla,Seguin,123.1,197.31,142.88,179.17,519.36,Single-ply,SBD,M
Boys,124.74,6,Hunter Goodman,Blanco,122.2,226.8,104.33,183.7,514.83,Single-ply,SBD,M
Boys,124.74,7,Noah Ramirez,Comfort,120.66,204.12,99.79,181.44,485.34,Single-ply,SBD,M
Boys,124.74,8,Joshua Urrutia,San Marcos,119.93,181.44,90.72,181.44,453.59,Single-ply,SBD,M
Boys,124.74+,1,Noe Obregon,Cotulla,140.52,181.44,140.61,179.17,501.22,Single-ply,SBD,M
Boys,124.74+,2,Zach Moore #3,Comfort,136.08,183.7,92.99,188.24,464.93,Single-ply,SBD,M
Boys,124.74+,3,Tyler Moore,Comfort,128.91,165.56,95.25,170.1,430.91,Single-ply,SBD,M
