Place,Name,BirthYear,Country,BodyweightKg,Squat1Kg,Squat2Kg,Squat3Kg,Best3SquatKg,Bench1Kg,Bench2Kg,Bench3Kg,Best3BenchKg,Deadlift1Kg,Deadlift2Kg,Deadlift3Kg,Best3DeadliftKg,TotalKg,WeightClassKg,Division,Event,Sex,Equipment,BirthDate
1,Alex Summers,2001,UK,51.4,105,117.5,125,125.0,72.5,77.5,-80,77.5,120,140,150,150.0,352.5,53,Sub-Juniors,SBD,M,Raw,
2,Rolands Cirulis,2004,Latvia,52.45,110,-117.5,-117.5,110.0,62.5,67.5,,67.5,110,117.5,-122.5,117.5,295,53,Sub-Juniors,SBD,M,Raw,
1,Ilya Marichev,2001,Russia,58.65,180,194.0,200.0,200.0,120,125,128.5,128.5,240,252.5,260.0,260.0,588.5,59,Sub-Juniors,SBD,M,Raw,
2,Davíd Quirante Pérez,2001,Spain,59,152.5,160,165,165.0,82.5,87.5,-90,87.5,202.5,-212.5,212.5,212.5,465,59,Sub-Juniors,SBD,M,Raw,
3,Loïz Gautier,2001,France,58,155,162.5,165,165.0,102.5,107.5,-110,107.5,182.5,190,-195,190.0,462.5,59,Sub-Juniors,SBD,M,Raw,
4,Przemysław Berezowski,2001,Poland,58.2,155,-165,165,165.0,85,90,92.5,92.5,170,185,197.5,197.5,455,59,Sub-Juniors,SBD,M,Raw,
5,Karol Kruszyński,2002,Poland,58.05,-150,150,-155,150.0,77.5,82.5,-85,82.5,180,192.5,197.5,197.5,430,59,Sub-Juniors,SBD,M,Raw,
6,Danial Karami,2001,Netherlands,58.8,145,-152.5,-152.5,145.0,85,90,-95,90.0,175,-185,-185,175.0,410,59,Sub-Juniors,SBD,M,Raw,
7,Cristian Moise,2001,Romania,57.1,140,150,-162.5,150.0,80,-87.5,-90,80.0,140,150,-160,150.0,380,59,Sub-Juniors,SBD,M,Raw,
1,Niccolò Zampollo,2001,Italy,64.25,209.5,-218,-218,209.5,115,122.5,-127.5,122.5,220,233.5,-238.5,233.5,565.5,66,Sub-Juniors,SBD,M,Raw,
2,Grégory Ostyn,2001,Belgium,65.7,170,177.5,180,180.0,122.5,127.5,132.5,132.5,220,233.0,240.0,240.0,552.5,66,Sub-Juniors,SBD,M,Raw,
3,Bartosz Warszczuk,2001,Poland,65.75,185,192.5,-197.5,192.5,105,110,115,115.0,210,220,-234,220.0,527.5,66,Sub-Juniors,SBD,M,Raw,
4,Dmitrii Stepanov,2002,Russia,65.05,190,200,-207.5,200.0,110,-115,-115,110.0,195,205,-217.5,205.0,515,66,Sub-Juniors,SBD,M,Raw,
5,Jake Richardson,2001,UK,65.15,165,-172.5,-172.5,165.0,95,100,-102.5,100.0,192.5,207.5,-220,207.5,472.5,66,Sub-Juniors,SBD,M,Raw,
6,Paulius Ignatavičius,2003,Lithuania,65.05,160,-165,-165,160.0,87.5,92.5,-97.5,92.5,190,-202.5,-202.5,190.0,442.5,66,Sub-Juniors,SBD,M,Raw,
7,Kornelijus Poškus,2002,Lithuania,65.1,-145,145,155,155.0,120,125,-127.5,125.0,145,155,-160,155.0,435,66,Sub-Juniors,SBD,M,Raw,
1,Nahel Baali,2001,France,74,197.5,-205,-205,197.5,150,155,-157.5,155.0,250,262.0,271.0,271.0,623.5,74,Sub-Juniors,SBD,M,Raw,
2,Khaled Benbachir,2001,France,73.05,200,-207.5,207.5,207.5,157.5,163.0,165.5,165.5,235,242.5,250,250.0,623.0,74,Sub-Juniors,SBD,M,Raw,
3,Marek Vávra,2001,Czechia,73.55,190,200,210,210.0,117.5,125,130,130.0,235,250,255,255.0,595,74,Sub-Juniors,SBD,M,Raw,
4,Nikita Grebenkin,2001,Russia,73.1,192.5,200,205,205.0,142.5,147.5,152.5,152.5,222.5,232.5,235,235.0,592.5,74,Sub-Juniors,SBD,M,Raw,
5,Eduard Eida,2001,Germany,73.25,195,205,207.5,207.5,147.5,152.5,155,155.0,220,230,-235,230.0,592.5,74,Sub-Juniors,SBD,M,Raw,
6,Andrey Talko,2002,Russia,73.35,205,212.5,-217.5,212.5,135,140,142.5,142.5,210,220,225,225.0,580,74,Sub-Juniors,SBD,M,Raw,
7,Patrik Lněnička,2001,Czechia,72.65,207.5,217.5,222.5,222.5,117.5,125,127.5,127.5,-215,215,225,225.0,575,74,Sub-Juniors,SBD,M,Raw,
8,Harry Sugden,2001,UK,73.25,-187.5,187.5,197.5,197.5,117.5,120,122.5,122.5,220,230,237.5,237.5,557.5,74,Sub-Juniors,SBD,M,Raw,
9,Nejc Rus,2002,Slovenia,71.55,187.5,197.5,205,205.0,112.5,117.5,120,120.0,200,215,225,225.0,550,74,Sub-Juniors,SBD,M,Raw,
10,Ihor Zvonarov,2001,Ukraine,73.1,205,-212.5,-212.5,205.0,122.5,130,-132.5,130.0,200,-210,215,215.0,550,74,Sub-Juniors,SBD,M,Raw,
11,Rokas Burba,2001,Lithuania,73.75,185,195,200,200.0,125,130,-132.5,130.0,180,190,200,200.0,530,74,Sub-Juniors,SBD,M,Raw,
12,Bjorn Verrijdt,2002,Netherlands,71.1,185,192.5,-195,192.5,105,110,-112.5,110.0,190,202.5,215,215.0,517.5,74,Sub-Juniors,SBD,M,Raw,
13,Simo Kinisjärvi,2001,Finland,71.9,175,180,190,190.0,100,110,-117.5,110.0,200,210,-227.5,210.0,510,74,Sub-Juniors,SBD,M,Raw,
1,Filip Näreskog,2002,Sweden,82.85,240,250,255.0,255.0,160,165.5,168.0,168.0,270,280,285,285.0,708.0,83,Sub-Juniors,SBD,M,Raw,
2,Richmond Baiden,2001,France,82,237.5,247.5,-253,247.5,162.5,166.5,170.5,170.5,275,-285,285,285.0,703,83,Sub-Juniors,SBD,M,Raw,
3,Einar Skaar Knut,2001,Norway,82.8,205,215,222.5,222.5,140,147.5,152.5,152.5,247.5,262.5,275,275.0,650,83,Sub-Juniors,SBD,M,Raw,
4,Karel Rada #2,2001,Czechia,82.1,230,240,245,245.0,132.5,-137.5,137.5,137.5,245,260,265,265.0,647.5,83,Sub-Juniors,SBD,M,Raw,
5,Jakub Pelikán,2001,Czechia,80.4,235,245,-252.5,245.0,140,147.5,150,150.0,240,250,-257.5,250.0,645,83,Sub-Juniors,SBD,M,Raw,
6,Andrew Roe,2001,Ireland,81.95,225,235,237.5,237.5,142.5,147.5,150,150.0,220,235,242.5,242.5,630,83,Sub-Juniors,SBD,M,Raw,
7,Bertram Vorm,2001,Denmark,80.5,205,215,220,220.0,112.5,117.5,-122.5,117.5,230,240,,240.0,577.5,83,Sub-Juniors,SBD,M,Raw,
8,Robertas Jurginauskas,2002,Lithuania,82.05,190,205,-212.5,205.0,115,120,-125,120.0,240,-250,-250,240.0,565,83,Sub-Juniors,SBD,M,Raw,
9,Freddy Jakobson,2001,Estonia,81.85,165,172.5,177.5,177.5,105,110,-115,110.0,180,190,200,200.0,487.5,83,Sub-Juniors,SBD,M,Raw,
DQ,Davíd Aguayo Fontecha,2001,Spain,81.65,215,222.5,-227.5,222.5,130,135,-140,135.0,-217.5,-222.5,-222.5,,,83,Sub-Juniors,SBD,M,Raw,
1,Antonio Pérez Barros,2001,Spain,91.15,245,257.5,265,265.0,117.5,125,-130,125.0,267.5,282.5,292.5,292.5,682.5,93,Sub-Juniors,SBD,M,Raw,
2,Jakub Lenart,2001,Poland,91.9,240,250,257.5,257.5,170,175,-179.5,175.0,240,250,-255,250.0,682.5,93,Sub-Juniors,SBD,M,Raw,
3,Andrew Blackwood,2001,Ireland,90.1,225,235,242.5,242.5,127.5,132.5,140,140.0,260,275,282.5,282.5,665,93,Sub-Juniors,SBD,M,Raw,
4,Martin Nikolov,2001,Bulgaria,91.8,230,242.5,247.5,247.5,140,-145,-145,140.0,-270,-270,272.5,272.5,660,93,Sub-Juniors,SBD,M,Raw,
5,Adam Sudra,2002,Slovakia,91.05,-225,225,235,235.0,145,152.5,-160,152.5,240,255,260,260.0,647.5,93,Sub-Juniors,SBD,M,Raw,
6,James Stelian Jejeran,2002,Romania,90.35,-235,235,242.5,242.5,170,179.0,-180,179.0,225,-232.5,,225.0,646.5,93,Sub-Juniors,SBD,M,Raw,
7,Bartłomiej Bogdewicz,2002,Poland,91.05,-225,225,235,235.0,127.5,135,140,140.0,240,250,-257.5,250.0,625,93,Sub-Juniors,SBD,M,Raw,
8,Sven Rausch,2001,Germany,88.1,205,212.5,217.5,217.5,130,-135,135,135.0,245,252.5,257.5,257.5,610,93,Sub-Juniors,SBD,M,Raw,
9,Nikita Petrov,2003,Russia,89.9,205,215,-222.5,215.0,140,150,157.5,157.5,200,212.5,217.5,217.5,590,93,Sub-Juniors,SBD,M,Raw,
10,Filip Rybár,2001,Czechia,90.15,175,185,200,200.0,125,-132.5,135,135.0,205,217.5,-227.5,217.5,552.5,93,Sub-Juniors,SBD,M,Raw,
11,Nicolás Gómez Ramírez,2001,Spain,88.3,210,-222.5,-222.5,210.0,117.5,-125,-125,117.5,210,-220,-220,210.0,537.5,93,Sub-Juniors,SBD,M,Raw,
1,Kirill Sakharov,2001,UK,101.15,250,260,270,270.0,185.5,195.5,-200.5,195.5,250,262.5,275,275.0,740.5,105,Sub-Juniors,SBD,M,Raw,
2,Matej Skycak,2001,Slovakia,103.15,265,280,-290,280.0,165,175,-180,175.0,285,-305,-305,285.0,740,105,Sub-Juniors,SBD,M,Raw,
3,Jordi Nouredine Llurba,2002,Spain,102.8,235,245,250,250.0,120,125,127.5,127.5,285,300,-305,300.0,677.5,105,Sub-Juniors,SBD,M,Raw,
4,Aleksandr Okhezin,2002,Russia,102.6,205,215,222.5,222.5,165,170,175,175.0,210,222.5,227.5,227.5,625,105,Sub-Juniors,SBD,M,Raw,
5,Karol Wójcik,2001,Poland,103.05,220,-232.5,-232.5,220.0,135,140,145,145.0,240,-250,-250,240.0,605,105,Sub-Juniors,SBD,M,Raw,
6,Maksim Avdiakov,2002,Russia,101.65,225,235,-240,235.0,120,127.5,130,130.0,225,235,-250,235.0,600,105,Sub-Juniors,SBD,M,Raw,
7,Lukáš Horáček,2001,Czechia,100,200,-210,-210,200.0,135,142.5,145,145.0,180,200,220,220.0,565,105,Sub-Juniors,SBD,M,Raw,
1,Grzegorz Heinze,2002,Poland,111.1,260,275,290.5,290.5,135,145,152.5,152.5,240,250,260,260.0,703,120,Sub-Juniors,SBD,M,Raw,
2,Zorin Wijnands,2001,Netherlands,114.85,220,235,242.5,242.5,150,155,-157.5,155.0,270,285,-306,285.0,682.5,120,Sub-Juniors,SBD,M,Raw,
3,Josh Pearson,2001,UK,115.1,240,-250,250,250.0,147.5,152.5,157.5,157.5,260,275,-280,275.0,682.5,120,Sub-Juniors,SBD,M,Raw,
4,Alexander Eteria,2001,Georgia,111.35,225,235,245,245.0,140,150,157.5,157.5,250,265,275,275.0,677.5,120,Sub-Juniors,SBD,M,Raw,
5,Michał Piszczor,2001,Poland,119.15,225,232.5,237.5,237.5,157.5,165,-170,165.0,257.5,265,267.5,267.5,670,120,Sub-Juniors,SBD,M,Raw,
6,Tanel Saimre,2001,Estonia,113.1,205,220,230,230.0,105,115,-120,115.0,260,270,277.5,277.5,622.5,120,Sub-Juniors,SBD,M,Raw,
7,Philippe Parage,2001,Luxembourg,108.45,200,212.5,225,225.0,115,120,125,125.0,210,230,240,240.0,590,120,Sub-Juniors,SBD,M,Raw,
1,Ray Bowring,2002,UK,145.4,285.5,305.0,-325,305.0,135,150,,150.0,255,-280,-280,255.0,710,120+,Sub-Juniors,SBD,M,Raw,
2,Bartłomiej Tuszyński,2003,Poland,140.7,220,240,-252.5,240.0,122.5,132.5,-142.5,132.5,220,235,-245,235.0,607.5,120+,Sub-Juniors,SBD,M,Raw,
1,Joshua Jacob,1999,France,51.75,125,-132.5,132.5,132.5,95,102.5,-107.5,102.5,-160,160,175,175.0,410,53,Juniors,SBD,M,Raw,
2,Dmitrii Makar,2000,Russia,52.6,115,122.5,130,130.0,75,80,-82.5,80.0,140,152.5,-177.5,152.5,362.5,53,Juniors,SBD,M,Raw,
1,Denis Pavlov,1998,Russia,58.3,165,-172.5,175,175.0,125,130,135,135.0,200,215,-225,215.0,525,59,Juniors,SBD,M,Raw,
2,Julien Gutierrez,1996,France,58.35,162.5,167.5,172.5,172.5,97.5,102.5,107.5,107.5,-207.5,-207.5,212.5,212.5,492.5,59,Juniors,SBD,M,Raw,
3,Viliam Kováč,2000,Czechia,58.5,157.5,162.5,167.5,167.5,-107.5,107.5,112.5,112.5,185,200,-210,200.0,480,59,Juniors,SBD,M,Raw,
4,Arkadiusz Kostecki,2000,Poland,57.8,165,-175,-175,165.0,100,105,-107.5,105.0,192.5,200,-210,200.0,470,59,Juniors,SBD,M,Raw,
5,Rostyslav Babiuk,2000,Ukraine,58.6,-145,147.5,-152.5,147.5,105,107.5,112.5,112.5,165,175,182.5,182.5,442.5,59,Juniors,SBD,M,Raw,
6,Afzol Ali,1997,UK,58.7,130,137.5,142.5,142.5,92.5,97.5,100,100.0,180,190,-195,190.0,432.5,59,Juniors,SBD,M,Raw,
7,Piotr Bilicki,1997,Poland,58.5,125,-132.5,-132.5,125.0,100,105,110,110.0,165,170,-175,170.0,405,59,Juniors,SBD,M,Raw,
8,Laurynas Šaulis,1998,Lithuania,58.45,145,152.5,155,155.0,-92.5,-92.5,92.5,92.5,140,-155,155,155.0,402.5,59,Juniors,SBD,M,Raw,
1,Artsiom Savelyeu,1998,Belarus,65.6,233.0,242.5,-250.5,242.5,130,135,137.5,137.5,220,-235,-235,220.0,600,66,Juniors,SBD,M,Raw,
2,Jesús Javier Quirante Pérez,1997,Spain,65.75,180,187.5,190,190.0,130,135,-137.5,135.0,251.0,263.0,-275.5,263.0,588,66,Juniors,SBD,M,Raw,
3,Alberto Herraiz Francés,2000,Spain,64.8,200,215,220,220.0,120,127.5,132.5,132.5,215,230,-240,230.0,582.5,66,Juniors,SBD,M,Raw,
4,Sergey Chizhikov,1997,Russia,65.4,217.5,225,230,230.0,127.5,132.5,-135,132.5,220,-230,-230,220.0,582.5,66,Juniors,SBD,M,Raw,
5,Alain Jost,1997,Switzerland,63.7,177.5,185,190,190.0,125,130,132.5,132.5,-227.5,227.5,237.5,237.5,560,66,Juniors,SBD,M,Raw,
6,Michał Jasak,1997,Poland,65.9,180,185,-190,185.0,125,130,-135,130.0,225,237.5,-242.5,237.5,552.5,66,Juniors,SBD,M,Raw,
7,Alex Cremins,1999,Ireland,64.2,175,182.5,187.5,187.5,115,-122.5,122.5,122.5,227.5,237.5,240,240.0,550,66,Juniors,SBD,M,Raw,
8,Florian Nativel,1998,France,65.7,-185,185,-190,185.0,145,150,155,155.0,190,-197.5,-200,190.0,530,66,Juniors,SBD,M,Raw,
9,Ploutis Koumi,1997,UK,65.5,175,185,-192.5,185.0,115,122.5,-125,122.5,210,,,210.0,517.5,66,Juniors,SBD,M,Raw,
1,Paul Rembauville,1997,France,73.25,235,245,-247.5,245.0,132.5,140,145,145.0,272.5,282.5,290,290.0,680,74,Juniors,SBD,M,Raw,
2,Riccardo Angelini,1997,Italy,73.95,235,250,-258,250.0,155,162.5,-167.5,162.5,245,260,267.5,267.5,680,74,Juniors,SBD,M,Raw,
3,Andreas Nilsson #1,1998,Sweden,73.6,215,225,-230,225.0,160,165,-167.5,165.0,245,260,-270,260.0,650,74,Juniors,SBD,M,Raw,
4,Aleksey Sergeenko,1998,Russia,73,225,235,240,240.0,172.5,-180,-180,172.5,215,222.5,-227.5,222.5,635,74,Juniors,SBD,M,Raw,
5,Francesco Vighi,1998,Italy,72.4,-200,210,-220,210.0,150,157.5,162.5,162.5,-255,255,-260,255.0,627.5,74,Juniors,SBD,M,Raw,
6,Simen Johnson Myrvold,2000,Norway,73.95,210,217.5,-220,217.5,157.5,165,-167.5,165.0,227.5,240,-245,240.0,622.5,74,Juniors,SBD,M,Raw,
7,Elias De Buck,1996,Belgium,73.6,200,210,215,215.0,140,147.5,150,150.0,230,242.5,-250,242.5,607.5,74,Juniors,SBD,M,Raw,
8,Yurii Revuka,2000,Ukraine,72.2,210,220,227.5,227.5,140,142.5,145,145.0,220,232.5,-242.5,232.5,605,74,Juniors,SBD,M,Raw,
9,Eetu Kumpulainen,1998,Finland,73.7,205,215,-222.5,215.0,140,-147.5,-147.5,140.0,220,-240,,220.0,575,74,Juniors,SBD,M,Raw,
10,Patrik Havlice,1996,Czechia,73.4,175,-185,-185,175.0,120,127.5,130,130.0,200,220,-227.5,220.0,525,74,Juniors,SBD,M,Raw,
DQ,Hubert Kończak,1998,Poland,73.5,-195,-195,-195,,,,,,,,,,,74,Juniors,SBD,M,Raw,
1,Robert Barsegyan,1998,Russia,81.65,240,247.5,252.5,252.5,180,-187.5,187.5,187.5,275,287.5,-292.5,287.5,727.5,83,Juniors,SBD,M,Raw,
2,Dylan Nelson #1,1996,UK,82.7,275,288.0,-295.5,288.0,150,155,157.5,157.5,260,270,275,275.0,720.5,83,Juniors,SBD,M,Raw,
3,Mikita Stsepaniuk,1996,Belarus,82.7,247.5,262.5,-270,262.5,-155,162.5,-170,162.5,275,290,-305,290.0,715,83,Juniors,SBD,M,Raw,
4,Jack Söderberg,1996,Sweden,82.75,225,237.5,242.5,242.5,162.5,172.5,177.5,177.5,265,282.5,290,290.0,710,83,Juniors,SBD,M,Raw,
5,Richard van Bezooijen,1996,Netherlands,82.15,250,-260,260,260.0,157.5,162.5,167.5,167.5,267.5,280,-295,280.0,707.5,83,Juniors,SBD,M,Raw,
6,Scott Webb,1997,UK,82.1,242.5,262.5,-272.5,262.5,145,152.5,157.5,157.5,260,272.5,-290,272.5,692.5,83,Juniors,SBD,M,Raw,
7,Álvaro Pedro Ponce,1997,Spain,81.75,235,247.5,255,255.0,135,142.5,-147.5,142.5,270,285,292.5,292.5,690,83,Juniors,SBD,M,Raw,
8,Johannes Kristensen,1997,Norway,82.85,235,245,-255,245.0,152.5,160,165,165.0,260,275,-285,275.0,685,83,Juniors,SBD,M,Raw,
9,Lorenzo van der Loo,1997,Netherlands,82.4,240,247.5,252.5,252.5,155,157.5,160,160.0,260,270,-280,270.0,682.5,83,Juniors,SBD,M,Raw,
10,Otto Fält,1996,Finland,82.05,242.5,252.5,-257.5,252.5,145,150,-155,150.0,265,277.5,-282.5,277.5,680,83,Juniors,SBD,M,Raw,
11,Theodor Dima,1996,Romania,82.05,250,262.5,-270,262.5,135,-142.5,142.5,142.5,240,257.5,267.5,267.5,672.5,83,Juniors,SBD,M,Raw,
12,Andrzej Krawontka,1996,Poland,81.3,240,-250,-250,240.0,150,-155,-155,150.0,260,270,-280,270.0,660,83,Juniors,SBD,M,Raw,
13,Enrico Scarcia,1996,Italy,79.5,190,197.5,205,205.0,130,135,137.5,137.5,295,310,-325.5,310.0,652.5,83,Juniors,SBD,M,Raw,
14,Aritz Adrián Giraldo,1996,Spain,82.55,225,240,-245,240.0,125,132.5,140,140.0,240,-260,260,260.0,640,83,Juniors,SBD,M,Raw,
15,Lukas Markmeyer,1997,Germany,82.75,210,220,225,225.0,135,142.5,147.5,147.5,260,267.5,-275,267.5,640,83,Juniors,SBD,M,Raw,
16,Vincent Moll,1998,Germany,82.5,215,222.5,-227.5,222.5,142.5,147.5,150,150.0,-250,-255,255,255.0,627.5,83,Juniors,SBD,M,Raw,
17,Rodion Rudenko,1997,Ukraine,81.5,220,-227.5,227.5,227.5,125,135,-142.5,135.0,-230,230,260,260.0,622.5,83,Juniors,SBD,M,Raw,
18,Aaron Moran,1996,Ireland,82.1,205,215,-220,215.0,140,147.5,150,150.0,-255,255,-275,255.0,620,83,Juniors,SBD,M,Raw,
19,Vitalijs Boronenko,1997,Ireland,82.75,210,220,-225,220.0,-132.5,132.5,140,140.0,235,-247.5,-250,235.0,595,83,Juniors,SBD,M,Raw,
1,Youssuf El Adlani,1996,Italy,93,267.5,277.5,287.5,287.5,157.5,-165,165,165.0,290,317.5,327.5,327.5,780,93,Juniors,SBD,M,Raw,
2,Vid Leskovar,1996,Slovenia,92.65,260,275,285,285.0,155,162.5,167.5,167.5,292.5,310,325,325.0,777.5,93,Juniors,SBD,M,Raw,
3,Emil Krastev,1997,Bulgaria,90.8,-262.5,262.5,275,275.0,195,200,203.5,203.5,275,290,-305,290.0,768.5,93,Juniors,SBD,M,Raw,
4,Adedapo Ojewale,1997,UK,91.55,250,260,265,265.0,145,155,160,160.0,305,320,327.5,327.5,752.5,93,Juniors,SBD,M,Raw,
5,René Hofer,1997,Austria,91.6,260,272.5,282.5,282.5,147.5,152.5,-157.5,152.5,300,317.5,-330,317.5,752.5,93,Juniors,SBD,M,Raw,
6,Carl Hynén-Ulfsjöö,1996,Sweden,92.8,250,260,-267.5,260.0,162.5,170,175,175.0,287.5,300,-310,300.0,735,93,Juniors,SBD,M,Raw,
7,Rubén Rodríguez Castro,1996,Spain,91.5,260,270,280,280.0,155,160,165,165.0,285,-300,-300,285.0,730,93,Juniors,SBD,M,Raw,
8,Jakub Vágner,1997,Czechia,92.85,265,275,285,285.0,142.5,147.5,150,150.0,270,285,292.5,292.5,727.5,93,Juniors,SBD,M,Raw,
9,Paul Egger,1998,Austria,92,242.5,255,265,265.0,135,140,-145,140.0,285,302.5,315,315.0,720,93,Juniors,SBD,M,Raw,
10,Balazs Biro,1996,Hungary,92.35,235,250,-257.5,250.0,167.5,177.5,185,185.0,260,275,-282.5,275.0,710,93,Juniors,SBD,M,Raw,
11,Erik Mata,1996,UK,92.9,-255,255,-270,255.0,167.5,172.5,177.5,177.5,260,277.5,-290,277.5,710,93,Juniors,SBD,M,Raw,
12,Joel Immanuel Vikesland,1997,Norway,92.75,225,-235,-237.5,225.0,155,162.5,-167.5,162.5,290,315,317.5,317.5,705,93,Juniors,SBD,M,Raw,
13,Teodor Vaklinov,1996,Bulgaria,92.5,240,255,257.5,257.5,160,170,-175,170.0,240,260,-270,260.0,687.5,93,Juniors,SBD,M,Raw,
14,Benjamin Rastum,1999,Norway,92.1,237.5,250,-255,250.0,155,-162.5,-165,155.0,245,260,-270,260.0,665,93,Juniors,SBD,M,Raw,
15,Agris Reppo,1996,Estonia,92.9,190,210,220,220.0,147.5,155,-160,155.0,240,260,270,270.0,645,93,Juniors,SBD,M,Raw,
16,Pearse Tohill,1997,Ireland,92.2,-222.5,222.5,240,240.0,120,-125,130,130.0,257.5,272.5,-285,272.5,642.5,93,Juniors,SBD,M,Raw,
1,Oleksandr Hanhur,1999,Ukraine,102.8,285,295,302.5,302.5,170,177.5,-180,177.5,307.5,-325,330,330.0,810,105,Juniors,SBD,M,Raw,
2,Aron Hegedus,1996,Hungary,104.4,267.5,285,297.5,297.5,167.5,175,180,180.0,305,330,-335,330.0,807.5,105,Juniors,SBD,M,Raw,
3,Ben Wharton,1997,UK,104.9,265,282.5,290,290.0,162.5,170,175,175.0,280,302.5,312.5,312.5,777.5,105,Juniors,SBD,M,Raw,
4,Oleg Dudchenko,1996,Ukraine,103.3,265,275,282.5,282.5,172.5,180,-185,180.0,302.5,305,-315,305.0,767.5,105,Juniors,SBD,M,Raw,
5,Alexey Tilsh,1998,Russia,103.95,260,275,285,285.0,160,170,172.5,172.5,285,297.5,310,310.0,767.5,105,Juniors,SBD,M,Raw,
6,Damian Steinke,1997,Norway,103.75,255,267.5,275,275.0,165,-175,175,175.0,280,300,315,315.0,765,105,Juniors,SBD,M,Raw,
7,Scott Dean,1997,Ireland,104.3,260,270,275,275.0,160,165,167.5,167.5,287.5,302.5,312.5,312.5,755,105,Juniors,SBD,M,Raw,
8,Mark Stell,1999,Ireland,104.3,230,245,252.5,252.5,185,192.5,197.5,197.5,265,280,-290,280.0,730,105,Juniors,SBD,M,Raw,
9,Marcin Lange,1997,Poland,100.9,240,250,260,260.0,175,182.5,185,185.0,-260,260,270,270.0,715,105,Juniors,SBD,M,Raw,
10,Espen Kolltveit,1996,Norway,103.5,220,230,235,235.0,167.5,-172.5,-172.5,167.5,280,290,-300,290.0,692.5,105,Juniors,SBD,M,Raw,
11,Adrian Świerczyński,1996,Poland,103.1,260,-270,-277.5,260.0,180,-187.5,187.5,187.5,-200,200,,200.0,647.5,105,Juniors,SBD,M,Raw,
12,Halldór Jens Vilhjálmsson,1996,Iceland,104.4,220,240,-252.5,240.0,140,152.5,-160,152.5,220,240,250,250.0,642.5,105,Juniors,SBD,M,Raw,
DQ,Daniel Villacampa Estallo,1997,Spain,102.8,265,-277.5,-277.5,265.0,,,,,,,,,,105,Juniors,SBD,M,Raw,
1,Dmytro Vovk,1996,Ukraine,119.8,300,315,325,325.0,225,235,241.0,241.0,285,305,315,315.0,881,120,Juniors,SBD,M,Raw,
2,Boris Tsvetkov #1,1998,Bulgaria,113,295,310,320,320.0,200,207.5,-212.5,207.5,330,350,-355,350.0,877.5,120,Juniors,SBD,M,Raw,
3,Konstantin Musaev,1997,Russia,119.5,280,292.5,300,300.0,205,212.5,217.5,217.5,340,352.5,-364,352.5,870,120,Juniors,SBD,M,Raw,
4,Corentin Clément,2000,France,119.65,320,-335,-335,320.0,-205,205,212.5,212.5,310,330,-340,330.0,862.5,120,Juniors,SBD,M,Raw,
5,Coen de Heer,1996,Netherlands,118.5,260,272.5,-277.5,272.5,167.5,-177.5,177.5,177.5,295,305,310,310.0,760,120,Juniors,SBD,M,Raw,
6,Gintaras Šaulys,1999,Lithuania,114.5,265,275,280,280.0,155,-160,-160,155.0,290,312.5,-320,312.5,747.5,120,Juniors,SBD,M,Raw,
7,Anders Broeten Lillemoe,1999,Norway,119.55,-240,245,-255,245.0,140,150,,150.0,310,-327.5,337.5,337.5,732.5,120,Juniors,SBD,M,Raw,
1,Bogdan Prokopev,1998,Russia,121,295,310,322.5,322.5,180,187.5,192.5,192.5,280,292.5,300,300.0,815,120+,Juniors,SBD,M,Raw,
2,Jack Kenny,1996,Ireland,137.8,272.5,285,290,290.0,172.5,180,182.5,182.5,300,325,-345,325.0,797.5,120+,Juniors,SBD,M,Raw,
3,Ben Rant,1998,UK,164.7,292.5,-302.5,302.5,302.5,182.5,192.5,197.5,197.5,270,285,290,290.0,790,120+,Juniors,SBD,M,Raw,
4,André Hjulström,1996,Finland,147.5,265,275,-280,275.0,162.5,-170,170,170.0,325,-337.5,-337.5,325.0,770,120+,Juniors,SBD,M,Raw,
5,Nikita Leskovets,1999,Russia,137.7,255,265,272.5,272.5,-200,200,210,210.0,270,-280,,270.0,752.5,120+,Juniors,SBD,M,Raw,
6,Sebastian Kwiatkowski,1996,Poland,126.7,260,270,-275,270.0,167.5,175,-182.5,175.0,280,-290,-295,280.0,725,120+,Juniors,SBD,M,Raw,
7,Lars Mogensen,1996,Denmark,123.55,280,-295,-295,280.0,170,-180,-187.5,170.0,-265,265,,265.0,715,120+,Juniors,SBD,M,Raw,
1,Dariusz Wszoła,1978,Poland,58.6,200,210,-215,210.0,142.5,-147.5,147.5,147.5,195,202.5,-207.5,202.5,560,59,Open,SBD,M,Raw,
2,Sławomir Śledź,1976,Poland,58.3,180,187.5,-192.5,187.5,140,145,-150,145.0,200,210,217.5,217.5,550,59,Open,SBD,M,Raw,
3,Ilshat Makhmurov,1985,Russia,58.7,165,175,180,180.0,122.5,127.5,-132.5,127.5,220,230,-245,230.0,537.5,59,Open,SBD,M,Raw,
4,Aleksander Petrov,1990,Bulgaria,55.7,175,185,-195,185.0,125,132.5,-135,132.5,200,210,-220,210.0,527.5,59,Open,SBD,M,Raw,
1,Eddie Berglund,1995,Sweden,65.7,222.5,235,240,240.0,187.5,200,-216,200.0,225,-237.5,237.5,237.5,677.5,66,Open,SBD,M,Raw,
2,Alexander Kolbin,1987,Russia,66,220,225,230,230.0,140,145,-150,145.0,240,255,265,265.0,640,66,Open,SBD,M,Raw,
3,Mariusz Grotkowski,1989,Poland,65.25,190,200,-205,200.0,145,-150,150,150.0,220,230,235,235.0,585,66,Open,SBD,M,Raw,
4,Dennis Milello,1993,Italy,65.6,175,187.5,-192.5,187.5,135,140,-145,140.0,237.5,245,-252.5,245.0,572.5,66,Open,SBD,M,Raw,
5,Lorenzo Haarloo,1987,Netherlands,65.55,177.5,187.5,-192.5,187.5,115,122.5,-125,122.5,240,250,255,255.0,565,66,Open,SBD,M,Raw,
6,Deividas Barisas,1992,Ireland,65.85,190,200,205,205.0,117.5,122.5,-125,122.5,227.5,237.5,-247.5,237.5,565,66,Open,SBD,M,Raw,
7,Gheorghe Moise,1995,Romania,64.9,200,207.5,-210,207.5,135,142.5,-147.5,142.5,190,-200,200,200.0,550,66,Open,SBD,M,Raw,
8,Šarūnas Tolvaiša,1990,Lithuania,65.65,190,195,-197.5,195.0,125,-130,-130,125.0,225,-235,-247.5,225.0,545,66,Open,SBD,M,Raw,
9,Gintaras Blėdis,1994,Lithuania,65.35,185,195,-200,195.0,105,110,112.5,112.5,185,195,-200,195.0,502.5,66,Open,SBD,M,Raw,
1,Alexander Eriksson,1994,Sweden,73.7,232.5,245,250,250.0,167.5,177.5,-185,177.5,262.5,280,290,290.0,717.5,74,Open,SBD,M,Raw,
2,Aliaksandr Hrynkevich-Sudnik,1976,Belarus,73.7,245,252.5,255,255.0,160,-162.5,-162.5,160.0,290,297.5,-305,297.5,712.5,74,Open,SBD,M,Raw,
3,Anatolii Goriachok,1979,Russia,73.65,230,242.5,247.5,247.5,-145,145,-155,145.0,280,297.5,-320,297.5,690,74,Open,SBD,M,Raw,
4,Joshua Wright #1,1986,Germany,73.55,220,230,237.5,237.5,160,-165,-165,160.0,267.5,277.5,282.5,282.5,680,74,Open,SBD,M,Raw,
5,Andrey Kostenko,1988,Russia,73.55,240,250,258.0,258.0,150,-155,-155,150.0,265,-282.5,-282.5,265.0,673,74,Open,SBD,M,Raw,
6,Matti Christensen,1995,Denmark,73.7,242.5,255,258.5,258.5,187.5,192.5,-195,192.5,220,-230,-230,220.0,671,74,Open,SBD,M,Raw,
7,Luke Rogers #1,1988,UK,73.7,227.5,237.5,242.5,242.5,132.5,137.5,-140,137.5,265,277.5,282.5,282.5,662.5,74,Open,SBD,M,Raw,
8,Bastien Poyet,1995,France,72.4,205,207.5,210,210.0,-187.5,187.5,-195,187.5,240,255,-265,255.0,652.5,74,Open,SBD,M,Raw,
9,Vitalii Bilozir,1992,Ukraine,73.5,215,222.5,227.5,227.5,135,140,-142.5,140.0,270,-280,280,280.0,647.5,74,Open,SBD,M,Raw,
10,Oleksii Titov,1994,Ukraine,73.3,225,232.5,-235,232.5,147.5,152.5,155,155.0,245,255,-262.5,255.0,642.5,74,Open,SBD,M,Raw,
11,Alberto Bettarel,1993,Italy,69.35,-215,-215,215,215.0,150,157.5,-160,157.5,222.5,237.5,-245,237.5,610,74,Open,SBD,M,Raw,
12,Albertas Motiečius,1994,Lithuania,73.6,190,200,210,210.0,167.5,170,-177.5,170.0,200,220,-230,220.0,600,74,Open,SBD,M,Raw,
1,Owen Hubbard,1992,UK,82.3,255,270,-280,270.0,205,215,218.5,218.5,255,272.5,285,285.0,773.5,83,Open,SBD,M,Raw,
2,Erik Karlsson #1,1987,Sweden,81.9,275,290,295.5,295.5,140,145,150,150.0,300,317.5,-328,317.5,763,83,Open,SBD,M,Raw,
3,Emilio Cotti Cometti,1995,Italy,82.15,250,260,267.5,267.5,155,162.5,167.5,167.5,-292.5,312.5,325,325.0,760,83,Open,SBD,M,Raw,
4,Christian Ayandokun,1991,UK,82.15,240,255,262.5,262.5,157.5,165,167.5,167.5,302.5,317.5,-330.5,317.5,747.5,83,Open,SBD,M,Raw,1991-09-05
5,Jure Rus,1991,Slovenia,82.8,257.5,270,280,280.0,155,162.5,165,165.0,287.5,302.5,-315,302.5,747.5,83,Open,SBD,M,Raw,
6,Chido Nnoli,1997,Norway,81.8,227.5,240,245,245.0,147.5,157.5,-162.5,157.5,302.5,317.5,330.5,330.5,733,83,Open,SBD,M,Raw,
7,Jacek Spychała,1978,Poland,82.5,-245,250,260,260.0,165,172.5,-175,172.5,285,297.5,-302.5,297.5,730,83,Open,SBD,M,Raw,
8,Joey Ma,1993,Netherlands,82.85,-250,257.5,-265,257.5,147.5,-152.5,152.5,152.5,285,302.5,-312.5,302.5,712.5,83,Open,SBD,M,Raw,
9,Jonathan Söderling,1988,Sweden,82.55,260,-275,-275,260.0,150,-152.5,,150.0,300,-310,-317.5,300.0,710,83,Open,SBD,M,Raw,
10,Yauheni Kautsevich,1988,Belarus,83,245,260,265,265.0,155,165,-167.5,165.0,270,-285,-285,270.0,700,83,Open,SBD,M,Raw,
11,Kiril Valchanov,1986,Bulgaria,82.55,240,-255,265,265.0,152.5,-157.5,-157.5,152.5,280,-290,-290,280.0,697.5,83,Open,SBD,M,Raw,
12,Maximilian Eisinger,1992,Germany,82.55,235,245,252.5,252.5,165,170,175,175.0,255,265,-272.5,265.0,692.5,83,Open,SBD,M,Raw,
13,Joakim Halland Anders,1992,Norway,82.55,240,252.5,-260,252.5,140,147.5,150,150.0,260,270,275,275.0,677.5,83,Open,SBD,M,Raw,
14,Urban Mur,1993,Slovenia,82.3,220,235,245,245.0,152.5,162.5,167.5,167.5,225,245,262.5,262.5,675,83,Open,SBD,M,Raw,
15,Antonio Gorga,1995,Italy,81.7,230,245,-252.5,245.0,152.5,-160,-160,152.5,270,-290,,270.0,667.5,83,Open,SBD,M,Raw,
16,Friðbjörn Bragi Hlynsson,1991,Iceland,82.2,-225,225,240,240.0,150,155,160,160.0,265,-277.5,-277.5,265.0,665,83,Open,SBD,M,Raw,
17,Degn Hansen Rasmus,1994,Denmark,82.75,247.5,260,265,265.0,150,157.5,160,160.0,230,237.5,-250,237.5,662.5,83,Open,SBD,M,Raw,
18,Jorge Pérez Córdoba,1991,Spain,77,215,225,235,235.0,135,142.5,-147.5,142.5,260,280,-285,280.0,657.5,83,Open,SBD,M,Raw,
19,Raphael Sauta,1994,Switzerland,82.4,200,210,-217.5,210.0,155,165,-170,165.0,230,245,252.5,252.5,627.5,83,Open,SBD,M,Raw,
20,Martins Lielups,1983,Latvia,82.8,190,200,207.5,207.5,127.5,132.5,-137.5,132.5,220,-230,,220.0,560,83,Open,SBD,M,Raw,
1,Anatolii Novopismennyi,1996,Ukraine,92.95,312.5,325.0,331.0,331.0,187.5,192.5,195,195.0,315,327.5,-337.5,327.5,853.5,93,Open,SBD,M,Raw,
2,Gustav Hedlund,1995,Sweden,92.6,285,300,-305,300.0,190,197.5,-205,197.5,315,-345,-357.5,315.0,812.5,93,Open,SBD,M,Raw,
3,Ashley Liston,1989,UK,92.95,-242.5,242.5,262.5,262.5,195,205,-207.5,205.0,295,307.5,322.5,322.5,790,93,Open,SBD,M,Raw,
4,Tanno de Pender,1992,Netherlands,92.85,245,257.5,265,265.0,192.5,200,202.5,202.5,292.5,305,320,320.0,787.5,93,Open,SBD,M,Raw,
5,Erik Elvsvingen,1990,Norway,91,255,270,-282.5,270.0,170,177.5,180,180.0,285,295,302.5,302.5,752.5,93,Open,SBD,M,Raw,
6,Hendrick Famutimi,1984,UK,92.25,-257.5,257.5,272.5,272.5,157.5,162.5,-165,162.5,317.5,-327.5,-327.5,317.5,752.5,93,Open,SBD,M,Raw,
7,Joakim Jørgensen,1994,Denmark,92.8,247.5,-260,-265,247.5,165,170,175,175.0,305,325,-330,325.0,747.5,93,Open,SBD,M,Raw,
8,Rokas Černiauskas,1994,Lithuania,92.45,235,245,255,255.0,170,180,182.5,182.5,290,300,302.5,302.5,740,93,Open,SBD,M,Raw,
9,Rubén Fuentes Medina,1995,Spain,91.1,265,282.5,290,290.0,160,167.5,-172.5,167.5,275,-292.5,-292.5,275.0,732.5,93,Open,SBD,M,Raw,
10,Matthew Henry #1,1994,Ireland,91.95,267.5,280,-292.5,280.0,147.5,152.5,157.5,157.5,260,275,-282.5,275.0,712.5,93,Open,SBD,M,Raw,
11,Stefan Pagelsen,1992,Germany,88.1,230,237.5,-242.5,237.5,162.5,167.5,172.5,172.5,285,297.5,-305,297.5,707.5,93,Open,SBD,M,Raw,
12,Nazarii Lenkivskyi,1995,Ukraine,92.1,250,-257.5,-257.5,250.0,-180,180,-190,180.0,260,275,-307.5,275.0,705,93,Open,SBD,M,Raw,
13,Dominik Filo,1994,Slovakia,92.2,245,-255,255,255.0,160,167.5,-175,167.5,260,275,-282.5,275.0,697.5,93,Open,SBD,M,Raw,
14,Hynek Fránek,1995,Czechia,92.4,255,267.5,-272.5,267.5,165,172.5,,172.5,252.5,-265,-265,252.5,692.5,93,Open,SBD,M,Raw,
15,Alexander Taschner,1989,Austria,92.1,215,225,235,235.0,160,-165,-165,160.0,275,285,-292.5,285.0,680,93,Open,SBD,M,Raw,
16,Philip Eigl,1992,Austria,90.1,230,240,-247.5,240.0,137.5,142.5,-150,142.5,265,277.5,-287.5,277.5,660,93,Open,SBD,M,Raw,
17,Isaiah Raza,1994,Switzerland,89.35,220,232.5,242.5,242.5,137.5,145,-150,145.0,225,237.5,242.5,242.5,630,93,Open,SBD,M,Raw,
DQ,Margus Silbaum,1976,Estonia,92.8,-267.5,267.5,-277.5,267.5,-167.5,-172.5,-177.5,,225,-320,-320,225.0,,93,Open,SBD,M,Raw,
1,Emil Norling,1996,Sweden,104.85,307.5,320,327.5,327.5,190,195,200,200.0,330,347.5,360.0,360.0,887.5,105,Open,SBD,M,Raw,
2,Vladislav Aksennikov,1997,Russia,103.5,285,295,302.5,302.5,195,205,210,210.0,335,345,350,350.0,862.5,105,Open,SBD,M,Raw,
3,Sam Watt,1970,UK,103.75,305,320,327.5,327.5,175,182.5,185,185.0,322.5,337.5,347.5,347.5,860.0,105,Open,SBD,M,Raw,
4,Joshua Greenfield,1994,UK,105,322.5,-343,343.0,343.0,172.5,182.5,-187.5,182.5,297.5,310,-325,310.0,835.5,105,Open,SBD,M,Raw,
5,Mattia Perazzuolo,1992,Italy,103.15,275,295,310,310.0,175,185,192.5,192.5,305,330,-347.5,330.0,832.5,105,Open,SBD,M,Raw,
6,Mikalai Haravoi,1990,Belarus,103.2,300,312.5,320,320.0,185,190,,190.0,322.5,-330,-330,322.5,832.5,105,Open,SBD,M,Raw,
7,Artem Gonchar,1989,Ukraine,103.3,267.5,272.5,275,275.0,187.5,192.5,197.5,197.5,305,312.5,,312.5,785,105,Open,SBD,M,Raw,
8,Anthony McLeggan,1981,Ireland,102.1,235,245,255,255.0,197.5,202.5,-207.5,202.5,300,320,-330,320.0,777.5,105,Open,SBD,M,Raw,
9,Víctor Vázquez Hernández-Carrillo,1995,Spain,103.3,275,-287.5,-287.5,275.0,175,180,-182.5,180.0,-312.5,312.5,320,320.0,775,105,Open,SBD,M,Raw,
10,Pjotr van den Hoek,1972,Netherlands,104.55,285,-295,-295,285.0,195,-200,-200,195.0,280,295,-310,295.0,775,105,Open,SBD,M,Raw,
11,Even Bless Liland,1991,Norway,104.65,227.5,240,250,250.0,195,205,-210,205.0,280,300,-307.5,300.0,755,105,Open,SBD,M,Raw,
12,Miguel Martínez González,1995,Spain,101.45,250,265,275,275.0,160,170,177.5,177.5,280,295,-310,295.0,747.5,105,Open,SBD,M,Raw,
13,Kostiantyn Yezyk,1991,Ukraine,103.3,230,250,-262.5,250.0,207.5,212.5,217.5,217.5,225,255,-275,255.0,722.5,105,Open,SBD,M,Raw,
14,Ingvi Örn Friðriksson,1994,Iceland,100.9,257.5,-267.5,267.5,267.5,150,-160,-160,150.0,285,297.5,-307.5,297.5,715,105,Open,SBD,M,Raw,
15,Argo Erit,1986,Estonia,102.35,200,220,-240,220.0,160,180,-200,180.0,260,275,295,295.0,695,105,Open,SBD,M,Raw,
16,Martin Švercl,1994,Czechia,104.65,230,245,252.5,252.5,157.5,162.5,165,165.0,250,267.5,277.5,277.5,695,105,Open,SBD,M,Raw,
17,Aleksandrs Jasinskis,1990,Latvia,98.35,210,220,227.5,227.5,150,157.5,162.5,162.5,260,275,-295,275.0,665,105,Open,SBD,M,Raw,
18,Paulius Morkvėnas,1992,Lithuania,104.15,220,,,220.0,205,212.5,217.5,217.5,100,-120,,100.0,537.5,105,Open,SBD,M,Raw,
1,Piotr Sadowski #1,1993,Poland,118.7,310,320,330,330.0,210,220,225,225.0,320,340,-363,340.0,895,120,Open,SBD,M,Raw,
2,Dmitro Pavlenko,1992,Ukraine,117.5,315,325,332.5,332.5,195,202.5,-205,202.5,325,335,342.5,342.5,877.5,120,Open,SBD,M,Raw,
DD,Amandas Paulauskas,1987,Lithuania,118.1,-305,-305,305,305.0,240,247.5,-254.5,247.5,315,325,-327.5,325.0,,120,Open,SBD,M,Raw,
3,Daniil Ermolaev,1997,Russia,117.15,325,-340.5,340.5,340.5,190,200,207.5,207.5,320,-330,-330,320.0,868,120,Open,SBD,M,Raw,
4,Māris Juzups,1988,Latvia,119.8,317.5,332.5,345.0,345.0,222.5,230,-232.5,230.0,292.5,-307.5,-307.5,292.5,867.5,120,Open,SBD,M,Raw,
5,Paul-Johannes Heddrich,1991,Germany,119.55,295,305,310,310.0,182.5,187.5,192.5,192.5,330,-345,-345,330.0,832.5,120,Open,SBD,M,Raw,
6,Joseph Walton #1,1991,UK,118.1,310,-322.5,325,325.0,177.5,185,187.5,187.5,295,312.5,317.5,317.5,830,120,Open,SBD,M,Raw,
7,Carl Petter Sommerseth,1985,Norway,118.85,282.5,292.5,-297.5,292.5,-202.5,202.5,-212.5,202.5,310,330,-352.5,330.0,825,120,Open,SBD,M,Raw,
8,Andrey Inin,1990,Russia,113.9,300,310,-315,310.0,207.5,212.5,-215,212.5,-300,300,-332.5,300.0,822.5,120,Open,SBD,M,Raw,
9,Christophe Rebreyend,1988,Netherlands,119.55,265,277.5,-285,277.5,165,170,,170.0,342.5,352.5,-363,352.5,800,120,Open,SBD,M,Raw,
10,Martin Borgland Rønning,1984,Norway,117.9,265,275,-285,275.0,200,-210,-217.5,200.0,300,-327.5,-327.5,300.0,775,120,Open,SBD,M,Raw,
1,Siim Rast,1988,Estonia,185.2,330,345,355,355.0,235,247.5,255,255.0,320,335,-340,335.0,945,120+,Open,SBD,M,Raw,
2,Rubén Rico Martín,1984,Spain,194.2,355,375,380,380.0,222.5,230,232.5,232.5,300,305,310,310.0,922.5,120+,Open,SBD,M,Raw,
3,Róbert Valach,1992,Slovakia,145.1,300,320,330,330.0,205,215,220,220.0,325,342.5,357.5,357.5,907.5,120+,Open,SBD,M,Raw,
4,Steve Ringoot,1989,Belgium,149.4,327.5,337.5,342.5,342.5,220,225,230,230.0,325,335,-350,335.0,907.5,120+,Open,SBD,M,Raw,
5,David Lupáč,1991,Czechia,152.7,305,320,330,330.0,220,-230,232.5,232.5,325,-347.5,-347.5,325.0,887.5,120+,Open,SBD,M,Raw,
6,Viktor Marynenko,1987,Ukraine,130.7,315,325,337.5,337.5,195,205,-212.5,205.0,327.5,-337.5,337.5,337.5,880,120+,Open,SBD,M,Raw,
7,Janis Ansmits,1991,Latvia,149.65,295,310,320,320.0,210,220,225,225.0,322.5,335,-342.5,335.0,880,120+,Open,SBD,M,Raw,
8,Jari Saario,1985,Finland,142.65,312.5,327.5,332.5,332.5,190,197.5,-200,197.5,-340,-340,347.5,347.5,877.5,120+,Open,SBD,M,Raw,
9,Anton Solodov,1985,Russia,166.8,-342.5,342.5,-355,342.5,182.5,192.5,197.5,197.5,310,325,-340,325.0,865,120+,Open,SBD,M,Raw,
DD,Tadas Gečas,1977,Lithuania,139.85,287.5,-290,310,310.0,190,200,207.5,207.5,315,327.5,337.5,337.5,,120+,Open,SBD,M,Raw,
10,Robert Gleisner,1991,Finland,168.4,305,320,-330,320.0,190,200,202.5,202.5,300,315,-320,315.0,837.5,120+,Open,SBD,M,Raw,
1,Kristina Lieonienko,2001,Ukraine,42.95,85,90,92.5,92.5,62.5,65.5,-68,65.5,100,107.5,112.5,112.5,270.5,43,Sub-Juniors,SBD,F,Raw,
2,Yelizaveta Mataras,2005,Belarus,42.4,-100,100.0,105.0,105.0,52.5,-55,-55,52.5,107.5,112.5,-120,112.5,270,43,Sub-Juniors,SBD,F,Raw,
3,Elena Toksarova,2002,Russia,42.2,75,-80,-80,75.0,45,50,52.5,52.5,80,87.5,90,90.0,217.5,43,Sub-Juniors,SBD,F,Raw,
4,Julia Jurczyk,2005,Poland,42.3,70,75,80,80.0,35,40,42.5,42.5,80,87.5,-97.5,87.5,210,43,Sub-Juniors,SBD,F,Raw,
1,Jodie Ring,2001,Ireland,45.45,97.5,102.5,105,105.0,42.5,45,47.5,47.5,112.5,120,130,130.0,282.5,47,Sub-Juniors,SBD,F,Raw,
2,Ekaterina Kruk,2001,Russia,46.25,92.5,97.5,-100,97.5,52.5,57.5,-60,57.5,105,115,-127.5,115.0,270,47,Sub-Juniors,SBD,F,Raw,
3,Dace Krumina Danina,2001,Latvia,46,75,-82.5,-82.5,75.0,37.5,-42.5,-42.5,37.5,95,-102.5,-102.5,95.0,207.5,47,Sub-Juniors,SBD,F,Raw,
1,Elizaveta Nikitina,2001,Russia,51.6,127.5,133.0,138.0,138.0,77.5,80,-82.5,80.0,142.5,148.5,155.5,155.5,373.5,52,Sub-Juniors,SBD,F,Raw,
2,Selma Karoline Matilde Ramberg,2001,Norway,50.95,115,122.5,127.5,127.5,82.5,88.0,90.5,90.5,125,135,142.5,142.5,360.5,52,Sub-Juniors,SBD,F,Raw,
3,Veronika Kashina,2001,Russia,51.25,112.5,120,122.5,122.5,65,70,-75,70.0,110,120,130,130.0,322.5,52,Sub-Juniors,SBD,F,Raw,
4,Zuzanna Pawlicz,2002,Poland,50.5,102.5,110,-112.5,110.0,57.5,60,-62.5,60.0,120,-127.5,127.5,127.5,297.5,52,Sub-Juniors,SBD,F,Raw,
5,Linde Heerkens,2001,Netherlands,51.1,90,-95,95,95.0,50,55,57.5,57.5,127.5,-137.5,137.5,137.5,290,52,Sub-Juniors,SBD,F,Raw,
6,Šárka Fibingrová,2001,Czechia,49.7,105,110,112.5,112.5,55,57.5,-60,57.5,105,-110,110,110.0,280,52,Sub-Juniors,SBD,F,Raw,
7,Jaime Lei Fuller,2003,UK,51.7,97.5,102.5,-107.5,102.5,57.5,60,-62.5,60.0,107.5,112.5,117.5,117.5,280,52,Sub-Juniors,SBD,F,Raw,
8,Laura Gwiżdż,2003,Poland,51.6,80,82.5,-85,82.5,52.5,-57.5,-57.5,52.5,115,-125,125,125.0,260,52,Sub-Juniors,SBD,F,Raw,
9,Sabina Oproiu,2005,Romania,51.2,70,-75,75,75.0,-47.5,47.5,-55,47.5,-80,80,90,90.0,212.5,52,Sub-Juniors,SBD,F,Raw,
1,Fanny Lamminen,2002,Finland,56.6,152.5,157.5,-160.5,157.5,77.5,82.5,85,85.0,137.5,145,-152.5,145.0,387.5,57,Sub-Juniors,SBD,F,Raw,
2,Yuliya Surkova,2001,Russia,56.85,135,-140,140,140.0,65,-70,-70,65.0,145,150,155.0,155.0,360,57,Sub-Juniors,SBD,F,Raw,
3,Anastasiya Obedkova,2002,Russia,55.6,125,130,132.5,132.5,65,-70,70,70.0,135,140,145,145.0,347.5,57,Sub-Juniors,SBD,F,Raw,
4,Alice Menghini,2001,Italy,55.5,110,117.5,122.5,122.5,70,75,-77.5,75.0,140,-147.5,-147.5,140.0,337.5,57,Sub-Juniors,SBD,F,Raw,
5,Nelly Kwaśkiewicz,2003,Poland,56.6,110,117.5,122.5,122.5,55,-60,-60,55.0,125,130,135,135.0,312.5,57,Sub-Juniors,SBD,F,Raw,
6,Adrianna Borowczyk,2003,Poland,55.5,115,117.5,120,120.0,55,57.5,-60,57.5,120,127.5,-130,127.5,305,57,Sub-Juniors,SBD,F,Raw,
7,Olena Shatalova,2002,Ukraine,56.4,105,110,-112.5,110.0,55,60,-62.5,60.0,125,-130,-130,125.0,295,57,Sub-Juniors,SBD,F,Raw,
8,Sofia Räihä,2001,Finland,56.4,100,-105,-105,100.0,57.5,60,-62.5,60.0,-125,132.5,-142.5,132.5,292.5,57,Sub-Juniors,SBD,F,Raw,
9,Mariana Dorka,2001,Ukraine,54.85,95,-100,-102.5,95.0,57.5,62.5,-65,62.5,110,115,117.5,117.5,275,57,Sub-Juniors,SBD,F,Raw,
1,Samantha Eugenie,2002,France,61,150,158.0,160.0,160.0,80,85,-87.5,85.0,190.0,-197.5,-197.5,190.0,435.0,63,Sub-Juniors,SBD,F,Raw,
2,Dominika Jansová,2001,Czechia,61.4,115,120,125,125.0,77.5,82.5,85,85.0,155,165,172.5,172.5,382.5,63,Sub-Juniors,SBD,F,Raw,
3,Drusilla Coan,2001,Italy,62.55,125,130,132.5,132.5,95.5,96.5,98.0,98.0,150,-155,-155,150.0,380.5,63,Sub-Juniors,SBD,F,Raw,
4,Anita Kolesnyk,2003,Ukraine,61.1,125,130,132.5,132.5,55,60,62.5,62.5,132.5,142.5,150,150.0,345,63,Sub-Juniors,SBD,F,Raw,
5,Tessa Ophoff,2001,Netherlands,62.15,115,122.5,-127.5,122.5,-65,65,-67.5,65.0,140,150,152.5,152.5,340,63,Sub-Juniors,SBD,F,Raw,
6,Anita Slobodian,2001,Ukraine,62.6,122.5,-127.5,-127.5,122.5,70,75,-77.5,75.0,140,-147.5,-147.5,140.0,337.5,63,Sub-Juniors,SBD,F,Raw,
7,Milka Kanerva,2002,Finland,58.6,100,105,-107.5,105.0,52.5,55,57.5,57.5,107.5,112.5,117.5,117.5,280,63,Sub-Juniors,SBD,F,Raw,
1,Clara Peyraud,2002,France,70,140,147.5,152.5,152.5,92.5,100.0,-105,100.0,190.5,201.0,205.0,205.0,457.5,72,Sub-Juniors,SBD,F,Raw,
2,Eszter Sallai,2001,Hungary,69.8,135,145,150,150.0,80,82.5,85,85.0,155,165,170,170.0,405,72,Sub-Juniors,SBD,F,Raw,
3,Cathelijne Gort,2001,Netherlands,70,105,115,-120,115.0,77.5,-82.5,-82.5,77.5,172.5,182.5,-201.5,182.5,375,72,Sub-Juniors,SBD,F,Raw,
4,Natalia Wójtowicz,2001,Poland,65.6,112.5,117.5,122.5,122.5,70,72.5,75,75.0,140,150,152.5,152.5,350,72,Sub-Juniors,SBD,F,Raw,
5,Anhelina Dehtiar,2001,Ukraine,70.6,120,-125,-125,120.0,70,75,-80,75.0,130,135,145,145.0,340,72,Sub-Juniors,SBD,F,Raw,
1,Anna Vozmilova,2001,Russia,83.45,150,157.5,165,165.0,90,95,97.5,97.5,147.5,157.5,-172.5,157.5,420,84,Sub-Juniors,SBD,F,Raw,
2,Michaela Kanátová,2002,Czechia,82,145,152.5,-157.5,152.5,70,-75,-75,70.0,160,170,-177.5,170.0,392.5,84,Sub-Juniors,SBD,F,Raw,
3,Nikola Śpica,2001,Poland,74.3,135,-140,-140,135.0,77.5,-82.5,82.5,82.5,155,160,-165,160.0,377.5,84,Sub-Juniors,SBD,F,Raw,
4,Corrina McConnell,2001,Ireland,75.4,130,137.5,140,140.0,70,75,77.5,77.5,150,160,-165,160.0,377.5,84,Sub-Juniors,SBD,F,Raw,
1,Andżelika Płótnicka,2002,Poland,94.65,150,157.5,162.5,162.5,60,65,-67.5,65.0,160,172.5,175,175.0,402.5,84+,Sub-Juniors,SBD,F,Raw,
2,Anna Prikhodko,2002,Russia,122.4,150,157.5,162.5,162.5,77.5,-82.5,82.5,82.5,152.5,157.5,-165,157.5,402.5,84+,Sub-Juniors,SBD,F,Raw,
3,Klaudia Murza,2002,Poland,101.9,155,165,172.5,172.5,70,75,-77.5,75.0,145,152.5,-160,152.5,400,84+,Sub-Juniors,SBD,F,Raw,
4,Valerija Petrovaitė,2005,Lithuania,90.9,100,110,115,115.0,47.5,50,-55,50.0,90,100,-105,100.0,265,84+,Sub-Juniors,SBD,F,Raw,
1,Olga Volynskaya,1999,Russia,42.8,80,85,-87.5,85.0,55,57.5,60,60.0,100,105,107.5,107.5,252.5,43,Juniors,SBD,F,Raw,
2,Dariia Brazhnyk,1997,Ukraine,42.6,80,85,90,90.0,52.5,-57.5,-57.5,52.5,92.5,102.5,107.5,107.5,250,43,Juniors,SBD,F,Raw,1997-04-28
1,Mariia Zabelina,1997,Russia,46.8,110,115,-120,115.0,62.5,65,67.5,67.5,142.5,151.5,153.0,153.0,335.5,47,Juniors,SBD,F,Raw,
2,Zuzanna Kula,1999,Poland,46.6,112.5,115,-117.5,115.0,70,72.5,75,75.0,132.5,140,145,145.0,335,47,Juniors,SBD,F,Raw,1999-04-20
3,Sabrina Shah,1996,UK,46.05,117.5,-122.5,122.5,122.5,70,75,77.5,77.5,127.5,132.5,-135,132.5,332.5,47,Juniors,SBD,F,Raw,
4,Cherry Yeung,1997,UK,45.3,107.5,112.5,115,115.0,65,70,-72.5,70.0,140,-147.5,-147.5,140.0,325,47,Juniors,SBD,F,Raw,
5,Chiara Pastorio,1996,Italy,45.2,110,115,117.5,117.5,62.5,65,67.5,67.5,130,137.5,-145,137.5,322.5,47,Juniors,SBD,F,Raw,
1,Oda Jensen,1996,Denmark,51.4,105,115,117.5,117.5,82.5,85,-87.5,85.0,142.5,150,155,155.0,357.5,52,Juniors,SBD,F,Raw,
2,Erin Aldcroft,1998,UK,50.4,110,115,120,120.0,77.5,82.5,85,85.0,137.5,145,150,150.0,355,52,Juniors,SBD,F,Raw,
3,Izabela Góralska,2000,Poland,51.35,125,-132.5,132.5,132.5,62.5,65,-67.5,65.0,145,150,-155,150.0,347.5,52,Juniors,SBD,F,Raw,
4,Olivia Kyösti,1999,Finland,51.5,120,125,-127.5,125.0,67.5,-70,-70,67.5,135,140,-147.5,140.0,332.5,52,Juniors,SBD,F,Raw,
5,Elisa Ferraioli,1997,Italy,50.5,120,-125,125,125.0,60,62.5,-65,62.5,132.5,-140,140,140.0,327.5,52,Juniors,SBD,F,Raw,
6,Irina Melkild,1997,Norway,50.3,100,107.5,-112.5,107.5,70,75,-77.5,75.0,112.5,117.5,-122.5,117.5,300,52,Juniors,SBD,F,Raw,
DQ,Viktoria Druziaka,1998,Ukraine,51.5,130,138.5,-141,138.5,-80,-80,-80,,127.5,-137.5,-147.5,127.5,,52,Juniors,SBD,F,Raw,
1,Alena Zubova,1997,Russia,56.7,152.5,-157.5,-157.5,152.5,77.5,82.5,85,85.0,160,170,172.5,172.5,410.0,57,Juniors,SBD,F,Raw,
2,Donna Berglund,1997,Sweden,56.75,127.5,135,140,140.0,110,118.0,120.5,120.5,135,142.5,147.5,147.5,408.0,57,Juniors,SBD,F,Raw,
3,Agnès Alves,1996,France,56.7,130,135,140,140.0,85,-92.5,92.5,92.5,162.5,170,-180,170.0,402.5,57,Juniors,SBD,F,Raw,
4,Ekaterina Nazarova,2000,Russia,56.55,135,140,-142.5,140.0,85,-90,-90,85.0,142.5,150,-155,150.0,375,57,Juniors,SBD,F,Raw,
5,Fanny Rampon,1997,France,55.5,125,-130,130,130.0,82.5,-87.5,87.5,87.5,145,152.5,-155,152.5,370,57,Juniors,SBD,F,Raw,
6,Esther Gutiérrez Gutiérrez,1996,Spain,56.7,127.5,135,-140,135.0,60,65,-67.5,65.0,142.5,152.5,-165,152.5,352.5,57,Juniors,SBD,F,Raw,
7,Rebekka Tao Jacobsen,1996,Norway,56.8,140,145,-147.5,145.0,67.5,-70,-70,67.5,135,-142.5,-142.5,135.0,347.5,57,Juniors,SBD,F,Raw,
8,Sheina Kaye,1997,UK,55.55,115,122.5,-125,122.5,72.5,75,77.5,77.5,135,142.5,-147.5,142.5,342.5,57,Juniors,SBD,F,Raw,
9,Zuzana Ha Dacova,1996,Ireland,56.4,110,115,117.5,117.5,55,60,62.5,62.5,152.5,160,-162.5,160.0,340,57,Juniors,SBD,F,Raw,
10,Žaneta Navickaitė,1999,Lithuania,56.85,110,-117.5,-117.5,110.0,60,65,-70,65.0,140,150,162.5,162.5,337.5,57,Juniors,SBD,F,Raw,
11,Nadezda Medvecka,1996,Latvia,56.75,97.5,102.5,107.5,107.5,67.5,70,75,75.0,130,-137.5,137.5,137.5,320,57,Juniors,SBD,F,Raw,
12,Kelly Reppo Catrin,2000,Estonia,56.4,80,85,-90,85.0,55,60,-62.5,60.0,107.5,112.5,115,115.0,260,57,Juniors,SBD,F,Raw,
1,Sara Naldi,1998,Italy,61.3,155,-162.5,166.0,166.0,87.5,90,92.5,92.5,182.5,190,-195.5,190.0,448.5,63,Juniors,SBD,F,Raw,
2,Lena Sjøl,1997,Norway,62.35,142.5,150,155,155.0,87.5,92.5,95,95.0,172.5,177.5,185,185.0,435,63,Juniors,SBD,F,Raw,
3,Suzanne Daniel,1997,UK,61.75,132.5,140,-145,140.0,87.5,90,92.5,92.5,185,195.0,-202.5,195.0,427.5,63,Juniors,SBD,F,Raw,
4,Veronika Schulze,1997,Germany,62.1,152.5,157.5,160,160.0,90,-95,-95,90.0,170,175,-177.5,175.0,425,63,Juniors,SBD,F,Raw,
5,Aletta Rozsnyai Kovacs,1999,Hungary,62.05,130,140,145,145.0,95,97.5,102.5,102.5,155,165,172.5,172.5,420,63,Juniors,SBD,F,Raw,
6,Chiara Bernardi,1998,Italy,62.15,142.5,150,-152.5,150.0,90,95,-97.5,95.0,160,170,-180,170.0,415,63,Juniors,SBD,F,Raw,
7,Sonia Gonçalves Da Silva,1996,Germany,62.25,140,147.5,150,150.0,80,-85,-85,80.0,170,177.5,185,185.0,415,63,Juniors,SBD,F,Raw,
8,Frida Aung,1997,Norway,61.4,135,140,145,145.0,85,90,92.5,92.5,152.5,162.5,167.5,167.5,405,63,Juniors,SBD,F,Raw,
9,Karenjeet Bains,1996,UK,62.6,130,135,140,140.0,77.5,80,82.5,82.5,152.5,162.5,-167.5,162.5,385,63,Juniors,SBD,F,Raw,
10,Sophia Pilwax,1999,Austria,61.4,127.5,135,140,140.0,72.5,77.5,80,80.0,140,147.5,-152.5,147.5,367.5,63,Juniors,SBD,F,Raw,
11,Valeriia Penevskaia,1997,Russia,62.45,130,137.5,-140,137.5,77.5,82.5,-85,82.5,130,140,145,145.0,365,63,Juniors,SBD,F,Raw,
12,Chere Duffy,1996,Ireland,60.95,115,122.5,127.5,127.5,57.5,62.5,65,65.0,-135,135,140,140.0,332.5,63,Juniors,SBD,F,Raw,
13,Alexandra Asplund,1998,Finland,61.6,112.5,-120,120,120.0,67.5,-70,70,70.0,132.5,142.5,-150,142.5,332.5,63,Juniors,SBD,F,Raw,
14,Kateřina Prípadová,1999,Czechia,61.15,115,120,-125,120.0,62.5,-67.5,67.5,67.5,110,140,-147.5,140.0,327.5,63,Juniors,SBD,F,Raw,
DQ,Océane Regis,1996,France,61.3,142.5,147.5,-150,147.5,92.5,97.5,-100,97.5,-167.5,-167.5,-167.5,,,63,Juniors,SBD,F,Raw,
1,Vilma Olsson,1999,Sweden,71.3,180,190.5,-198,190.5,105,110,-112.5,110.0,180,190,-197.5,190.0,490.5,72,Juniors,SBD,F,Raw,
2,Ida Lis,2000,Poland,69.35,-172.5,172.5,180,180.0,95,102.5,105,105.0,192.5,-202.5,-202.5,192.5,477.5,72,Juniors,SBD,F,Raw,
3,Isabell Adolfsen,1999,Norway,69.55,147.5,155,160,160.0,90,95,-97.5,95.0,185,195,-200,195.0,450,72,Juniors,SBD,F,Raw,
4,Amira Isabel Blecua Malak,1999,Spain,70.2,155,162.5,-167.5,162.5,90,95,-97.5,95.0,180,-190,-195,180.0,437.5,72,Juniors,SBD,F,Raw,
5,Sofiya Rud,1997,Ukraine,70.4,145,155,-160,155.0,92.5,95,-97.5,95.0,175,182.5,-190,182.5,432.5,72,Juniors,SBD,F,Raw,
6,Tuulia Lohivuo,1997,Finland,71.75,155,160,-165,160.0,-95,95,-100,95.0,162.5,170,-175,170.0,425,72,Juniors,SBD,F,Raw,
7,Ramunė Vainauskytė,2000,Lithuania,69.1,140,145,-150,145.0,85,-90,92.5,92.5,170,180,-190,180.0,417.5,72,Juniors,SBD,F,Raw,
8,Jacqueline Klaver,1996,Netherlands,71.05,162.5,170,-175,170.0,67.5,70,72.5,72.5,175,-185,-190,175.0,417.5,72,Juniors,SBD,F,Raw,
9,Eva Vico Martínez,1998,Spain,70.1,147.5,-155,-155,147.5,90,95,97.5,97.5,145,155,160,160.0,405,72,Juniors,SBD,F,Raw,
10,Klára Zmeškalová,1997,Czechia,70.8,150,-157.5,-157.5,150.0,77.5,-80,-80,77.5,172.5,-185,-185,172.5,400,72,Juniors,SBD,F,Raw,
11,Carrie Carmichael,1997,Ireland,70.6,135,142.5,150,150.0,60,65,70,70.0,162.5,172.5,-180,172.5,392.5,72,Juniors,SBD,F,Raw,
12,Suzanne Goulder,1996,UK,70.45,130,137.5,140,140.0,77.5,82.5,-85,82.5,157.5,167.5,-172.5,167.5,390,72,Juniors,SBD,F,Raw,
13,Roemer Andersen Rebekka,1996,Denmark,71.25,125,132.5,-135,132.5,90,-95,-95,90.0,155,162.5,-167.5,162.5,385,72,Juniors,SBD,F,Raw,
14,Dina Lorentzen,1999,Norway,70.55,135,142.5,147.5,147.5,90,95,-100,95.0,140,,,140.0,382.5,72,Juniors,SBD,F,Raw,
15,Annika Bell,1997,Denmark,70.45,132.5,140,-147.5,140.0,60,65,67.5,67.5,157.5,165,170,170.0,377.5,72,Juniors,SBD,F,Raw,
16,Anna Brennan,1998,Czechia,67.1,140,147.5,152.5,152.5,65,-70,-70,65.0,135,147.5,155,155.0,372.5,72,Juniors,SBD,F,Raw,
17,Eglė Turakevičiūtė,1999,Lithuania,69.6,100,107.5,,107.5,100,105,107.5,107.5,120,125,-130,125.0,340,72,Juniors,SBD,F,Raw,
1,Jessika Lowe,1996,Sweden,78.5,157.5,162.5,167.5,167.5,100,105,107.5,107.5,200,205,207.5,207.5,482.5,84,Juniors,SBD,F,Raw,
2,Henna Kaasalainen,1999,Finland,83.1,177.5,182.5,185,185.0,87.5,92.5,-95,92.5,195,200,205,205.0,482.5,84,Juniors,SBD,F,Raw,
3,Laura Bilicz,1997,Hungary,78.8,150,160,167.5,167.5,85,90,95,95.0,150,162.5,-167.5,162.5,425,84,Juniors,SBD,F,Raw,
4,Anna Niemczyk,1996,Poland,78.95,145,155,160,160.0,60,62.5,-65,62.5,155,165,170,170.0,392.5,84,Juniors,SBD,F,Raw,
5,Marie Bielefeldt Maren,1999,Denmark,73.3,130,-137.5,-142.5,130.0,90,95,-100,95.0,147.5,155,-165,155.0,380,84,Juniors,SBD,F,Raw,
6,Ugnė Karsokaitė,2000,Lithuania,72.05,87.5,95,100,100.0,57.5,62.5,65,65.0,95,105,110,110.0,275,84,Juniors,SBD,F,Raw,
1,Mirka Valo,1997,Finland,99.15,160,170,177.5,177.5,95,100,102.5,102.5,200,210,-228,210.0,490,84+,Juniors,SBD,F,Raw,
2,Charlie Chester,1996,UK,105.55,170,175,177.5,177.5,92.5,-97.5,-97.5,92.5,175,180,182.5,182.5,452.5,84+,Juniors,SBD,F,Raw,
3,Brittney van den Berg,1996,Netherlands,110.95,160,-167.5,167.5,167.5,97.5,102.5,105,105.0,170,175,180,180.0,452.5,84+,Juniors,SBD,F,Raw,
4,Melissa Bird,1998,UK,97.75,162.5,170,175,175.0,85,90,92.5,92.5,165,175,-182.5,175.0,442.5,84+,Juniors,SBD,F,Raw,
5,Paulina Lechowicz,1996,Poland,88.3,147.5,152.5,-157.5,152.5,100,105,-107.5,105.0,165,175,-182.5,175.0,432.5,84+,Juniors,SBD,F,Raw,
6,Olesya Lukina,1999,Russia,113.65,145,-160,160,160.0,70,80,85,85.0,150,160,165,165.0,410,84+,Juniors,SBD,F,Raw,
7,Agata Kaliciak,1997,Poland,88.05,142.5,152.5,-157.5,152.5,77.5,80,-82.5,80.0,157.5,-165,165,165.0,397.5,84+,Juniors,SBD,F,Raw,
8,Klomkliang Phattarapon Ye,1997,Belgium,87.8,145,-150,-150,145.0,77.5,82.5,-85,82.5,155,-162.5,,155.0,382.5,84+,Juniors,SBD,F,Raw,
1,Janine Martin,1986,Ireland,45.05,100,105,110,110.0,75,80,82.5,82.5,137.5,145,150,150.0,342.5,47,Open,SBD,F,Raw,
2,Danielle Malcolm,1991,UK,46.8,107.5,112.5,115,115.0,-70,70,75,75.0,132.5,140,145,145.0,335,47,Open,SBD,F,Raw,
3,Mariia Zabelina,1997,Russia,46.9,110,115,117.5,117.5,65,-67.5,-67.5,65.0,145,152.5,-155,152.5,335,47,Open,SBD,F,Raw,
4,Zuzanna Kula,1999,Poland,46.7,115,120,-122.5,120.0,70,72.5,-75,72.5,132.5,140,-145,140.0,332.5,47,Open,SBD,F,Raw,
5,Tatiana Koroleva,1986,Russia,46.75,105,110,112.5,112.5,72.5,77.5,-80,77.5,-132.5,135,140,140.0,330,47,Open,SBD,F,Raw,
6,Nataliya Ivankova,1974,Ukraine,46.45,100,105,110,110.0,60,67.5,-70,67.5,120,-127.5,130,130.0,307.5,47,Open,SBD,F,Raw,
1,Noémie Allabert,1990,France,51.9,140,147.5,152.5,152.5,75,80,82.5,82.5,162.5,172.5,180,180.0,415,52,Open,SBD,F,Raw,
2,Shizuka Rico,1994,France,51,135,140,145,145.0,70,75,-77.5,75.0,175,180,185,185.0,405,52,Open,SBD,F,Raw,
3,Olga Golubeva,1970,Russia,51.6,135,140,-145,140.0,90,95,-97.5,95.0,160,170,-175,170.0,405,52,Open,SBD,F,Raw,
4,Pleun Dekkers,1994,Netherlands,51.15,153.0,158.0,160.5,160.5,-72.5,72.5,-75,72.5,152.5,-162.5,-167.5,152.5,385.5,52,Open,SBD,F,Raw,
5,Barbara Gapp,1981,Austria,51.9,107.5,115,120,120.0,60,62.5,-65,62.5,175,182.5,187.5,187.5,370,52,Open,SBD,F,Raw,
6,Anna Komlaeva,1979,Russia,51.9,120,125,-130,125.0,75,80,82.5,82.5,140,147.5,-150,147.5,355,52,Open,SBD,F,Raw,
7,Paulina Szymanel,1995,Poland,49.1,112.5,120,-125,120.0,70,72.5,-75,72.5,150,-160,-160,150.0,342.5,52,Open,SBD,F,Raw,
8,Hanna Seppä,1993,Finland,51.6,110,-115,120,120.0,-70,-70,70,70.0,150,-160,-172.5,150.0,340,52,Open,SBD,F,Raw,
9,Kristina Kirilesku,1995,Lithuania,51.7,95,-100,100,100.0,-55,55,60,60.0,120,130,-132.5,130.0,290,52,Open,SBD,F,Raw,
10,Laura Margevičiūtė,1979,Lithuania,51.3,-95,95,-100,95.0,55,-60,60,60.0,120,130,-135,130.0,285,52,Open,SBD,F,Raw,
11,Anna Hourihane,1993,Ireland,51.8,55,,,55.0,80,82.5,-85,82.5,75,,,75.0,212.5,52,Open,SBD,F,Raw,
1,Joy Nnamani,1992,UK,56.1,145,155,-160,155.0,87.5,92.5,-95,92.5,197.5,205.0,-210,205.0,452.5,57,Open,SBD,F,Raw,
2,Inna Filimonova #1,1976,Russia,56.9,155,165,172.5,172.5,72.5,77.5,80,80.0,170,-182.5,-182.5,170.0,422.5,57,Open,SBD,F,Raw,
3,Laura Savolainen,1989,Sweden,56.5,125,130,-132.5,130.0,92.5,95,97.5,97.5,160,167.5,172.5,172.5,400,57,Open,SBD,F,Raw,
4,Valentina Presenti,1991,Italy,56.3,140,145,-147.5,145.0,80,85,-87.5,85.0,152.5,162.5,-165,162.5,392.5,57,Open,SBD,F,Raw,
5,Chloé-Jade McDonald,1992,Ireland,56.85,135,-140,140,140.0,67.5,72.5,-75,72.5,167.5,180,-190,180.0,392.5,57,Open,SBD,F,Raw,
6,Evita Talahatu,1987,Netherlands,57,140,-147.5,147.5,147.5,82.5,87.5,90,90.0,127.5,135,-142.5,135.0,372.5,57,Open,SBD,F,Raw,
7,Irene Aguilar Sánchez,1991,Spain,56.9,-120,120,-125,120.0,75,77.5,80,80.0,150,157.5,-162.5,157.5,357.5,57,Open,SBD,F,Raw,
8,Diana Neculae,1989,Romania,56.85,-100,100,110,110.0,-65,65,-75,65.0,145,-152.5,152.5,152.5,327.5,57,Open,SBD,F,Raw,
1,Prescillia Bavoil,1993,France,63,-182.5,185,193.0,193.0,97.5,102.5,105,105.0,200,207.5,216.0,216.0,514.0,63,Open,SBD,F,Raw,
2,Ivana Horná,1990,Slovakia,62.2,162.5,167.5,172.5,172.5,100,105,107.5,107.5,205,215.5,-222,215.5,495.5,63,Open,SBD,F,Raw,
3,Maria Dubenskaya,1988,Russia,62.75,150,157.5,162.5,162.5,117.5,-125,-125,117.5,165,175,182.5,182.5,462.5,63,Open,SBD,F,Raw,
4,Brónagh McPeake,1992,Ireland,61.1,165,-172.5,175,175.0,85,90,-92.5,90.0,172.5,182.5,190,190.0,455,63,Open,SBD,F,Raw,
5,Iris Scholten,1992,Netherlands,62.4,160,167.5,175,175.0,95,100,102.5,102.5,165,175,-185,175.0,452.5,63,Open,SBD,F,Raw,
6,Jolien Dreesen,1994,Netherlands,61.8,157.5,162.5,167.5,167.5,77.5,82.5,85,85.0,175,185,190,190.0,442.5,63,Open,SBD,F,Raw,
7,Sabrina Moore #1,1989,UK,62.5,140,150,155,155.0,90,95,97.5,97.5,187.5,-200,-200,187.5,440,63,Open,SBD,F,Raw,
8,Kateryna Plis,1990,Ukraine,62.3,167.5,172.5,175,175.0,77.5,80,82.5,82.5,165,172.5,-180,172.5,430,63,Open,SBD,F,Raw,
9,Sahyuri Lalime,1984,Belgium,62.25,137.5,145,152.5,152.5,75,77.5,80,80.0,165,175,180,180.0,412.5,63,Open,SBD,F,Raw,
10,Mercedes Miranda Delgado,1995,Spain,61.9,140,147.5,152.5,152.5,77.5,82.5,85,85.0,162.5,172.5,-180,172.5,410,63,Open,SBD,F,Raw,
11,Sunniva Nordskog,1986,Norway,62.3,135,140,142.5,142.5,95,100,-105,100.0,155,-165,167.5,167.5,410,63,Open,SBD,F,Raw,
12,Nino Tchrikishvili,1991,Georgia,62.8,-140,140,-145,140.0,65,70,-72.5,70.0,187.5,192.5,-195,192.5,402.5,63,Open,SBD,F,Raw,
13,Arna Ösp Gunnarsdóttir,1995,Iceland,62.5,-132.5,132.5,140,140.0,77.5,82.5,-85,82.5,165,177.5,-182.5,177.5,400,63,Open,SBD,F,Raw,
14,Monica Rasmussen,1972,Norway,62.45,157.5,-162.5,-162.5,157.5,72.5,75,77.5,77.5,150,162.5,-165,162.5,397.5,63,Open,SBD,F,Raw,
15,Raphaela Jungmann,1987,Austria,62.2,145,-152.5,-152.5,145.0,77.5,82.5,85,85.0,-165,-165,165,165.0,395,63,Open,SBD,F,Raw,
16,Eugenia Orlando,1989,Italy,62.9,130,137.5,140,140.0,85,87.5,-90,87.5,155,162.5,-170,162.5,390,63,Open,SBD,F,Raw,
17,Martina Lang,1988,Austria,61.55,117.5,127.5,135,135.0,92.5,-97.5,97.5,97.5,135,145,152.5,152.5,385,63,Open,SBD,F,Raw,
18,Marharyta Klynova,1992,Ukraine,62.25,-145,145,-155,145.0,82.5,-87.5,-87.5,82.5,145,155,-162.5,155.0,382.5,63,Open,SBD,F,Raw,
19,Teresa Martikkala,1994,Finland,61.25,150,-155,-155,150.0,70,75,77.5,77.5,135,142.5,-150,142.5,370,63,Open,SBD,F,Raw,
20,Lenka Strolená,1984,Czechia,62.15,120,127.5,132.5,132.5,80,-85,-85,80.0,150,157.5,-162.5,157.5,370,63,Open,SBD,F,Raw,
21,Lina Gerutė,1976,Lithuania,59.25,-100,-100,100,100.0,47.5,-50,-50,47.5,155,-167.5,-167.5,155.0,302.5,63,Open,SBD,F,Raw,
22,Ieva Balukonytė,1994,Lithuania,61.15,90,97.5,102.5,102.5,60,-65,-65,60.0,115,125,-132.5,125.0,287.5,63,Open,SBD,F,Raw,
1,Angelina Elovikova,1993,Russia,71.95,185,195,203.5,203.5,100,105,110,110.0,210,220,230.0,230.0,543.5,72,Open,SBD,F,Raw,
2,Sara Mazzantini,1990,Italy,69.7,175,185,192.5,192.5,105,-107.5,-107.5,105.0,200,210,220,220.0,517.5,72,Open,SBD,F,Raw,
3,Ida Rönn,1997,Sweden,71.85,180,185,-190,185.0,102.5,107.5,-110,107.5,210,220,-225.5,220.0,512.5,72,Open,SBD,F,Raw,
4,Maria Letnes,1991,Norway,71.5,165,175,180,180.0,115,120,122.5,122.5,182.5,-192.5,-192.5,182.5,485,72,Open,SBD,F,Raw,
5,Stine Liveroed,1992,Norway,71.25,177.5,-185,185,185.0,102.5,107.5,-110,107.5,175,185,-192.5,185.0,477.5,72,Open,SBD,F,Raw,
6,Eno Majomi,1974,UK,70.45,-165,165,175,175.0,95,-100,-100,95.0,175,185,192.5,192.5,462.5,72,Open,SBD,F,Raw,
7,Maja Bonde,1993,Denmark,70.95,157.5,167.5,-172.5,167.5,82.5,87.5,90,90.0,180,195,200,200.0,457.5,72,Open,SBD,F,Raw,
8,Jonna Kettunen,1992,Finland,71.6,160,-165,-165,160.0,90,95,-97.5,95.0,195,202.5,-212.5,202.5,457.5,72,Open,SBD,F,Raw,
9,Amy Atkinson,1987,UK,68.65,155,165,172.5,172.5,95,100,-102.5,100.0,162.5,175,-182.5,175.0,447.5,72,Open,SBD,F,Raw,
10,Helena Veelmaa,1995,Estonia,71.3,157.5,162.5,170,170.0,87.5,92.5,-97.5,92.5,160,170,180,180.0,442.5,72,Open,SBD,F,Raw,
11,Emma McDermott,1992,Ireland,70.7,135,142.5,147.5,147.5,75,80,-82.5,80.0,175,185,192.5,192.5,420,72,Open,SBD,F,Raw,
12,Andrea Marx,1993,Switzerland,71.1,125,130,135,135.0,85,90,-92.5,90.0,160,172.5,-180,172.5,397.5,72,Open,SBD,F,Raw,
13,Karmen Kaljula,1994,Estonia,69.75,115,122.5,130,130.0,75,-80,-80,75.0,140,150,-160,150.0,355,72,Open,SBD,F,Raw,
14,Saulė Bartkutė,1990,Lithuania,71.7,102.5,107.5,-115,107.5,62.5,-67.5,-67.5,62.5,140,150,-155,150.0,320,72,Open,SBD,F,Raw,
1,Ielja Strik,1973,Netherlands,83.75,195,202.5,205,205.0,127.5,132.5,135,135.0,185,192.5,-200,192.5,532.5,84,Open,SBD,F,Raw,
2,Ankie Timmers,1986,Netherlands,80.5,167.5,175,180,180.0,112.5,117.5,120,120.0,200,210,217.5,217.5,517.5,84,Open,SBD,F,Raw,
3,Temitope Nuga,1985,UK,80.7,177.5,185,-190,185.0,87.5,92.5,95,95.0,205,225.5,228.0,228.0,508,84,Open,SBD,F,Raw,
4,Sylvia Szarvas,1984,Germany,82.4,167.5,172.5,177.5,177.5,120,125,130,130.0,185,192.5,200,200.0,507.5,84,Open,SBD,F,Raw,
5,Sniazhana Zubko,1991,Belarus,78.55,192.5,-200,-200,192.5,95,-97.5,97.5,97.5,200,212.5,-217.5,212.5,502.5,84,Open,SBD,F,Raw,
6,Isabel Carina Nakken Cloin,1988,Norway,83.5,190,197.5,-202.5,197.5,95,-100,-100,95.0,200,210,-217.5,210.0,502.5,84,Open,SBD,F,Raw,
7,Marte Kjenner,1989,Norway,74.2,170,180,187.5,187.5,97.5,102.5,105,105.0,187.5,200,207.5,207.5,500,84,Open,SBD,F,Raw,
8,Katja Jørgensen,1988,Denmark,82.45,160,170,-175,170.0,100,105,107.5,107.5,200,220,-226,220.0,497.5,84,Open,SBD,F,Raw,
9,Deirdre Fenlon,1984,Ireland,82.9,172.5,182.5,187.5,187.5,80,85,-87.5,85.0,192.5,197.5,-205,197.5,470,84,Open,SBD,F,Raw,
10,Alison O'Reilly,1992,Ireland,82.2,165,172.5,175,175.0,92.5,97.5,100,100.0,180,-190,-190,180.0,455,84,Open,SBD,F,Raw,
11,Birgit Rós Becker,1989,Iceland,81.7,162.5,-172.5,172.5,172.5,80,85,87.5,87.5,160,172.5,-177.5,172.5,432.5,84,Open,SBD,F,Raw,
12,Anna Wieczorek,1984,Poland,84,177.5,-185,-185,177.5,75,-80,80,80.0,170,175,-182.5,175.0,432.5,84,Open,SBD,F,Raw,
13,Hanna-Leena Kivijärvi,1985,Finland,80.6,152.5,160,-165,160.0,85,-87.5,-87.5,85.0,172.5,177.5,182.5,182.5,427.5,84,Open,SBD,F,Raw,
14,Johanna Ilves,1981,Finland,83.45,157.5,-165,165,165.0,70,-72.5,-72.5,70.0,180,190,-195,190.0,425,84,Open,SBD,F,Raw,
15,Malgorzata Becker,1989,Switzerland,81.85,145,150,155,155.0,80,-85,-85,80.0,165,-170,-170,165.0,400,84,Open,SBD,F,Raw,
1,Amélie Mierger,1992,France,138.9,217.5,-222.5,-222.5,217.5,132.5,137.5,143.5,143.5,215,222.5,227.5,227.5,588.5,84+,Open,SBD,F,Raw,
2,Leigh Wetheridge,1994,UK,119.15,210,225,232.5,232.5,105,112.5,117.5,117.5,215,-228.5,229.0,229.0,579,84+,Open,SBD,F,Raw,
3,Emelie Leach,1993,Sweden,148.25,-220,220,227.5,227.5,115,120,125,125.0,222.5,-229,-236.5,222.5,575,84+,Open,SBD,F,Raw,
4,Camille Holland,1988,UK,131.1,227.5,240.5,-250.5,240.5,107.5,115,120,120.0,175,190,200,200.0,560.5,84+,Open,SBD,F,Raw,
5,Olga Kuzmina,2001,Russia,140.4,205,215.0,225.0,225.0,110,-120,120.0,120.0,200.0,-215,-215,200.0,545.0,84+,Open,SBD,F,Raw,
6,Caroline Stougaard,1991,Denmark,108.2,185,192.5,197.5,197.5,97.5,102.5,-107.5,102.5,180,192.5,205,205.0,505,84+,Open,SBD,F,Raw,
7,Leontine van Geffen,1986,Netherlands,128.35,187.5,195,200,200.0,95,100,-102.5,100.0,192.5,200,205,205.0,505,84+,Open,SBD,F,Raw,
8,Ilrish Kensenhuis,1986,Netherlands,89.05,170,180,-182.5,180.0,85,-90,-90,85.0,215,225,228.5,228.5,493.5,84+,Open,SBD,F,Raw,
9,Mina Mae Cederberg,1979,Germany,97.85,167.5,172.5,-175,172.5,97.5,102.5,-105,102.5,182.5,187.5,-192.5,187.5,462.5,84+,Open,SBD,F,Raw,
10,Marika Magazina,1985,Latvia,106.2,175,185,192.5,192.5,77.5,82.5,85,85.0,160,170,-177.5,170.0,447.5,84+,Open,SBD,F,Raw,
11,Aušra Lubauskienė,1983,Lithuania,88.5,145,155,162.5,162.5,77.5,80,85,85.0,145,155,-162.5,155.0,402.5,84+,Open,SBD,F,Raw,
