Place,Name,Sex,Event,Division,WeightClassKg,Equipment,BirthYear,State,BodyweightKg,Squat1Kg,Squat2Kg,Squat3Kg,Best3SquatKg,Bench1Kg,Bench2Kg,Bench3Kg,Best3BenchKg,Deadlift1Kg,Deadlift2Kg,Deadlift3Kg,Best3DeadliftKg,TotalKg,Age,BirthDate
1,Nicole De Rosa,F,SBD,F-M1,52,Single-ply,1981,CA,49.9,-117.5,117.5,122.5,122.5,72.5,-77.5,-77.5,72.5,142.5,-152.5,152.5,152.5,347.5,,
1,Nicole De Rosa,F,SBD,F-O,52,Single-ply,1981,CA,49.9,-117.5,117.5,122.5,122.5,72.5,-77.5,-77.5,72.5,142.5,-152.5,152.5,152.5,347.5,,
1,Allie Rainey,F,SBD,FR-Jr,57,Raw,1998,PA,56.4,-130,132.5,137.5,137.5,72.5,75,-77.5,75,147.5,155,162.5,162.5,375,,
1,Maria Hernandez,F,SBD,FR-Jr,63,Raw,1998,NY,62.1,-130,137.5,-140,137.5,65,67.5,70,70,-130,137.5,-140,137.5,345,,
2,Salma Awan,F,SBD,FR-Jr,63,Raw,2000,NJ,62,80,90,95,95,40,47.5,-50,47.5,105,-112.5,112.5,112.5,255,,
1,Nicole Dolan,F,SBD,FR-M1,69,Raw,1975,NJ,67.3,107.5,112.5,115,115,62.5,67.5,-70,67.5,137.5,142.5,-147.5,142.5,325,,
1,Monica Posteraro,F,SBD,FR-M1,76,Raw,1974,NJ,73.3,92.5,97.5,-100,97.5,42.5,47.5,-50,47.5,117.5,125,127.5,127.5,272.5,,
1,Jacqueline Thompson,F,SBD,FR-M1,84+,Raw,1981,NJ,103.8,130,147.5,165,165,70,75,-80,75,167.5,175,-187.5,175,415,,
1,Anne Marie Cameron,F,SBD,FR-M2,57,Raw,1967,NJ,56,62.5,67.5,-72.5,67.5,40,42.5,45,45,82.5,87.5,90,90,202.5,,
1,Christine Ingleton,F,SBD,FR-M2,84,Raw,1970,NJ,82.6,127.5,132.5,137.5,137.5,67.5,72.5,75,75,142.5,150,160,160,372.5,,
DQ,Mary Elise Ricker,F,SBD,FR-M2,84,Raw,1962,NJ,80.6,-110,-110,-110,,52.5,55,57.5,57.5,120,125,130,130,,,
1,Marcy Seymour,F,SBD,FR-M4,57,Raw,1949,NJ,55.3,55,57.5,60,60,27.5,30,32.5,32.5,62.5,65,70,70,162.5,,
1,Allie Rainey,F,SBD,FR-O,57,Raw,1998,PA,56.4,-130,132.5,137.5,137.5,72.5,75,-77.5,75,147.5,155,162.5,162.5,375,,
2,Alyssa Wu,F,SBD,FR-O,57,Raw,1996,NJ,54.8,82.5,87.5,90,90,37.5,-42.5,42.5,42.5,85,90,95,95,227.5,,
3,Anne Marie Cameron,F,SBD,FR-O,57,Raw,1967,NJ,56,62.5,67.5,-72.5,67.5,40,42.5,45,45,82.5,87.5,90,90,202.5,,
1,Nicole Dolan,F,SBD,FR-O,69,Raw,1975,NJ,67.3,107.5,112.5,115,115,62.5,67.5,-70,67.5,137.5,142.5,-147.5,142.5,325,,
1,Monica Posteraro,F,SBD,FR-O,76,Raw,1974,NJ,73.3,92.5,97.5,-100,97.5,42.5,47.5,-50,47.5,117.5,125,127.5,127.5,272.5,,
1,Jacqueline Thompson,F,SBD,FR-O,84+,Raw,1981,NJ,103.8,130,147.5,165,165,70,75,-80,75,167.5,175,-187.5,175,415,,
2,Elizabeth Swiderski,F,SBD,FR-O,84+,Raw,1988,NJ,85.4,55,-57.5,57.5,57.5,40,42.5,-45,42.5,82.5,87.5,92.5,92.5,192.5,,
1,Shae-Lyn Guido,F,SBD,FR-Y2,40,Raw,2009,NJ,39.5,52.5,57.5,62.5,62.5,32.5,35,-37.5,35,62.5,65,72.5,72.5,170,,
1,Minki Hong,M,SBD,M-O,83,Single-ply,1997,NJ,74.4,190,200,210,210,115,122.5,125,125,210,225,240,240,575,,
1,Jason Garcia,M,SBD,MR-Jr,74,Raw,1999,NJ,72.9,182.5,192.5,202.5,202.5,122.5,132.5,137.5,137.5,212.5,225,230,230,570,,
2,Parker Frohlich,M,SBD,MR-Jr,74,Raw,2000,NJ,71,180,187.5,195,195,95,100,105,105,225,235,242.5,242.5,542.5,,
3,Curtis Lam,M,SBD,MR-Jr,74,Raw,2000,NJ,69,155,-165,167.5,167.5,90,-95,95,95,200,212.5,217.5,217.5,480,,
4,Eric Altenburg,M,SBD,MR-Jr,74,Raw,1999,NJ,72.1,142.5,160,-175,160,90,100,107.5,107.5,197.5,212.5,-225,212.5,480,,
5,James Michaud,M,SBD,MR-Jr,74,Raw,2000,PA,73.5,162.5,-170,170,170,107.5,112.5,-115,112.5,187.5,197.5,-205,197.5,480,,
1,Daniel Tum Suden,M,SBD,MR-Jr,83,Raw,2001,NJ,81.5,-225,232.5,237.5,237.5,145,152.5,157.5,157.5,265,280,287.5,287.5,682.5,,
2,Logan Biedermann,M,SBD,MR-Jr,83,Raw,2001,NJ,81.5,190,205,220,220,150,162.5,-175,162.5,-230,230,265,265,647.5,,
3,Mattnew Rothman,M,SBD,MR-Jr,83,Raw,1998,NJ,81,160,170,177.5,177.5,87.5,92.5,100,100,195,205,215,215,492.5,,
4,Francis Chiocca,M,SBD,MR-Jr,83,Raw,2000,NJ,77,-160,160,-177.5,160,102.5,110,-125,110,192.5,200,-227.5,200,470,,
5,Drew Visser,M,SBD,MR-Jr,83,Raw,2000,PA,75.1,-150,150,-162.5,150,90,95,100,100,190,195,200,200,450,,
1,Tahjeir Montgomery,M,SBD,MR-Jr,93,Raw,1997,NJ,92,-210,210,-215,210,170,175,-185,175,210,217.5,230,230,615,,
2,Phong Tran,M,SBD,MR-Jr,93,Raw,1999,NJ,87.1,212.5,220,225,225,132.5,140,147.5,147.5,202.5,-217.5,-217.5,202.5,575,,
3,Nathaniel Pascua,M,SBD,MR-Jr,93,Raw,2001,NJ,90.6,195,-205,-205,195,127.5,-137.5,-137.5,127.5,215,-225,-225,215,537.5,,
1,Justin Bronsky,M,SBD,MR-Jr,105,Raw,1998,NJ,99.7,220,232.5,247.5,247.5,165,170,-177.5,170,220,237.5,250,250,667.5,,
2,Ben Cohen,M,SBD,MR-Jr,105,Raw,1999,NJ,103.7,225,235,-240,235,147.5,155,157.5,157.5,242.5,257.5,-267.5,257.5,650,,
3,Chris Ayala,M,SBD,MR-Jr,105,Raw,1999,NJ,100.4,195,205,212.5,212.5,122.5,132.5,137.5,137.5,220,237.5,245,245,595,,
DQ,Robert Moore,M,SBD,MR-Jr,120,Raw,1998,NJ,118.2,267.5,-287.5,,267.5,,,,,,,,,,,
1,Alfred Machado,M,SBD,MR-M1,83,Raw,1980,NJ,82.9,125,132.5,140,140,90,95,100,100,140,150,160,160,400,,
1,Michael Commons,M,SBD,MR-M1,120,Raw,1975,NJ,113.6,175,185,190,190,130,140,-142.5,140,225,245,,245,575,,
2,Dan Seymour,M,SBD,MR-M1,120,Raw,1979,NJ,105.3,157.5,167.5,172.5,172.5,122.5,130,-135,130,215,225,232.5,232.5,535,,
1,Matthew Clark,M,SBD,MR-M2,120,Raw,1966,NJ,118.2,185,205,220,220,185,195,,195,185,200,-210,200,615,,
1,Ryan Shah,M,SBD,MR-O,59,Raw,1997,NJ,57.7,117.5,125,132.5,132.5,77.5,85,-90,85,155,162.5,-167.5,162.5,380,,
1,Denzel Carreon,M,SBD,MR-O,74,Raw,1994,NJ,73.8,160,172.5,177.5,177.5,95,105,-110,105,177.5,187.5,-197.5,187.5,470,,
2,Christopher Galifi,M,SBD,MR-O,74,Raw,1997,NJ,73.2,130,135,137.5,137.5,95,97.5,100,100,180,190,192.5,192.5,430,,
1,Jeffrey Wyckoff,M,SBD,MR-O,83,Raw,1987,NJ,81.2,165,175,182.5,182.5,107.5,112.5,115,115,195,210,217.5,217.5,515,,
1,Thang Ngo,M,SBD,MR-O,93,Raw,1996,NJ,91.9,270,282.5,287.5,287.5,160,170,175,175,295,307.5,315,315,777.5,,
2,Tahjeir Montgomery,M,SBD,MR-O,93,Raw,1997,NJ,92,-210,210,-215,210,170,175,-185,175,210,217.5,230,230,615,,
3,Joshua Benavides,M,SBD,MR-O,93,Raw,1992,NJ,88.9,167.5,180,187.5,187.5,97.5,105,117.5,117.5,180,190,197.5,197.5,502.5,,
4,Geon Woo Lee,M,SBD,MR-O,93,Raw,1996,NJ,86.3,157.5,177.5,-185,177.5,90,100,105,105,172.5,185,192.5,192.5,475,,
1,DeVante Andrews,M,SBD,MR-O,120,Raw,1993,NJ,113.2,250,265,272.5,272.5,162.5,175,180,180,255,267.5,275,275,727.5,,
2,George Roessner,M,SBD,MR-O,120,Raw,1984,NJ,115.1,205,225,230,230,125,135,142.5,142.5,185,197.5,207.5,207.5,580,,
3,Michael Commons,M,SBD,MR-O,120,Raw,1975,NJ,113.6,175,185,190,190,130,140,-142.5,140,225,245,,245,575,,
DQ,Robert Moore,M,SBD,MR-O,120,Raw,1998,NJ,118.2,267.5,-287.5,,267.5,,,,,,,,,,,
1,Mauricio Galvan,M,SBD,MR-O,120+,Raw,1994,NJ,135.1,245,255,260,260,160,167.5,-172.5,167.5,245,260,-267.5,260,687.5,,
1,Ryder Clark,M,SBD,MR-T2,74,Raw,2004,NJ,73,135,145,150,150,57.5,-70,70,70,125,145,-155,145,365,,
1,Kyle Ramirez,M,SBD,MR-T2,83,Raw,2005,NJ,82,175,187.5,195,195,105,110,115,115,207.5,-220,220,220,530,,
2,Joshua Gomez-Cruz,M,SBD,MR-T2,83,Raw,2003,NY,79.6,120,-145,145,145,100,-115,-115,100,170,-185,-192.5,170,415,,
1,Aaron Harrison,M,SBD,MR-T3,93,Raw,2002,NJ,91.1,205,215,222.5,222.5,122.5,132.5,-137.5,132.5,215,227.5,237.5,237.5,592.5,,
1,Ryan Horner,M,SBD,MR-Y3,40,Raw,2008,NJ,38.9,52.5,55,60,60,32.5,42.5,45,45,72.5,80,90,90,195,,
2,Chase Deren,M,SBD,MR-Y3,40,Raw,2008,NJ,38.6,52.5,57.5,60,60,32.5,35,37.5,37.5,72.5,77.5,82.5,82.5,180,,
1,Avery Rubano,M,SBD,MR-Y3,66,Raw,2008,NJ,62.4,107.5,115,-117.5,115,75,80,82.5,82.5,117.5,122.5,130,130,327.5,,
