Division,WeightClassKg,Place,Name,Team,BodyweightKg,Best3SquatKg,Best3BenchKg,Best3DeadliftKg,TotalKg,Equipment,Event,Sex
Boys,51.71,1,Chancellor Smith,Katy Mayde Creek,51.26,95.25,97.52,136.08,328.85,Single-ply,SBD,M
Boys,51.71,2,Javon Boutte,Houston Madison,51.26,113.4,58.97,117.93,290.3,Single-ply,SBD,M
Boys,51.71,3,Francisco Pineda,Houston Milby,50.8,86.18,56.7,115.67,258.55,Single-ply,SBD,M
Boys,51.71,4,Fabian Osoria,Pasadena Dobie,47.17,81.65,56.7,111.13,249.48,Single-ply,SBD,M
Boys,51.71,5,William Foland,Manvel,47.63,90.72,58.97,97.52,247.21,Single-ply,SBD,M
Boys,51.71,6,Alphonse Tran,Channelview,48.53,83.91,49.9,90.72,224.53,Single-ply,SBD,M
Boys,55.79,1,Anthony Galvan,Channelview,53.07,124.74,70.31,151.95,347,Single-ply,SBD,M
Boys,55.79,2,Chris Player,Manvel,55.34,122.47,83.91,140.61,347,Single-ply,SBD,M
Boys,55.79,3,Trey Marrero,Alvin,53.98,127.01,72.57,131.54,331.12,Single-ply,SBD,M
Boys,55.79,4,Bryant Roman,Alvin,53.52,97.52,79.38,129.27,306.17,Single-ply,SBD,M
Boys,55.79,5,Miguel Escobedo,Channelview,54.88,113.4,52.16,113.4,278.96,Single-ply,SBD,M
Boys,55.79,6,Luigi Ramirez,Houston Milby,55.79,102.06,43.09,95.25,240.4,Single-ply,SBD,M
Boys,55.79,7,Alvaro Morales,Houston Milby,54.88,72.57,54.43,102.06,229.06,Single-ply,SBD,M
Boys,59.87,1,Anthony Grimes,Katy Mayde Creek,58.97,165.56,106.59,192.78,464.93,Single-ply,SBD,M
Boys,59.87,2,Bryce Walker,Houston Madison,59.87,172.37,90.72,181.44,444.52,Single-ply,SBD,M
Boys,59.87,3,DeMarco Corner,Manvel,58.06,149.69,92.99,163.29,405.97,Single-ply,SBD,M
Boys,59.87,4,Alonzo Archibald,La Marque,57.61,102.06,74.84,124.74,301.64,Single-ply,SBD,M
Boys,67.13,1,Jesse Trevino,Houston Milby,66.68,204.12,113.4,204.12,521.63,Single-ply,SBD,M
Boys,67.13,2,Jamal Simms,Houston Madison,66.22,185.97,108.86,201.85,496.68,Single-ply,SBD,M
Boys,67.13,3,Martin Banda,Manvel,67.13,188.24,111.13,195.04,494.42,Single-ply,SBD,M
Boys,67.13,4,Nick Rodriguez #3,Manvel,67.13,188.24,102.06,165.56,455.86,Single-ply,SBD,M
Boys,67.13,5,Jerel Garner,Houston Madison,66.68,163.29,86.18,174.63,424.11,Single-ply,SBD,M
Boys,67.13,6,Thomas Bridges,Dickinson,64.86,158.76,108.86,154.22,421.84,Single-ply,SBD,M
Boys,67.13,7,Alec DeLeon,Dickinson,64.41,163.29,83.91,145.15,392.36,Single-ply,SBD,M
Boys,67.13,8,Pedro Vazquez #2,Katy Mayde Creek,60.78,113.4,83.91,158.76,356.07,Single-ply,SBD,M
Boys,67.13,9,Gregory Hunter,Channelview,60.78,124.74,74.84,147.42,347,Single-ply,SBD,M
Boys,67.13,10,David Nobles,Beaumont Ozen,62.6,90.72,111.13,136.08,337.93,Single-ply,SBD,M
Boys,67.13,11,Josh Mullin,Houston Milby,60.24,102.06,68.04,140.61,310.71,Single-ply,SBD,M
Boys,67.13,DQ,David Brousard,Channelview,67.13,,,,,Single-ply,SBD,M
Boys,74.84,1,Brandon Malone,Houston Madison,73.48,195.04,113.4,163.29,471.74,Single-ply,SBD,M
Boys,74.84,2,Cameron Rhodman,Beaumont Ozen,70.31,188.24,81.65,192.78,462.66,Single-ply,SBD,M
Boys,74.84,3,Juan Garza,Baytown Lee,71.21,151.95,102.06,174.63,428.64,Single-ply,SBD,M
Boys,74.84,4,Jorge Fuentes,Pasadena Dobie,72.12,136.08,90.72,176.9,403.7,Single-ply,SBD,M
Boys,74.84,5,Alan Cooper,La Marque,70.76,151.95,90.72,158.76,401.43,Single-ply,SBD,M
Boys,74.84,6,Rasheeed Russell,Houston Madison,70.31,158.76,90.72,147.42,396.89,Single-ply,SBD,M
Boys,74.84,7,Juan Santos,Pasadena Dobie,74.84,133.81,106.59,147.42,387.82,Single-ply,SBD,M
Boys,74.84,8,Eloi Fernandez,Alvin,69.85,142.88,104.33,124.74,371.95,Single-ply,SBD,M
Boys,74.84,9,Andrew Bailes,Pasadena Memorial,74.84,136.08,90.72,136.08,362.87,Single-ply,SBD,M
Boys,74.84,10,Saffarris Flanagan,Houston Madison,69.4,142.88,65.77,142.88,351.53,Single-ply,SBD,M
Boys,74.84,11,Viktor Pineda,Pasadena Dobie,72.12,108.86,79.38,124.74,312.98,Single-ply,SBD,M
Boys,74.84,12,Cristo Sanchez,Houston Milby,73.48,97.52,70.31,142.88,310.71,Single-ply,SBD,M
Boys,74.84,DQ,Jimmy Hatcher,Alvin,74.84,,,,,Single-ply,SBD,M
Boys,74.84,DQ,Austin Bennett,Manvel,74.84,,,,,Single-ply,SBD,M
Boys,82.1,1,Christian Andrews,Beaumont Ozen,78.93,233.6,156.49,254.01,644.1,Single-ply,SBD,M
Boys,82.1,2,Chuck Asaye,Houston Westbury,79.38,222.26,117.93,217.72,557.92,Single-ply,SBD,M
Boys,82.1,3,Brandon Pitre,Manvel,76.66,192.78,136.08,204.12,532.97,Single-ply,SBD,M
Boys,82.1,4,Christian Jackson,La Marque,78.47,190.51,122.47,215.46,528.44,Single-ply,SBD,M
Boys,82.1,5,Darius Thornton,Houston Westbury,78.47,197.31,117.93,195.04,510.29,Single-ply,SBD,M
Boys,82.1,6,Kyle Leal,Crosby,78.93,181.44,124.74,197.31,503.49,Single-ply,SBD,M
Boys,82.1,7,Johnny Peters,Houston Westbury,82.1,172.37,113.4,197.31,483.08,Single-ply,SBD,M
Boys,82.1,8,Dontre Leopold,Pasadena Memorial,76.2,163.29,122.47,181.44,467.2,Single-ply,SBD,M
Boys,82.1,9,Barry Authenreith,Pasadena Dobie,79.38,183.7,92.99,183.7,460.4,Single-ply,SBD,M
Boys,82.1,10,Averion Hurts,Channelview,80.74,174.63,92.99,188.24,455.86,Single-ply,SBD,M
Boys,82.1,11,Chane Bodden,Katy Mayde Creek,78.93,165.56,102.06,183.7,451.32,Single-ply,SBD,M
Boys,82.1,12,Andrew Hammer,Crosby,79.38,129.27,124.74,190.51,444.52,Single-ply,SBD,M
Boys,82.1,13,Christopher Lewis,Beaumont Ozen,77.11,145.15,102.06,158.76,405.97,Single-ply,SBD,M
Boys,82.1,14,Sean Peace,Pasadena Dobie,78.47,124.74,90.72,170.1,385.55,Single-ply,SBD,M
Boys,82.1,15,Aaron Lemelle,Beaumont Ozen,81.65,102.06,102.06,181.44,385.55,Single-ply,SBD,M
Boys,82.1,16,Billy Soto,Houston Westbury,76.66,113.4,97.52,167.83,378.75,Single-ply,SBD,M
Boys,82.1,DQ,Austin Summeral,Pasadena Memorial,77.56,113.4,,,,Single-ply,SBD,M
Boys,82.1,DQ,Rudy Trevino,Pasadena Memorial,75.3,,,,,Single-ply,SBD,M
Boys,89.81,1,Jordan Glenn,Houston Bellaire,86.64,278.96,172.37,283.5,734.82,Single-ply,SBD,M
Boys,89.81,2,Anthony Breed,Beaumont Ozen,88.45,226.8,147.42,238.14,612.35,Single-ply,SBD,M
Boys,89.81,3,Xavier Benitez,Katy Mayde Creek,88.45,219.99,142.88,215.46,578.33,Single-ply,SBD,M
Boys,89.81,4,Darrell Jackson,Houston Madison,88.9,206.38,97.52,226.8,530.7,Single-ply,SBD,M
Boys,89.81,5,Chris Chaison,Houston Madison,89.81,204.12,113.4,204.12,521.63,Single-ply,SBD,M
Boys,89.81,6,Val Hernandez,Crosby,88.22,183.7,117.93,199.58,501.22,Single-ply,SBD,M
Boys,89.81,7,Keith Collins,Alvin,88,183.7,129.27,183.7,496.68,Single-ply,SBD,M
Boys,89.81,8,Floyd Simmons,La Marque,88.9,185.97,124.74,183.7,494.42,Single-ply,SBD,M
Boys,89.81,9,Abe Fernandez,Alvin,83.01,165.56,117.93,172.37,455.86,Single-ply,SBD,M
Boys,89.81,10,Chase Nix,Crosby,87.82,154.22,108.86,181.44,444.52,Single-ply,SBD,M
Boys,89.81,11,Trevon Asbury,Houston Westbury,85.73,147.42,111.13,172.37,430.91,Single-ply,SBD,M
Boys,89.81,12,Eric Owens,Crosby,84.82,154.22,102.06,151.95,408.23,Single-ply,SBD,M
Boys,99.79,1,Ozzy Dowdy,Dickinson,92.99,199.58,108.86,192.78,501.22,Single-ply,SBD,M
Boys,99.79,2,Anthony Allison,Dickinson,95.25,199.58,111.13,190.51,501.22,Single-ply,SBD,M
Boys,99.79,3,Gerardo Torres,Houston Madison,97.98,158.76,115.67,204.12,478.54,Single-ply,SBD,M
Boys,99.79,4,Jonathan Guevar,Dickinson,96.16,174.63,92.99,197.31,464.93,Single-ply,SBD,M
Boys,99.79,5,Nestor Gonzalez,Houston Milby,99.34,165.56,106.59,192.78,464.93,Single-ply,SBD,M
Boys,99.79,6,Kenneth Edwards,La Marque,98.88,147.42,102.06,158.76,408.23,Single-ply,SBD,M
Boys,99.79,7,Johnny Watson,Pasadena Memorial,92.08,136.08,81.65,161.03,378.75,Single-ply,SBD,M
Boys,99.79,8,Eric Mexicano,Pasadena Memorial,92.99,120.2,95.25,156.49,371.95,Single-ply,SBD,M
Boys,99.79,9,Trent Duncan,Alvin,94.35,136.08,68.04,156.49,360.61,Single-ply,SBD,M
Boys,99.79,10,Marco Rincon,Pasadena Memorial,91.63,120.2,90.72,142.88,353.8,Single-ply,SBD,M
Boys,99.79,11,Jonathan Rosales,Houston Milby,91.63,111.13,68.04,149.69,328.85,Single-ply,SBD,M
Boys,99.79,12,Dacory Harris,Beaumont Ozen,94.35,79.38,65.77,133.81,278.96,Single-ply,SBD,M
Boys,99.79,13,Davion Harris,Beaumont Ozen,94.8,72.57,72.57,113.4,258.55,Single-ply,SBD,M
Boys,99.79,14,Deshondrick Selmon,Beaumont Ozen,97.52,68.04,49.9,68.04,185.97,Single-ply,SBD,M
Boys,99.79,DQ,Simian Houston,Houston Westbury,99.79,,,,,Single-ply,SBD,M
Boys,99.79,DQ,Adam Khalil,Houston Westbury,99.79,,,,,Single-ply,SBD,M
Boys,99.79,DQ,Issac Mexicano,Pasadena Memorial,99.79,,,,,Single-ply,SBD,M
Boys,99.79,DQ,Naren Medrano,Manvel,95.25,,,,,Single-ply,SBD,M
Boys,109.77,1,Roderick Wiltz,Houston Madison,102.97,276.69,167.83,226.8,671.32,Single-ply,SBD,M
Boys,109.77,2,Dijon Moon,Channelview,100.7,244.94,129.27,233.6,607.81,Single-ply,SBD,M
Boys,109.77,3,Chris Shepherd,Alvin,107.05,240.4,129.27,226.8,596.47,Single-ply,SBD,M
Boys,109.77,4,Cody Gonzalez,Manvel,107.5,238.14,124.74,233.6,596.47,Single-ply,SBD,M
Boys,109.77,5,Devar Brown,Houston Westbury,102.97,217.72,127.01,235.87,580.6,Single-ply,SBD,M
Boys,109.77,6,Curtis Emory,Alvin,108.86,210.92,131.54,219.99,562.45,Single-ply,SBD,M
Boys,109.77,7,Josh McKinnies,Katy Mayde Creek,105.23,204.12,124.74,226.8,555.65,Single-ply,SBD,M
Boys,109.77,8,John Guyton,Channelview,106.59,217.72,124.74,210.92,553.38,Single-ply,SBD,M
Boys,109.77,9,Kenneth Vera-Ramirez,Katy Mayde Creek,107.95,226.8,133.81,183.7,544.31,Single-ply,SBD,M
Boys,109.77,10,Alex Negrete-Cuevas,Baytown Lee,103.42,190.51,102.06,215.46,508.02,Single-ply,SBD,M
Boys,109.77,11,Sergio Arredondo,Manvel,108.41,192.78,102.06,213.19,508.02,Single-ply,SBD,M
Boys,109.77,12,Chris Dowdy,Dickinson,105.69,208.65,104.33,190.51,503.49,Single-ply,SBD,M
Boys,109.77,13,Jesus Luevane,Dickinson,108.86,204.12,108.86,190.51,503.49,Single-ply,SBD,M
Boys,109.77,14,Marcus Trent,Baytown Lee,108.41,176.9,138.35,183.7,498.95,Single-ply,SBD,M
Boys,109.77,15,Terrell Wiltz,Houston Westbury,108.86,158.76,122.47,208.65,489.88,Single-ply,SBD,M
Boys,109.77,16,Luis Medrano,Channelview,109.32,170.1,113.4,174.63,458.13,Single-ply,SBD,M
Boys,109.77,17,Eduardo Moran,Katy Mayde Creek,102.06,183.7,83.91,165.56,433.18,Single-ply,SBD,M
Boys,109.77,18,Andrew Velasco,Katy Mayde Creek,107.5,151.95,83.91,142.88,378.75,Single-ply,SBD,M
Boys,109.77,19,Rico Chavez,Pasadena Memorial,107.05,136.08,70.31,167.83,374.21,Single-ply,SBD,M
Boys,109.77,DQ,Ruben Escobedo,Channelview,100.7,165.56,104.33,,,Single-ply,SBD,M
Boys,109.77,DQ,Oris Granger,Beaumont Ozen,104.33,81.65,,,,Single-ply,SBD,M
Boys,109.77,DQ,Herman Taylor,Crosby,100.7,176.9,,,,Single-ply,SBD,M
Boys,124.74,1,William Simpson,Houston Madison,120.2,238.14,149.69,242.67,630.49,Single-ply,SBD,M
Boys,124.74,2,Chris Rose,Houston Madison,123.38,263.08,158.76,208.65,630.49,Single-ply,SBD,M
Boys,124.74,3,Andrew Granville,Channelview,124.74,263.08,149.69,192.78,605.55,Single-ply,SBD,M
Boys,124.74,4,Christian Reyes,Katy Mayde Creek,121.11,215.46,147.42,217.72,580.6,Single-ply,SBD,M
Boys,124.74,5,Richard Russell,Houston Madison,124.74,192.78,163.29,197.31,553.38,Single-ply,SBD,M
Boys,124.74,6,Seth La,Pasadena Dobie,111.13,219.99,142.88,188.24,551.11,Single-ply,SBD,M
Boys,124.74,7,Adam Eubanks,Dickinson,124.28,233.6,115.67,183.7,532.97,Single-ply,SBD,M
Boys,124.74,8,James Marin,Alvin,114.31,183.7,136.08,197.31,517.1,Single-ply,SBD,M
Boys,124.74,9,Ernesto Sarabia,Baytown Lee,112.49,174.63,136.08,201.85,512.56,Single-ply,SBD,M
Boys,124.74,10,Dewan Edmonson,Manvel,110.68,181.44,129.27,192.78,503.49,Single-ply,SBD,M
Boys,124.74,11,Ty Carter,Katy Mayde Creek,117.03,174.63,102.06,192.78,469.47,Single-ply,SBD,M
Boys,124.74,12,Josh Opiela,Crosby,116.12,181.44,99.79,154.22,435.45,Single-ply,SBD,M
Boys,124.74,13,Uzoma Ezekwen,Houston Westbury,116.57,176.9,97.52,154.22,428.64,Single-ply,SBD,M
Boys,124.74,14,Jared Robles,Pasadena Memorial,116.12,156.49,99.79,136.08,392.36,Single-ply,SBD,M
Boys,124.74+,1,Travis Romero,Manvel,151.05,278.96,167.83,260.82,707.6,Single-ply,SBD,M
Boys,124.74+,2,Nashon Edwards,Beaumont Ozen,152.86,278.96,142.88,247.21,669.05,Single-ply,SBD,M
Boys,124.74+,3,Shanacey Lawson,La Marque,137.44,226.8,142.88,226.8,596.47,Single-ply,SBD,M
Boys,124.74+,4,Eric Hernandez,Manvel,126.55,215.46,142.88,217.72,576.06,Single-ply,SBD,M
Boys,124.74+,5,Deon Thornton,Houston Westbury,126.1,217.72,129.27,208.65,555.65,Single-ply,SBD,M
Boys,124.74+,6,Darin Slater,Dickinson,143.79,231.33,113.4,204.12,548.85,Single-ply,SBD,M
Boys,124.74+,7,Alonzo Crittedon,Dickinson,130.18,240.4,104.33,181.44,526.17,Single-ply,SBD,M
Boys,124.74+,8,Chance Cummings #3,Dickinson,132.9,190.51,99.79,181.44,471.74,Single-ply,SBD,M
Boys,124.74+,9,Kevin Arcizo,Houston Milby,127.46,161.03,83.91,165.56,410.5,Single-ply,SBD,M
Boys,124.74+,10,Bryan Foster,Beaumont Ozen,137.44,122.47,68.04,140.61,331.12,Single-ply,SBD,M
Boys,124.74+,11,Quinton Smith,Beaumont Ozen,131.54,122.47,58.97,124.74,306.17,Single-ply,SBD,M
