Division,WeightClassKg,Place,Name,Team,BodyweightKg,Best3SquatKg,Best3BenchKg,Best3DeadliftKg,TotalKg,Equipment,Event,Sex
Boys,51.71,1,Hutch Rabenhaldt,Marion,51.26,111.13,74.84,113.4,299.37,Single-ply,SBD,M
Boys,55.79,1,Jacob Ricks,Pleasanton,55.02,111.13,56.7,111.13,278.96,Single-ply,SBD,M
Boys,55.79,2,David Salinas,San Antonio Southwest Legacy,54.75,83.91,58.97,111.13,254.01,Single-ply,SBD,M
Boys,59.87,1,Manuel Padilla,Natalia,59.69,206.38,106.59,195.04,508.02,Single-ply,SBD,M
Boys,59.87,2,Matthew Hughes #1,Del Rio,58.97,165.56,120.2,176.9,462.66,Single-ply,SBD,M
Boys,59.87,3,Ryan Juarez,Natalia,59.42,174.63,90.72,181.44,446.79,Single-ply,SBD,M
Boys,59.87,4,Kaleb Zertuche,Devine,59.38,129.27,95.25,170.1,394.63,Single-ply,SBD,M
Boys,59.87,5,Evy Curiel,Natalia,59.74,154.22,72.57,165.56,392.36,Single-ply,SBD,M
Boys,59.87,6,Patrick Almond,Comal Canyon Lake,59.6,117.93,61.23,122.47,301.64,Single-ply,SBD,M
Boys,59.87,7,Justin Rozier,Devine,58.33,86.18,49.9,90.72,226.8,Single-ply,SBD,M
Boys,67.13,1,Roman Ornelaz,San Antonio Holy Cross,65.45,190.51,120.2,213.19,523.9,Single-ply,SBD,M
Boys,67.13,2,Garrett McDonald,Jourdanton,66.59,217.72,113.4,181.44,512.56,Single-ply,SBD,M
Boys,67.13,3,Diego Zapata,Natalia,66.59,195.04,92.99,199.58,487.61,Single-ply,SBD,M
Boys,67.13,4,Matthew Contreras,Natalia,67.09,181.44,102.06,170.1,453.59,Single-ply,SBD,M
Boys,67.13,5,Taylor Weber,Jourdanton,65,170.1,104.33,165.56,439.98,Single-ply,SBD,M
Boys,67.13,6,Caleb Almond,Comal Canyon Lake,66.81,151.95,108.86,163.29,424.11,Single-ply,SBD,M
Boys,67.13,7,Saul Valadez,Natalia,59.92,167.83,83.91,165.56,417.3,Single-ply,SBD,M
Boys,67.13,8,Brian Burns,Bandera,64.55,163.29,81.65,163.29,408.23,Single-ply,SBD,M
Boys,67.13,9,Jaden Martinez,San Antonio Southwest Legacy,66.86,142.88,86.18,151.95,381.02,Single-ply,SBD,M
Boys,67.13,10,Hunter Young #1,Marion,66.32,133.81,74.84,158.76,367.41,Single-ply,SBD,M
Boys,67.13,11,Marvin Andrade,San Antonio Southwest Legacy,65.09,138.35,74.84,133.81,347,Single-ply,SBD,M
Boys,67.13,12,Nathaniel Cerna,San Antonio Southwest Legacy,64.27,129.27,74.84,138.35,342.46,Single-ply,SBD,M
Boys,67.13,13,Derek Wiatrick,Comal Canyon Lake,66.18,104.33,77.11,136.08,317.51,Single-ply,SBD,M
Boys,67.13,14,Ernest Garza,Knippa,60.1,113.4,68.04,127.01,308.44,Single-ply,SBD,M
Boys,67.13,15,Bailey Cox,Bandera,60.42,106.59,61.23,120.2,288.03,Single-ply,SBD,M
Boys,67.13,16,Weston Price,Pleasanton,66.41,92.99,54.43,115.67,263.08,Single-ply,SBD,M
Boys,74.84,1,Steven Ramirez,Devine,73.66,276.69,156.49,249.48,682.66,Single-ply,SBD,M
Boys,74.84,2,Josh Herrera,Floresville,74.16,192.78,120.2,192.78,505.76,Single-ply,SBD,M
Boys,74.84,3,Felix Delgado,Jourdanton,73.26,192.78,104.33,167.83,464.93,Single-ply,SBD,M
Boys,74.84,4,Sergio Rodriguez #3,Pleasanton,74.8,183.7,95.25,181.44,460.4,Single-ply,SBD,M
Boys,74.84,5,Seth Taggs,Floresville,71.89,161.03,111.13,183.7,455.86,Single-ply,SBD,M
Boys,74.84,6,John Slaughter,Bandera,67.31,170.1,102.06,174.63,446.79,Single-ply,SBD,M
Boys,74.84,7,Ray Rayos,Marion,70.99,138.35,92.99,197.31,428.64,Single-ply,SBD,M
Boys,74.84,8,R Tavius Gonzales,San Antonio Southwest Legacy,72.53,161.03,79.38,145.15,385.55,Single-ply,SBD,M
Boys,74.84,9,Isaac Rios,Natalia,67.27,131.54,77.11,165.56,374.21,Single-ply,SBD,M
Boys,74.84,10,Golderer Tillman,Marion,72.26,129.27,102.06,142.88,374.21,Single-ply,SBD,M
Boys,74.84,11,Reese McDole,Natalia,68.04,133.81,79.38,127.01,340.19,Single-ply,SBD,M
Boys,74.84,12,Larry Allen,Knippa,67.59,108.86,88.45,127.01,324.32,Single-ply,SBD,M
Boys,74.84,13,Ethan Whitehead,Knippa,72.53,83.91,72.57,122.47,278.96,Single-ply,SBD,M
Boys,74.84,14,Ryan Sosa,Pleasanton,70.03,90.72,58.97,120.2,269.89,Single-ply,SBD,M
Boys,82.1,1,Nathaniel Onofre,San Antonio Holy Cross,79.83,226.8,127.01,213.19,566.99,Single-ply,SBD,M
Boys,82.1,2,Joel Rios,Natalia,77.7,195.04,108.86,224.53,528.44,Single-ply,SBD,M
Boys,82.1,3,Nick Padilla,Del Rio,80.92,158.76,124.74,195.04,478.54,Single-ply,SBD,M
Boys,82.1,4,Joel Mendez,Natalia,75.57,183.7,102.06,165.56,451.32,Single-ply,SBD,M
Boys,82.1,5,Javier Saucedo,Comal Canyon Lake,78.34,167.83,86.18,183.7,437.72,Single-ply,SBD,M
Boys,82.1,6,Dustyne Fritz,Bandera,76.02,145.15,77.11,170.1,392.36,Single-ply,SBD,M
Boys,82.1,7,Victor Castaneda,Natalia,77.88,142.88,90.72,156.49,390.09,Single-ply,SBD,M
Boys,82.1,8,Alex Hardin,Comal Canyon Lake,76.57,142.88,88.45,149.69,381.02,Single-ply,SBD,M
Boys,82.1,9,Atlee McGuire,Knippa,76.66,120.2,77.11,138.35,335.66,Single-ply,SBD,M
Boys,82.1,DQ,Jordan Lara,Knippa,78.61,197.31,102.06,,,Single-ply,SBD,M
Boys,82.1,DQ,Jacob Ruff,Comal Canyon Lake,76.97,183.7,102.06,,,Single-ply,SBD,M
Boys,82.1,DQ,Alejandro Flores,Del Rio,81.6,,,,,Single-ply,SBD,M
Boys,82.1,DQ,Lucas Byrd,Devine,79.92,249.48,,,,Single-ply,SBD,M
Boys,82.1,DQ,Lupe Rodriguez #2,Devine,77.7,165.56,,,,Single-ply,SBD,M
Boys,89.81,1,Manny Arguijo,Del Rio,88.63,244.94,147.42,238.14,630.49,Single-ply,SBD,M
Boys,89.81,2,Michael Martinez,Natalia,87.77,244.94,117.93,210.92,573.79,Single-ply,SBD,M
Boys,89.81,3,Logan Huereca,Jourdanton,88.31,206.38,142.88,201.85,551.11,Single-ply,SBD,M
Boys,89.81,4,Chance Lamb,Natalia,89.13,188.24,117.93,231.33,537.51,Single-ply,SBD,M
Boys,89.81,5,Tucker Walters,Marion,83.55,190.51,108.86,226.8,526.17,Single-ply,SBD,M
Boys,89.81,6,Isaiah Gomez,Natalia,85.87,199.58,106.59,199.58,505.76,Single-ply,SBD,M
Boys,89.81,7,Eliaz Cruz,Bandera,89.58,176.9,113.4,165.56,455.86,Single-ply,SBD,M
Boys,89.81,8,Fabian Ruiz,Natalia,82.96,167.83,90.72,167.83,426.38,Single-ply,SBD,M
Boys,99.79,1,Uriel Arellano,Natalia,98.38,229.06,156.49,215.46,601.01,Single-ply,SBD,M
Boys,99.79,2,Francisco Duran,Marion,95.07,217.72,142.88,226.8,587.4,Single-ply,SBD,M
Boys,99.79,3,Dizan Rodriguez,Del Rio,98.34,210.92,145.15,204.12,560.19,Single-ply,SBD,M
Boys,99.79,4,Garret Carver,Devine,98.75,190.51,149.69,195.04,535.24,Single-ply,SBD,M
Boys,99.79,5,Jeremiah Gomez,Natalia,97.93,226.8,113.4,192.78,532.97,Single-ply,SBD,M
Boys,99.79,6,Braden Hodge,Comal Canyon Lake,95.35,154.22,120.2,158.76,433.18,Single-ply,SBD,M
Boys,99.79,7,Sam Grodman,Bandera,92.49,170.1,95.25,158.76,424.11,Single-ply,SBD,M
Boys,99.79,8,Adam Andres,Knippa,96.34,145.15,97.52,145.15,387.82,Single-ply,SBD,M
Boys,99.79,9,Dylan Lageschulte,Pleasanton,91.49,124.74,79.38,151.95,356.07,Single-ply,SBD,M
Boys,99.79,10,Isaac Benitez,San Antonio Southwest Legacy,95.89,124.74,68.04,129.27,322.05,Single-ply,SBD,M
Boys,99.79,DQ,Angel Aguilar,Bandera,98.93,,,,,Single-ply,SBD,M
Boys,99.79,DQ,Diego Hernendez,Devine,97.25,,,,,Single-ply,SBD,M
Boys,109.77,1,Jose Mendoza #1,Del Rio,107.68,263.08,170.1,233.6,666.78,Single-ply,SBD,M
Boys,109.77,2,Josh Almond,Comal Canyon Lake,102.56,235.87,151.95,229.06,616.89,Single-ply,SBD,M
Boys,109.77,3,Nathan Cavazos,San Antonio Holy Cross,107.86,240.4,120.2,195.04,555.65,Single-ply,SBD,M
Boys,109.77,4,Zakary Widenor,Bandera,101.38,206.38,102.06,210.92,519.36,Single-ply,SBD,M
Boys,109.77,5,Dustin Soto,Natalia,108.68,183.7,102.06,192.78,478.54,Single-ply,SBD,M
Boys,124.74,1,Oscar Ramirez,Natalia,120.34,260.82,158.76,224.53,644.1,Single-ply,SBD,M
Boys,124.74,2,Christian Arredondo,Devine,111.86,265.35,170.1,204.12,639.57,Single-ply,SBD,M
Boys,124.74,3,Paul Billalobos,Natalia,121.88,278.96,133.81,219.99,632.76,Single-ply,SBD,M
Boys,124.74,4,Logan Crane,Bandera,116.07,238.14,163.29,208.65,610.08,Single-ply,SBD,M
Boys,124.74,5,Juan Huizar,San Antonio Southwest Legacy,111.54,176.9,102.06,156.49,435.45,Single-ply,SBD,M
Boys,124.74,DQ,Joe Oyervides,San Antonio Southwest Legacy,120.7,,,,,Single-ply,SBD,M
Boys,124.74+,1,Joseph Rodriguez,Del Rio,163.75,244.94,174.63,242.67,662.24,Single-ply,SBD,M
Boys,124.74+,2,Victor Cruz,Natalia,130.63,240.4,149.69,247.21,637.3,Single-ply,SBD,M
Boys,124.74+,3,Abee Hinojosa,Del Rio,135.53,258.55,127.01,204.12,589.67,Single-ply,SBD,M
Boys,124.74+,4,Joseph Anaglia,San Antonio Brooks Academy,126.82,247.21,142.88,170.1,560.19,Single-ply,SBD,M
Boys,124.74+,5,Ed Saldivar,Marion,126.46,167.83,120.2,195.04,483.08,Single-ply,SBD,M
Boys,124.74+,6,Adrian Gomez,Knippa,130.59,192.78,117.93,172.37,483.08,Single-ply,SBD,M
Boys,124.74+,7,Andrew Orta,Pleasanton,126.28,215.46,92.99,154.22,462.66,Single-ply,SBD,M
Boys,124.74+,8,Diego Anguiano,Pleasanton,130.14,163.29,86.18,149.69,399.16,Single-ply,SBD,M
Boys,124.74+,9,Ty Branch,San Antonio Southwest Legacy,136.03,147.42,74.84,158.76,381.02,Single-ply,SBD,M
Boys,124.74+,10,Thomas Ables,Pleasanton,145.19,149.69,90.72,136.08,376.48,Single-ply,SBD,M
