Division,WeightClassKg,Place,Name,Team,BodyweightKg,Best3SquatKg,Best3BenchKg,Best3DeadliftKg,TotalKg,Equipment,Event,Sex,BirthDate
Boys,51.71,1,John Ortega,Mercedes,51.53,174.63,117.93,183.7,476.27,Single-ply,SBD,M,
Boys,51.71,2,Erick Estrella,Brownsville Lopez,50.26,161.03,92.99,161.03,415.04,Single-ply,SBD,M,
Boys,51.71,3,Jaden Lopez,Port Isabel,51.71,149.69,83.91,151.95,385.55,Single-ply,SBD,M,
Boys,51.71,4,Jacob Granado,Brownsville St. Joseph Academy,50.89,120.2,56.7,113.4,290.3,Single-ply,SBD,M,
Boys,51.71,5,Ethan Vidal,Brownsville Hanna,50.71,102.06,74.84,111.13,288.03,Single-ply,SBD,M,
Boys,51.71,6,Brian Zambrano,Harlingen South,51.17,99.79,49.9,106.59,256.28,Single-ply,SBD,M,
Boys,55.79,1,Isai Garcia,Edinburg Idea College Prep,55.79,154.22,99.79,163.29,417.3,Single-ply,SBD,M,
Boys,55.79,2,Israel Ramos,Brownsville Pace,55.79,154.22,86.18,170.1,410.5,Single-ply,SBD,M,
Boys,55.79,3,Enrique Pachecko,Brownsville Veterans Memorial,53.43,115.67,63.5,142.88,322.05,Single-ply,SBD,M,
Boys,55.79,4,Brandon Minez,Brownsville Porter,53.71,90.72,61.23,129.27,281.23,Single-ply,SBD,M,
Boys,59.87,1,Daniel Ochoa,Harlingen South,58.97,158.76,108.86,188.24,455.86,Single-ply,SBD,M,
Boys,59.87,2,Santos Atkinson,Los Fresnos,57.88,163.29,92.99,185.97,442.25,Single-ply,SBD,M,
Boys,59.87,3,David Hernandez,Port Isabel,59.51,154.22,90.72,183.7,428.64,Single-ply,SBD,M,
Boys,59.87,4,JR Hernandez,Brownsville Rivera,56.79,156.49,106.59,151.95,415.04,Single-ply,SBD,M,
Boys,59.87,5,Jonathan Gracia,Brownsville Lopez,59.33,147.42,95.25,170.1,412.77,Single-ply,SBD,M,
Boys,59.87,6,Tomas Arredondo,Rio Hondo,59.69,133.81,106.59,149.69,390.09,Single-ply,SBD,M,
Boys,59.87,7,Alejandro Lerma,Brownsville Jubilee,58.69,131.54,86.18,138.35,356.07,Single-ply,SBD,M,
Boys,59.87,8,Chris Ortiz,Brownsville Porter,58.69,122.47,88.45,145.15,356.07,Single-ply,SBD,M,
Boys,59.87,9,Joey Mireles,Edinburg Quest College Prep,59.24,124.74,70.31,158.76,353.8,Single-ply,SBD,M,
Boys,59.87,10,Christian Hernandez,Brownsville Porter,59.87,102.06,81.65,133.81,317.51,Single-ply,SBD,M,
Boys,67.13,1,Elijah Wheeler,Edinburg Quest College Prep,64.41,201.85,122.47,219.99,544.31,Single-ply,SBD,M,
Boys,67.13,2,Tyler McClaugherty,Lyford,65.23,197.31,92.99,197.31,487.61,Single-ply,SBD,M,
Boys,67.13,3,Jp Rocha,Los Fresnos,65.86,188.24,113.4,165.56,467.2,Single-ply,SBD,M,
Boys,67.13,4,Alexis Martinez #3,Brownsville Lopez,64.23,161.03,97.52,201.85,460.4,Single-ply,SBD,M,
Boys,67.13,5,Jose Pallares,Brownsville Pace,67.13,188.24,95.25,170.1,453.59,Single-ply,SBD,M,
Boys,67.13,6,Efrain Lopez,Rio Hondo,64.5,154.22,111.13,154.22,419.57,Single-ply,SBD,M,
Boys,67.13,7,Valente Rosas,Lyford,66.95,158.76,92.99,149.69,401.43,Single-ply,SBD,M,
Boys,67.13,8,Andrew Ruiz,Santa Rosa,65.23,158.76,83.91,147.42,390.09,Single-ply,SBD,M,
Boys,67.13,9,Jomah Ortega,Rio Hondo,63.78,156.49,88.45,138.35,383.29,Single-ply,SBD,M,
Boys,67.13,10,Carl Bridges,Santa Rosa,65.14,142.88,88.45,142.88,374.21,Single-ply,SBD,M,
Boys,67.13,11,Fidencio Mesa,Harlingen South,63.87,147.42,79.38,142.88,369.68,Single-ply,SBD,M,
Boys,67.13,12,Jesus Pardo,Brownsville Rivera,62.69,131.54,70.31,140.61,342.46,Single-ply,SBD,M,
Boys,67.13,13,Miguel Contreras,Brownsville St. Joseph Academy,66.13,133.81,83.91,115.67,333.39,Single-ply,SBD,M,
Boys,67.13,14,Pedro Garcia,Raymondville,65.23,102.06,88.45,138.35,328.85,Single-ply,SBD,M,
Boys,67.13,15,Francisco Vazquez,Brownsville Veterans Memorial,62.14,102.06,70.31,133.81,306.17,Single-ply,SBD,M,
Boys,67.13,DQ,Chris Gomez,Brownsville Porter,67.13,,,,,Single-ply,SBD,M,
Boys,67.13,DQ,Maxx Padron,Brownsville Pace,67.13,,,,,Single-ply,SBD,M,
Boys,67.13,DQ,Darren Valdez,Port Isabel,65.41,140.61,,,,Single-ply,SBD,M,
Boys,67.13,DQ,Jose Hernandez #17,Brownsville Rivera,64.23,124.74,,,,Single-ply,SBD,M,
Boys,74.84,1,Javier Castro,Brownsville Lopez,67.95,226.8,131.54,231.33,589.67,Single-ply,SBD,M,
Boys,74.84,2,Eddie Luna,Mercedes,72.94,229.06,136.08,224.53,589.67,Single-ply,SBD,M,
Boys,74.84,3,Liam Longoria,Brownsville Veterans Memorial,73.03,192.78,140.61,226.8,560.19,Single-ply,SBD,M,
Boys,74.84,4,Aaron Lozano,Edinburg Quest College Prep,71.67,208.65,111.13,226.8,546.58,Single-ply,SBD,M,
Boys,74.84,5,Christopher Espinoza,Brownsville Pace,73.3,233.6,111.13,199.58,544.31,Single-ply,SBD,M,
Boys,74.84,6,Tyler Pham,Brownsville Hanna,74.48,204.12,142.88,192.78,539.77,Single-ply,SBD,M,
Boys,74.84,7,Antonio Vasquez,Edinburg Quest College Prep,73.75,204.12,111.13,219.99,535.24,Single-ply,SBD,M,
Boys,74.84,8,Gabriel Gomez #2,San Benito,70.22,204.12,97.52,204.12,505.76,Single-ply,SBD,M,
Boys,74.84,9,Alexis Amaya,Los Fresnos,72.57,188.24,108.86,192.78,489.88,Single-ply,SBD,M,
Boys,74.84,10,Tony Anzaldua,Mercedes,73.12,183.7,113.4,179.17,476.27,Single-ply,SBD,M,
Boys,74.84,11,Catorino Tijerina,Raymondville,71.94,174.63,102.06,192.78,469.47,Single-ply,SBD,M,
Boys,74.84,12,Nelson Garcia,Brownsville Pace,69.22,183.7,106.59,172.37,462.66,Single-ply,SBD,M,
Boys,74.84,13,Daniel Wolfe,Brownsville St. Joseph Academy,68.86,167.83,97.52,192.78,458.13,Single-ply,SBD,M,
Boys,74.84,14,Francisco Hernandez,Rio Hondo,68.58,174.63,108.86,154.22,437.72,Single-ply,SBD,M,
Boys,74.84,15,Omar Flores,Brownsville Porter,72.48,151.95,102.06,181.44,435.45,Single-ply,SBD,M,
Boys,74.84,16,Ramon Castro,Lyford,69.4,151.95,90.72,170.1,412.77,Single-ply,SBD,M,
Boys,74.84,17,Juan Zavala,Brownsville Porter,72.94,145.15,92.99,174.63,412.77,Single-ply,SBD,M,
Boys,74.84,18,Dante de la Garza,Port Isabel,68.95,149.69,97.52,163.29,410.5,Single-ply,SBD,M,
Boys,74.84,19,Pedro Martinez,San Benito,74.75,165.56,70.31,151.95,387.82,Single-ply,SBD,M,
Boys,74.84,20,Devin Ortiz,Port Isabel,69.22,142.88,79.38,151.95,374.21,Single-ply,SBD,M,
Boys,74.84,21,Lucio Garcia-Huerta,Brownsville Lopez,74.84,142.88,77.11,142.88,362.87,Single-ply,SBD,M,
Boys,74.84,22,Skyler Alaniz,Santa Rosa,74.84,124.74,81.65,142.88,349.27,Single-ply,SBD,M,
Boys,74.84,DQ,Daniel Villarreal,Port Isabel,71.94,113.4,,,,Single-ply,SBD,M,
Boys,74.84,DQ,Miguel Herrera,Brownsville Pace,73.57,170.1,,,,Single-ply,SBD,M,
Boys,82.1,1,Anthony Elvir,Los Fresnos,80.56,233.6,163.29,276.69,673.58,Single-ply,SBD,M,
Boys,82.1,2,Brandon Adame,Mercedes,81.83,265.35,136.08,233.6,635.03,Single-ply,SBD,M,
Boys,82.1,3,Gilbert Sanchez,Brownsville Veterans Memorial,81.92,247.21,145.15,231.33,623.69,Single-ply,SBD,M,
Boys,82.1,4,Juan Torres #2,Raymondville,81.19,242.67,115.67,219.99,578.33,Single-ply,SBD,M,
Boys,82.1,5,Marco Martinez-Aguilar,Brownsville Lopez,81.74,197.31,136.08,217.72,551.11,Single-ply,SBD,M,
Boys,82.1,6,Giovanny Ahumada,Brownsville Porter,79.11,219.99,120.2,208.65,548.85,Single-ply,SBD,M,
Boys,82.1,7,Brandon Rocha,Lyford,82.1,208.65,124.74,204.12,537.51,Single-ply,SBD,M,
Boys,82.1,8,Daniel Torres,Brownsville Veterans Memorial,80.47,183.7,124.74,210.92,519.36,Single-ply,SBD,M,
Boys,82.1,9,Jonathan Mendoza,Port Isabel,81.56,195.04,115.67,204.12,514.83,Single-ply,SBD,M,
Boys,82.1,10,Erasmo Jarillo,Brownsville Porter,80.74,176.9,113.4,219.99,510.29,Single-ply,SBD,M,
Boys,82.1,11,Abel Gonzalez,Lyford,81.1,192.78,113.4,204.12,510.29,Single-ply,SBD,M,
Boys,82.1,12,Gerry Ortiz,Brownsville Veterans Memorial,79.92,206.38,106.59,195.04,508.02,Single-ply,SBD,M,
Boys,82.1,13,Joel Hernandez #1,Brownsville Pace,75.48,206.38,115.67,183.7,505.76,Single-ply,SBD,M,
Boys,82.1,14,David Delvalle,Brownsville Pace,81.83,192.78,106.59,206.38,505.76,Single-ply,SBD,M,
Boys,82.1,15,Jose Barrera,San Benito,79.74,170.1,129.27,183.7,483.08,Single-ply,SBD,M,
Boys,82.1,16,Luis Cacaurin,Brownsville Veterans Memorial,82.1,188.24,106.59,183.7,478.54,Single-ply,SBD,M,
Boys,82.1,17,Jordy Cedillo-Martinez,Brownsville Veterans Memorial,80.65,183.7,106.59,183.7,474,Single-ply,SBD,M,
Boys,82.1,18,Josh Monzon,Brownsville Veterans Memorial,80.38,183.7,92.99,192.78,469.47,Single-ply,SBD,M,
Boys,82.1,19,Jj Mendoza,Santa Rosa,78.65,167.83,104.33,183.7,455.86,Single-ply,SBD,M,
Boys,82.1,20,Justin Rosas,Brownsville Veterans Memorial,81.92,190.51,104.33,158.76,453.59,Single-ply,SBD,M,
Boys,82.1,21,Brandon Farias,San Benito,80.56,163.29,102.06,183.7,449.06,Single-ply,SBD,M,
Boys,82.1,22,Miguel Martinez,Port Isabel,79.2,170.1,90.72,183.7,444.52,Single-ply,SBD,M,
Boys,82.1,23,John Silva,Los Fresnos,82.1,181.44,108.86,149.69,439.98,Single-ply,SBD,M,
Boys,82.1,24,Pierce Guajardo,San Benito,76.84,181.44,92.99,156.49,430.91,Single-ply,SBD,M,
Boys,82.1,25,Jose Garcia #10,Raymondville,76.57,165.56,92.99,129.27,387.82,Single-ply,SBD,M,
Boys,82.1,26,Armando Trevino,Brownsville Hanna,81.47,151.95,97.52,129.27,378.75,Single-ply,SBD,M,
Boys,82.1,27,Brave Munoz,Santa Rosa,80.2,138.35,74.84,147.42,360.61,Single-ply,SBD,M,
Boys,82.1,28,Jacob Green,Brownsville Veterans Memorial,79.11,122.47,74.84,151.95,349.27,Single-ply,SBD,M,
Boys,82.1,29,Anthony Hinojosa,Brownsville Rivera,76.29,120.2,77.11,145.15,342.46,Single-ply,SBD,M,
Boys,89.81,1,Donovan Cavazos,Los Fresnos,88,206.38,142.88,240.4,589.67,Single-ply,SBD,M,
Boys,89.81,2,Martin Rabanales,Edinburg Quest College Prep,85.82,229.06,124.74,195.04,548.85,Single-ply,SBD,M,
Boys,89.81,3,Martin Vargas,Brownsville Porter,87.91,199.58,113.4,204.12,517.1,Single-ply,SBD,M,
Boys,89.81,4,Anthony Finona,Port Isabel,88.36,188.24,99.79,204.12,492.15,Single-ply,SBD,M,
Boys,89.81,5,Adrian Cantu,Raymondville,89.72,183.7,111.13,183.7,478.54,Single-ply,SBD,M,
Boys,89.81,6,Gael Garcia-Perez,Brownsville Veterans Memorial,89.27,165.56,102.06,188.24,455.86,Single-ply,SBD,M,
Boys,89.81,7,Oscar Lozano,Brownsville Pace,88.09,158.76,106.59,183.7,449.06,Single-ply,SBD,M,
Boys,89.81,8,Gualdalberto Zarrate,Brownsville Pace,88.72,151.95,113.4,183.7,449.06,Single-ply,SBD,M,
Boys,89.81,9,Caleb Garza,Santa Rosa,87.82,161.03,102.06,170.1,433.18,Single-ply,SBD,M,
Boys,89.81,10,Enrique Mabulay,Harlingen South,87.54,158.76,99.79,163.29,421.84,Single-ply,SBD,M,
Boys,89.81,11,Marco Ramirez,Brownsville Lopez,89.81,145.15,92.99,183.7,421.84,Single-ply,SBD,M,
Boys,89.81,12,Ryan Garcia #5,Brownsville Veterans Memorial,88.63,165.56,61.23,142.88,369.68,Single-ply,SBD,M,
Boys,89.81,30,Omar Nava,Brownsville Pace,82.19,68.04,43.09,72.57,183.7,Single-ply,SBD,M,
Boys,89.81,DQ,Alan Torres,Los Fresnos,88.18,208.65,,,,Single-ply,SBD,M,
Boys,89.81,DQ,Jorge Terrazas,Santa Rosa,89.27,176.9,97.52,,,Single-ply,SBD,M,
Boys,89.81,DQ,Ethan de la Garza,Santa Rosa,88.27,183.7,,,,Single-ply,SBD,M,
Boys,89.81,DQ,Vicente Herrera,Brownsville Hanna,83.01,215.46,,,,Single-ply,SBD,M,
Boys,99.79,1,Stephen Atkinson,Los Fresnos,99.79,256.28,124.74,229.06,610.08,Single-ply,SBD,M,
Boys,99.79,2,Jonah Hernandez,Port Isabel,97.34,226.8,142.88,199.58,569.26,Single-ply,SBD,M,
Boys,99.79,3,Roan Galvan,Mercedes,92.26,226.8,142.88,174.63,544.31,Single-ply,SBD,M,
Boys,99.79,4,Roberto Zamora,Rio Hondo,92.17,192.78,136.08,176.9,505.76,Single-ply,SBD,M,
Boys,99.79,5,Guadalupe Salinas,Brownsville Rivera,90.63,192.78,117.93,185.97,496.68,Single-ply,SBD,M,
Boys,99.79,6,Jesus Hernandez #5,Brownsville Rivera,95.89,188.24,131.54,176.9,496.68,Single-ply,SBD,M,
Boys,99.79,7,Richard Gonzalez,Brownsville Lopez,93.26,179.17,104.33,195.04,478.54,Single-ply,SBD,M,
Boys,99.79,8,Bryan Miramontes,Brownsville Lopez,95.53,179.17,108.86,183.7,471.74,Single-ply,SBD,M,
Boys,99.79,9,Ricardo Alanis,Brownsville St. Joseph Academy,98.52,165.56,120.2,151.95,437.72,Single-ply,SBD,M,
Boys,99.79,10,Brandon Miramontes,Brownsville Lopez,91.53,165.56,104.33,161.03,430.91,Single-ply,SBD,M,
Boys,99.79,11,Christopher Finona,Port Isabel,97.89,142.88,68.04,120.2,331.12,Single-ply,SBD,M,
Boys,109.77,1,Robert Ruiz,Brownsville Hanna,108.32,272.16,156.49,265.35,694,Single-ply,SBD,M,
Boys,109.77,2,Anthony Selvera,Rio Hondo,107.14,254.01,181.44,208.65,644.1,Single-ply,SBD,M,
Boys,109.77,3,Emmanuel Cepeda,Lyford,102.06,229.06,161.03,226.8,616.89,Single-ply,SBD,M,
Boys,109.77,4,Patrick Olmos,Brownsville Hanna,109.23,240.4,145.15,195.04,580.6,Single-ply,SBD,M,
Boys,109.77,5,Michael Garza Jr,Rio Hondo,100.43,215.46,140.61,163.29,519.36,Single-ply,SBD,M,
Boys,109.77,6,Nathaniel Garcia,San Benito,103.96,185.97,108.86,215.46,510.29,Single-ply,SBD,M,
Boys,109.77,7,Ángel Sánchez #2,Brownsville Lopez,109.68,197.31,102.06,192.78,492.15,Single-ply,SBD,M,
Boys,109.77,8,Isaac Torres,Harlingen South,107.59,149.69,106.59,174.63,430.91,Single-ply,SBD,M,
Boys,109.77,9,Miguel Cortez,Brownsville St. Joseph Academy,101.15,156.49,111.13,156.49,424.11,Single-ply,SBD,M,
Boys,109.77,10,William Hoelscher,Harlingen South,104.42,142.88,83.91,167.83,394.63,Single-ply,SBD,M,
Boys,109.77,11,Martin Alvarez,Harlingen South,106.5,142.88,83.91,151.95,378.75,Single-ply,SBD,M,
Boys,109.77,12,Jesus Salas,Brownsville Rivera,105.23,129.27,74.84,149.69,353.8,Single-ply,SBD,M,
Boys,109.77,DQ,Hector Guerrero,Brownsville Rivera,106.87,181.44,,,,Single-ply,SBD,M,
Boys,124.74,1,Matthew Lopez #1,Rio Hondo,117.21,299.37,176.9,249.48,725.75,Single-ply,SBD,M,
Boys,124.74,2,Isaac Alanis,Los Fresnos,124.74,281.23,165.56,229.06,675.85,Single-ply,SBD,M,
Boys,124.74,3,Marco Cantu,San Benito,120.29,272.16,174.63,226.8,673.58,Single-ply,SBD,M,
Boys,124.74,4,Ryan Garcia #1,Edinburg Idea College Prep,124.28,278.96,138.35,244.94,662.24,Single-ply,SBD,M,
Boys,124.74,5,Joseph Garza,San Benito,110.77,276.69,149.69,226.8,653.17,Single-ply,SBD,M,
Boys,124.74,6,Carlos Olmedo #2,Mercedes,113.94,226.8,147.42,226.8,601.01,Single-ply,SBD,M,
Boys,124.74,7,Ricardo Garcia,San Benito,118.39,204.12,131.54,226.8,562.45,Single-ply,SBD,M,
Boys,124.74,8,Adrian Gonzalez,Rio Hondo,116.57,229.06,149.69,147.42,526.17,Single-ply,SBD,M,
Boys,124.74,9,Abraham Lozano,Brownsville Rivera,122.65,206.38,111.13,174.63,492.15,Single-ply,SBD,M,
Boys,124.74,10,Francisco Bazaldua,Harlingen South,116.12,158.76,115.67,170.1,444.52,Single-ply,SBD,M,
Boys,124.74,DQ,Manuel Garcia,Brownsville Porter,119.66,267.62,154.22,,,Single-ply,SBD,M,
Boys,124.74,DQ,Daniel Castillo,Brownsville Pace,121.93,,,,,Single-ply,SBD,M,
Boys,124.74+,1,Rolando Zuniga,Rio Hondo,162.39,306.17,185.97,233.6,725.75,Single-ply,SBD,M,
Boys,124.74+,2,Jaden Brooks,Raymondville,171.64,274.42,170.1,254.01,698.53,Single-ply,SBD,M,
Boys,124.74+,3,Juan Mendoza #2,Harlingen South,149.14,226.8,136.08,235.87,598.74,Single-ply,SBD,M,
Boys,124.74+,4,Luis Perales,San Benito,140.98,226.8,149.69,204.12,580.6,Single-ply,SBD,M,
Boys,124.74+,5,German Woo,Brownsville Hanna,134.81,219.99,129.27,206.38,555.65,Single-ply,SBD,M,
Boys,124.74+,6,Dexter Delgado,Harlingen South,150.59,183.7,142.88,183.7,510.29,Single-ply,SBD,M,
Boys,124.74+,7,Brandon Sandoval,Rio Hondo,125.37,192.78,136.08,179.17,508.02,Single-ply,SBD,M,
Boys,124.74+,DQ,Michael Magana,Harlingen South,127.19,,95.25,,,Single-ply,SBD,M,
