Sex,Equipment,Division,WeightClassKg,Name,BirthDate,BodyweightKg,Best3SquatKg,Best3BenchKg,Best3DeadliftKg,TotalKg,Event,Deadlift4Kg,Place
F,Wraps,Amateur Masters 45-49,48,Pamela Roney,,46.18,88.45,43.09,104.33,235.87,SBD,,1
F,Wraps,Amateur Open,48,Pamela Roney,,46.18,88.45,43.09,104.33,235.87,SBD,,1
F,Raw,Amateur Open,52,Kaitlin Goy,,51.71,104.33,70.31,124.74,299.37,SBD,,1
F,Raw,Amateur Open,56,Sumire Clevenger,,54.7,111.13,56.7,108.86,276.69,SBD,,1
F,Wraps,Amateur Open,56,Jennifer Rainey,,54.07,99.79,52.16,142.88,294.84,SBD,,1
F,Wraps,Amateur Submasters 33-39,56,Jennifer Rainey,,54.07,99.79,52.16,142.88,294.84,SBD,,1
F,Wraps,Amateur Teen 18-19,56,Haley Devers,,55.07,111.13,90.72,124.74,326.59,SBD,,1
F,Wraps,Pro Open,56,Angelina Bennett,,55.88,131.54,81.65,151.95,365.14,SBD,,1
F,Wraps,Amateur Submasters 33-39,60,Synthia Lippold,,59.6,90.72,47.63,90.72,229.06,SBD,,1
F,Raw,Amateur Open,60,Shannon Schriver,,59.96,83.91,54.43,124.74,263.08,SBD,,2
F,Raw,Amateur Open,60,Jessica Singh,,59.06,92.99,56.7,124.74,274.42,SBD,,1
F,Wraps,Amateur Teen 16-17,60,Maddie Apostolakos,,57.7,88.45,38.56,111.13,238.14,SBD,,1
F,Wraps,Pro Juniors 20-23,60,Colleen Donahue,,59.96,149.69,81.65,165.56,396.89,SBD,,1
F,Raw,Amateur Masters 50-54,67.5,Traci Sisson,,66.32,79.38,56.7,95.25,231.33,SBD,,1
F,Wraps,Amateur Open,67.5,Heather Ely,,64.86,111.13,58.97,138.35,308.44,SBD,,1
F,Wraps,Amateur Submasters 33-39,67.5,Audra L Crist,,66.86,106.59,79.38,113.4,299.37,SBD,,1
F,Wraps,Amateur Teen 14-15,67.5,Julia Apostolakos,,66.86,90.72,45.36,115.67,251.74,SBD,,1
F,Wraps,Pro Open,67.5,Andrea White,,66.95,204.12,129.27,208.65,542.04,SBD,,1
F,Raw,Amateur Masters 70-74,75,Janice Tate,,74.93,47.63,45.36,99.79,192.78,SBD,,1
F,Raw,Amateur Open,75,Kara Shotzberger,,73.39,97.52,63.5,115.67,276.69,SBD,,2
F,Raw,Military Amateur Open,75,Danielle Cedeno,,74.66,97.52,68.04,115.67,281.23,SBD,,1
F,Wraps,Amateur Juniors 20-23,75,Alexandria Hutta,,74.3,136.08,74.84,165.56,376.48,SBD,,1
F,Wraps,Amateur Open,75,Kaity Lang,,72.67,106.59,65.77,145.15,317.51,SBD,,1
F,Raw,Amateur Masters 50-54,82.5,Karen Carey,,80.38,83.91,43.09,108.86,235.87,SBD,,1
F,Wraps,Amateur Submasters 33-39,82.5,Alyssa DeNardo,,77.84,140.61,72.57,131.54,344.73,SBD,,1
F,Raw,Amateur Masters 45-49,90,Catherine McCall,,85.73,136.08,79.38,181.44,396.89,SBD,,1
F,Raw,Amateur Open,90,Taylor Johnson #1,,83.91,115.67,65.77,131.54,312.98,SBD,,1
F,Wraps,Amateur Open,90,Nicole Rivieccio,,85.09,124.74,61.23,147.42,333.39,SBD,,1
F,Wraps,Pro Open,110,Barbara Coles,,106.5,190.51,127.01,208.65,526.17,SBD,,1
F,Wraps,Pro Masters 45-49,110,Barbara Coles,,106.5,190.51,127.01,208.65,526.17,SBD,,1
F,Wraps,Amateur Open,110+,Morgan Brady,,120.38,174.63,92.99,174.63,442.25,SBD,,1
M,Wraps,Amateur Teen 14-15,52,Alex Haye,,47.17,74.84,47.63,108.86,231.33,SBD,,1
M,Single-ply,Amateur Teen 14-15,60,Aiden Vetter,,58.6,102.06,70.31,129.27,301.64,SBD,,1
M,Wraps,Amateur Teen 14-15,67.5,Brayden DiPaola,,66.59,163.29,86.18,215.46,464.93,SBD,,1
M,Raw,Amateur Teen 18-19,75,Dylan Dowd,,69.58,156.49,102.06,158.76,417.3,SBD,,2
M,Raw,Amateur Teen 18-19,75,Erik White,,72.3,204.12,115.67,231.33,551.11,SBD,,1
M,Wraps,Amateur Teen 18-19,75,Austin Kane,,73.03,188.24,136.08,233.6,557.92,SBD,,1
M,Wraps,Amateur Teen 18-19,82.5,Joseph Graham,,81.28,136.08,99.79,192.78,428.64,SBD,,1
M,Wraps,Amateur Teen 16-17,82.5,Derrian Radzeski,,80.65,124.74,86.18,165.56,376.48,SBD,,1
M,Single-ply,Amateur Teen 16-17,82.5,Joe Hanninum,,79.83,151.95,104.33,197.31,453.59,SBD,,1
F,Raw,Amateur Open,56,Amanda Pruzinsky,,55.88,,72.57,117.93,190.51,BD,,1
F,Single-ply,Amateur Teen 16-17,67.5,Tara Geldhauser,,64.86,,79.38,142.88,222.26,BD,,1
F,Raw,Amateur Juniors 20-23,56,McKenzie Reinert,,54.88,88.45,52.16,,140.61,SB,,1
F,Raw,Amateur Masters 50-54,67.5,Beth Vulopas,,65.95,,47.63,,47.63,B,,1
F,Single-ply,Pro Open,75,Laura Johns,,72.85,,,,,B,,DQ
F,Raw,Amateur Masters 45-49,100,Kathryn Welcheck,,93.8,,56.7,,56.7,B,,1
M,Multi-ply,Amateur Masters 60-64,90,Walter Welcheck,,89.99,,,,,B,,DQ
F,Wraps,Crossfit,48,Mikayla Leidli,,47.08,81.65,,99.79,181.44,SD,,1
F,Raw,Amateur Open,56,Laura Hashem,,55.07,,,151.95,151.95,D,157.62,1
M,Raw,Amateur Masters 65-69,67.5,Chris Loutrary,,64.05,,,181.44,181.44,D,,1
M,Raw,Amateur Open,56,Rob Akers,,55.88,136.08,95.25,172.37,403.7,SBD,,1
M,Raw,Amateur Juniors 20-23,60,Dalton Bassert,,57.88,136.08,88.45,170.1,394.63,SBD,,1
M,Raw,Amateur Juniors 20-23,67.5,Matthew Hardardt,,67.04,113.4,81.65,142.88,337.93,SBD,,1
M,Wraps,Amateur Juniors 20-23,67.5,Rafael N Santos,,66.41,142.88,92.99,205.25,441.12,SBD,,2
M,Wraps,Amateur Juniors 20-23,67.5,Mike Candido,,65.23,170.1,104.33,190.51,464.93,SBD,,1
M,Raw,Amateur Juniors 20-23,75,Joseph G. Iwanski,,74.84,129.27,92.99,165.56,387.82,SBD,,1
M,Wraps,Amateur Juniors 20-23,75,Christopher Perdomo,,73.3,158.76,111.13,206.38,476.27,SBD,,2
M,Wraps,Amateur Juniors 20-23,75,Joshua Heiss,1996-11-27,73.75,213.19,117.93,254.01,585.13,SBD,,1
M,Wraps,Amateur Open,75,Travis McConnell,,74.57,235.87,136.08,235.87,607.81,SBD,,1
M,Wraps,Elite Open,75,Nydir Hayden,,73.94,240.4,147.42,244.94,632.76,SBD,,1
M,Raw,Amateur Open,82.5,Taylor Charles,,80.2,229.06,158.76,226.8,614.62,SBD,,1
M,Raw,Elite Open,82.5,Michael Zadroga III,,82.37,231.33,165.56,283.5,680.39,SBD,,1
M,Wraps,Amateur Juniors 20-23,82.5,Kyle Jones,,81.37,219.99,149.69,235.87,605.55,SBD,,1
M,Wraps,Amateur Open,82.5,Ray Menendez,,82.37,117.93,127.01,142.88,387.82,SBD,,4
M,Wraps,Amateur Open,82.5,John Delloso,,80.83,147.42,108.86,213.19,469.47,SBD,,3
M,Wraps,Amateur Open,82.5,Evan Vogler,,81.37,163.29,127.01,219.99,510.29,SBD,,2
M,Wraps,Amateur Open,82.5,Sam Wisniewski,,80.1,167.83,127.01,233.6,528.44,SBD,,1
M,Wraps,Amateur Submasters 33-39,82.5,Tim Cook,,80.74,170.1,122.47,219.99,512.56,SBD,,2
M,Wraps,Amateur Submasters 33-39,82.5,George Sobetsky,,79.83,174.63,131.54,231.33,537.51,SBD,,1
M,Raw,Amateur Juniors 20-23,90,Nathan Portrey,,86.36,165.56,104.33,210.92,480.81,SBD,,1
M,Raw,Amateur Open,90,Jarin Bartosh,,89.81,165.56,124.74,197.31,487.61,SBD,,2
M,Raw,Amateur Open,90,Thomas Hardardt,,89.54,183.7,174.63,231.33,589.67,SBD,,1
M,Raw,Military Pro Open,90,Mike Loncharich,,87.82,242.67,197.31,324.32,764.3,SBD,,1
M,Wraps,Amateur Masters 40-44,90,Michael Carney,,87.63,154.22,127.01,165.56,446.79,SBD,,2
M,Wraps,Amateur Masters 40-44,90,Bryan Martin,,87.72,151.95,138.35,215.46,505.76,SBD,,1
M,Wraps,Amateur Masters 45-49,90,Albert Geddes,,87.82,204.12,140.61,244.94,589.67,SBD,,1
M,Wraps,Amateur Open,90,Allen Workman,,89.63,149.69,113.4,190.51,453.59,SBD,,2
M,Wraps,Amateur Open,90,Kris Bookamer,,89.81,272.16,163.29,247.21,682.66,SBD,,1
M,Wraps,Pro Juniors 20-23,90,Eligio Ovalle-Cisneros,,89.99,249.48,154.22,260.82,664.51,SBD,,1
M,Wraps,Pro Masters 40-44,90,Ryan Koch,,89.36,206.38,172.37,217.72,596.47,SBD,,1
M,Wraps,Pro Open,90,Joseph Lee,,86.45,,,,,SBD,,DQ
M,Wraps,Pro Open,90,Ryan Betz,,86.91,267.62,190.51,272.16,730.28,SBD,,1
M,Raw,Amateur Open,100,Mosess Menendez,,97.79,163.29,108.86,208.65,480.81,SBD,,5
M,Wraps,Pro Masters 40-44,100,Tommy Farra,,97.98,276.69,167.83,281.23,725.75,SBD,,1
M,Wraps,Adaptive Open,110,Anthony Boreggine,,108.14,154.22,104.33,181.44,439.98,SBD,,1
M,Multi-ply,Pro Open,82.5,Joe Fazio,,82.01,,,,,B,,DQ
M,Raw,Amateur Open,82.5,Ray Menendez,,82.37,,127.01,,127.01,B,,1
M,Raw,Amateur Open,82.5,Thomas Ferguson,,80.29,,,,,B,,DQ
M,Raw,Pro Open,82.5,Charles Cannavino,,81.65,,176.9,,176.9,B,,1
M,Raw,Pro Masters 40-44,82.5,Charles Cannavino,,81.65,,176.9,,176.9,B,,1
M,Raw,Amateur Masters 40-44,90,Morgan Fogelman,,89.36,,,263.08,263.08,D,,1
M,Single-ply,Amateur Masters 40-44,90,Bryan Martin,,87.72,,,215.46,215.46,D,,1
F,Raw,Amateur Open,75,Lori Barth,,74.3,140.61,83.91,161.03,385.55,SBD,,1
F,Raw,Amateur Submasters 33-39,90,Mary Weeks,,89.99,106.59,54.43,140.61,301.64,SBD,,1
F,Raw,Amateur Open,90,Mary Weeks,,89.99,106.59,54.43,140.61,301.64,SBD,,2
F,Multi-ply,Amateur Open,100,Jaclyn Marcantonio,,93.08,117.93,61.23,145.15,324.32,SBD,,1
M,Raw,Amateur Masters 40-44,100,Edward H Jensen Jr,,97.89,224.53,142.88,240.4,607.81,SBD,,1
M,Raw,Amateur Open,100,Ryan DeFalco,,94.35,197.31,151.95,192.78,542.04,SBD,,4
M,Raw,Amateur Open,100,Robert Hawn,,99.7,199.58,117.93,226.8,544.31,SBD,,3
M,Raw,Amateur Open,100,Cosme D Gonzalez,,90.45,210.92,120.2,215.46,546.58,SBD,,2
M,Raw,Amateur Open,100,Jeffrey Zimmerman,,98.07,215.46,181.44,226.8,623.69,SBD,,1
M,Raw,Amateur Submasters 33-39,100,Edward Cywinski,,99.43,213.19,176.9,197.31,587.4,SBD,,1
M,Raw,Crossfit,100,Tyler McLean,,91.63,149.69,117.93,172.37,439.98,SBD,,1
M,Wraps,Amateur Masters 40-44,100,Matt Richards #2,,97.79,226.8,149.69,272.16,648.64,SBD,,1
M,Raw,Amateur Open,100,Brandon Pier,1994-02-19,97.61,183.7,129.27,231.33,544.31,SBD,,4
M,Raw,Pro Masters 50-54,100,Charles D Miller,,99.97,242.67,,,,SBD,,DQ
M,Wraps,Amateur Open,100,Lampros Nicos,,98.25,190.51,154.22,208.65,553.38,SBD,,3
M,Wraps,Amateur Open,100,John Saeger,,97.16,254.01,104.33,233.6,591.94,SBD,,2
M,Wraps,Amateur Open,100,Frank Martorana,,99.25,242.67,154.22,244.94,641.83,SBD,,1
M,Wraps,Pro Juniors 20-23,100,Robert Tarquini,,97.79,265.35,158.76,285.76,709.87,SBD,,1
M,Wraps,Pro Open,100,CJ Cuthbertson,,95.16,226.8,156.49,235.87,619.15,SBD,,1
M,Multi-ply,Amateur Masters 55-59,110,James Dibble,,109.77,238.14,204.12,215.46,657.71,SBD,,1
M,Raw,Amateur Masters 40-44,110,John Michael Tate,,109.86,242.67,147.42,231.33,621.42,SBD,,1
M,Raw,Amateur Open,110,Sergei Shibaev,,104.14,149.69,108.86,181.44,439.98,SBD,,2
M,Raw,Amateur Open,110,John Michael Tate,,109.86,242.67,147.42,231.33,621.42,SBD,,1
M,Raw,Pro Open,110,Jon Haubrich Jr,,103.87,181.44,124.74,199.58,505.76,SBD,,2
M,Raw,Pro Open,110,Jorge Marte,,106.68,290.3,174.63,340.19,805.13,SBD,,1
M,Wraps,Amateur Masters 55-59,110,Paul Diliberto,,109.77,204.12,183.7,240.4,628.23,SBD,,1
M,Wraps,Amateur Open,110,Mark Anonia Jr,,106.87,192.78,131.54,244.94,569.26,SBD,,3
M,Wraps,Amateur Open,110,Sam K Arnedt,,103.24,231.33,136.08,310.71,678.12,SBD,,2
M,Wraps,Amateur Open,110,Joseph H Alexander,,108.59,281.23,181.44,297.1,759.77,SBD,,1
M,Wraps,Amateur Submasters 33-39,110,Eric Neil,,105.14,260.82,124.74,240.4,625.96,SBD,,1
M,Wraps,Pro Juniors 20-23,110,Colin Yost,,108.77,204.12,122.47,244.94,571.53,SBD,,2
M,Wraps,Pro Juniors 20-23,110,Eric Krysztopik,,108.32,272.16,,,,SBD,,DQ
M,Wraps,Pro Juniors 20-23,110,Alexander S Punchello,,107.32,251.74,172.37,256.28,680.39,SBD,,1
M,Wraps,Pro Open,110,Matthew Myers,,104.69,185.97,136.08,208.65,530.7,SBD,,4
M,Wraps,Pro Open,110,Scott A. Percy,,106.78,195.04,124.74,229.06,548.85,SBD,,3
M,Wraps,Pro Open,110,Andres Montoya,,108.23,283.5,195.04,331.12,809.66,SBD,,2
M,Wraps,Pro Open,110,Nick Forte,,109.04,365.14,233.6,353.8,952.54,SBD,,1
M,Single-ply,Amateur Masters 60-64,110,Rory King,,105.05,199.58,92.99,185.97,478.54,SBD,,1
M,Single-ply,Pro Open,110,Taylor Falk,,107.41,299.37,206.38,265.35,771.11,SBD,,1
M,Raw,Amateur Open,125,Eric Finlay,,112.4,204.12,127.01,226.8,557.92,SBD,,1
M,Wraps,Amateur Open,125,William Moore Jr,,122.83,229.06,158.76,249.48,637.3,SBD,,2
M,Wraps,Amateur Open,125,Gerald Rogers,,124.56,290.3,174.63,276.69,741.62,SBD,,1
M,Wraps,Crossfit,125,Raymond Burns,,111.13,151.95,102.06,181.44,435.45,SBD,,1
M,Wraps,Pro Open,125,Benjamin Kane,,121.93,319.78,188.24,288.03,796.05,SBD,,3
M,Wraps,Pro Open,125,Rob Christine,,124.56,294.84,222.26,288.03,805.13,SBD,,2
M,Wraps,Pro Open,125,Anthony Valori,,124.65,290.3,204.12,319.78,814.2,SBD,,1
M,Raw,Adaptive Submasters 33-39,140,David Hill,,131,290.3,195.04,272.16,757.5,SBD,,1
M,Raw,Amateur Masters 50-54,140,Edward Lopez,,139.53,174.63,127.01,181.44,483.08,SBD,,1
M,Wraps,Amateur Open,140,Jason Lyons,,131.18,142.88,154.22,244.94,542.04,SBD,,1
M,Wraps,Pro Open,140,Vincent Damiano,,128.46,272.16,181.44,272.16,725.75,SBD,,2
M,Wraps,Pro Open,140,Dan Sarmina,,138.07,306.17,183.7,326.59,816.47,SBD,,1
M,Wraps,Pro Open,140,Michael Haddy Welton,,133.54,328.85,190.51,,,SBD,,DQ
M,Raw,Amateur Masters 45-49,100,Dean Deturk,,98.88,,183.7,206.38,390.09,BD,,1
M,Raw,Amateur Open,110,David Small,,109.5,,161.03,217.72,378.75,BD,,1
M,Raw,Pro Submasters 33-39,110,Matt Michael,,104.51,,176.9,272.16,449.06,BD,,1
M,Raw,Amateur Submasters 33-39,125,Jeremy Trubilla,,114.85,,165.56,251.74,417.3,BD,,1
M,Raw,Amateur Open,90,Jonathan Stec,,85.82,,124.74,,124.74,B,,1
M,Raw,Amateur Submasters 33-39,90,Jonathan Stec,,85.82,,124.74,,124.74,B,,1
M,Raw,Amateur Masters 50-54,110,Tony LaManna,,106.68,,,,,B,,DQ
M,Raw,Amateur Open,110,Richard Dalmas,,109.32,,158.76,,158.76,B,,1
M,Raw,Pro Open,110,Gary Visnofsky,,107.05,,,,,B,,DQ
M,Multi-ply,Elite Open,125,Jimmy Kolb,,123.65,,,,,B,,DQ
M,Raw,Pro Submasters 33-39,110,Jay Tibak,,109.68,,192.78,,192.78,B,,1
M,Raw,Police Amateur Open,125,Brent Wisniewski,,112.04,,183.7,,183.7,B,,1
M,Raw,Amateur Masters 40-44,125,Brent Wisniewski,,112.04,,183.7,,183.7,B,,1
M,Multi-ply,Pro Masters 40-44,140,Marc Rintz,,126.28,,,,,B,,DQ
M,Wraps,Amateur Submasters 33-39,100,Lee Clemente,,97.98,265.35,,251.74,517.1,SD,,1
M,Raw,Military Amateur Masters 55-59,90,Eric Blake,,89.45,,,158.76,158.76,D,,1
M,Single-ply,Pro Masters 40-44,100,Gene Moisey,,90.36,,,238.14,238.14,D,,1
M,Raw,Amateur Masters 65-69,110,Robert Hill Jr,,106.78,,,199.58,199.58,D,,1
