Division,WeightClassKg,Place,Name,Team,BodyweightKg,Best3SquatKg,Best3BenchKg,Best3DeadliftKg,TotalKg,Equipment,Event,Sex,BirthDate
Boys,67.13,1,Adnan Allan,Mansfield Lake Ridge,66.95,133.81,95.25,142.88,371.95,Single-ply,SBD,M,
Boys,67.13,2,Maximillian Castillo,Mansfield,63.96,102.06,58.97,111.13,272.16,Single-ply,SBD,M,
Boys,74.84,1,Cathal Erangey,Mansfield,70.31,142.88,99.79,183.7,426.38,Single-ply,SBD,M,
Boys,74.84,2,Torrin Sheehy,Mansfield Lake Ridge,74.66,149.69,106.59,158.76,415.04,Single-ply,SBD,M,
Boys,74.84,3,Hayden George,Mansfield,74.39,142.88,88.45,176.9,408.23,Single-ply,SBD,M,
Boys,74.84,4,Aiden Sanchez,Mansfield,68.04,158.76,79.38,163.29,401.43,Single-ply,SBD,M,
Boys,82.1,1,James Windsor,Mansfield,81.47,174.63,115.67,204.12,494.42,Single-ply,SBD,M,
Boys,82.1,2,Gabe Zumwalt,Mansfield,81.1,151.95,88.45,179.17,419.57,Single-ply,SBD,M,
Boys,82.1,3,Logan Fortenberry,Mansfield Lake Ridge,75.75,151.95,90.72,142.88,385.55,Single-ply,SBD,M,
Boys,82.1,4,Liam Cassidy,Mansfield,78.93,120.2,81.65,156.49,358.34,Single-ply,SBD,M,
Boys,82.1,DQ,Noah Loughlin,Mansfield Lake Ridge,77.29,154.22,,,,Single-ply,SBD,M,
Boys,89.81,1,Adam Sawalha,Mansfield Lake Ridge,87.54,265.35,147.42,281.23,694,Single-ply,SBD,M,
Boys,89.81,2,Jason Tran #2,Mansfield,83.01,192.78,104.33,219.99,517.1,Single-ply,SBD,M,
Boys,89.81,3,Anthony Baumgarte,Mansfield,86.64,188.24,122.47,188.24,498.95,Single-ply,SBD,M,
Boys,89.81,4,Luke Arellano,Mansfield Lake Ridge,82.55,133.81,104.33,147.42,385.55,Single-ply,SBD,M,
Boys,89.81,DQ,Ethan Nguyen,Mansfield Lake Ridge,85.28,,,,,Single-ply,SBD,M,
Boys,109.77,1,Jeremy Lednicky,Mansfield Lake Ridge,108.86,120.2,77.11,138.35,335.66,Single-ply,SBD,M,
Boys,109.77,2,Isaac Howard,Mansfield,109.32,111.13,72.57,136.08,319.78,Single-ply,SBD,M,
Boys,124.74,1,Bowen Sweet,Mansfield,119.29,120.2,81.65,195.04,396.89,Single-ply,SBD,M,
Boys,139.71,1,Isaiah Villarrealo,Mansfield Lake Ridge,126.55,136.08,70.31,140.61,347,Single-ply,SBD,M,
