Place,Name,Sex,Equipment,Division,BodyweightKg,WeightClassKg,Squat1Kg,Squat2Kg,Squat3Kg,Best3SquatKg,Bench1Kg,Bench2Kg,Bench3Kg,Best3BenchKg,Deadlift1Kg,Deadlift2Kg,Deadlift3Kg,Best3DeadliftKg,TotalKg,Event,BirthDate,State,Country
1,Robin Bermudez,M,Raw,MR-O,60.6,66,150,160,167.5,167.5,107.5,112.5,117.5,117.5,190,205,215,215,500,SBD,,,England
2,Probir Debnath,M,Raw,MR-O,64.9,66,177.5,187.5,190,190,100,107.5,110,110,177.5,187.5,192.5,192.5,492.5,SBD,,,England
3,Anthony Moszuti,M,Raw,MR-O,65.4,66,175,-187.5,-187.5,175,90,95,-100,95,190,200,-212.5,200,470,SBD,,,England
4,Conrad Connolly,M,Raw,MR-O,65.7,66,85,102.5,110,110,55,62.5,72.5,72.5,110,125,137.5,137.5,320,SBD,,,England
1,Amari Robinson,M,Raw,MR-O,73.3,74,210,222.5,-232.5,222.5,135,145,-147.5,145,235,255,-270,255,622.5,SBD,,,England
2,Devin Reddy,M,Raw,MR-O,72.7,74,-212.5,212.5,222.5,222.5,145,152.5,-160,152.5,220,227.5,235,235,610,SBD,,,England
3,Adam Hamilton,M,Raw,MR-O,73.9,74,205,215,-225,215,115,122.5,-125,122.5,210,232.5,-245,232.5,570,SBD,,,England
4,Joshua Chan,M,Raw,MR-O,72.6,74,165,177.5,185,185,115,122.5,127.5,127.5,180,195,207.5,207.5,520,SBD,,,England
5,Ricky Fang,M,Raw,MR-O,70.6,74,165,172.5,180,180,95,100,-105,100,215,225,-237.5,225,505,SBD,,,England
6,Amar Ahmed,M,Raw,MR-O,70.1,74,140,150,-165,150,100,110,-115,110,215,225,230,230,490,SBD,,,England
7,Stephen Ashcroft,M,Raw,MR-O,72.8,74,132.5,140,147.5,147.5,85,-90,-90,85,155,162.5,170,170,402.5,SBD,,,England
8,Connor Connolly,M,Raw,MR-O,72.9,74,90,102.5,112.5,112.5,55,62.5,72.5,72.5,115,130,142.5,142.5,327.5,SBD,,,England
9,Ali Chebli,M,Raw,MR-O,73.5,74,-90,-102.5,102.5,102.5,-55,55,60,60,115,130,140,140,302.5,SBD,,,England
10,Travis Wood,M,Raw,MR-O,72.8,74,45,,,45,120,127.5,-135,127.5,65,,,65,237.5,SBD,,,England
1,Raphael Leong,M,Raw,MR-O,82.1,83,207.5,217.5,222.5,222.5,135,137.5,140,140,265,282.5,-295,282.5,645,SBD,,,England
2,Anakin Kwok,M,Raw,MR-O,77.5,83,190,205,210,210,120,127.5,-130,127.5,225,250,-262.5,250,587.5,SBD,,,England
3,Shihab Uddin,M,Raw,MR-O,81.8,83,160,165,167.5,167.5,140,-150,-150,140,-220,225,235,235,542.5,SBD,,,England
4,Andy Cudd,M,Raw,MR-O,81.9,83,140,150,160,160,110,117.5,125,125,170,185,200,200,485,SBD,,,England
5,William Wong,M,Raw,MR-O,78.6,83,177.5,185,-192.5,185,85,92.5,97.5,97.5,180,190,200,200,482.5,SBD,,,England
6,Oscar Swan,M,Raw,MR-O,80.1,83,160,170,177.5,177.5,100,107.5,-117.5,107.5,170,180,190,190,475,SBD,,,England
7,Finlay Lohoar Self,M,Raw,MR-O,81.7,83,147.5,157.5,165,165,85,92.5,-97.5,92.5,190,200,210,210,467.5,SBD,,,England
8,Ralfs Vackers,M,Raw,MR-O,77,83,100,115,125,125,57.5,70,77.5,77.5,125,137.5,147.5,147.5,350,SBD,,,England
DQ,Nati Raymond,M,Raw,MR-O,82,83,80,-95,-105,80,-80,-80,-80,,155,162.5,167.5,167.5,,SBD,,,England
1,Chago Bunton-Cole,M,Raw,MR-O,91.7,93,205,-217.5,230,230,152.5,-162.5,167.5,167.5,247.5,265,280,280,677.5,SBD,,,England
2,Thomas Celestin,M,Raw,MR-O,92.5,93,225,235,242.5,242.5,110,-115,-115,110,287.5,305,-312.5,305,657.5,SBD,,,England
3,Nicholas Hwong,M,Raw,MR-O,91.4,93,227.5,240.5,-242.5,240.5,142.5,150,152.5,152.5,237.5,250,257.5,257.5,650.5,SBD,,,England
4,Mark Harvey,M,Raw,MR-O,89.2,93,220,235,245,245,130,140,145,145,210,240,255,255,645,SBD,,,England
5,Ross Carlyle,M,Raw,MR-O,90.5,93,170,185,,185,132.5,142.5,150,150,225,240,250,250,585,SBD,,,England
6,Ignacio Sparrow,M,Raw,MR-O,88.3,93,182.5,200,205,205,115,122.5,-127.5,122.5,220,240,-247.5,240,567.5,SBD,,,England
7,Marcus Tam,M,Raw,MR-O,85.3,93,180,190,192.5,192.5,115,122.5,125,125,207.5,220,230,230,547.5,SBD,,,England
8,Aidan Cook,M,Raw,MR-O,86,93,185,-195,195,195,117.5,127.5,-132.5,127.5,195,207.5,220,220,542.5,SBD,,,England
9,Michal Stzelecki,M,Raw,MR-O,88.6,93,165,175,185,185,125,130,-135,130,-195,195,210,210,525,SBD,,,England
10,Billy Christmas,M,Raw,MR-O,91.5,93,142.5,152.5,,152.5,120,125,,125,185,202.5,222.5,222.5,500,SBD,,,England
11,Ricardo Jorge,M,Raw,MR-O,90.5,93,-180,-180,180,180,100,107.5,110,110,160,170,195,195,485,SBD,,,England
12,Stephen Christian,M,Raw,MR-O,89.9,93,142.5,150,155,155,110,120,-125,120,177.5,192.5,202.5,202.5,477.5,SBD,,,England
13,Christopher Jones,M,Raw,MR-O,91.7,93,145,-155,160,160,100,107.5,115,115,180,192.5,-205,192.5,467.5,SBD,,,England
14,Jonathan Waite,M,Raw,MR-O,91.5,93,145,155,165,165,87.5,92.5,100,100,170,185,-192.5,185,450,SBD,,,England
15,Lloyd Taylor,M,Raw,MR-O,91.2,93,140,147.5,-150,147.5,-100,100,-107.5,100,175,182.5,-187.5,182.5,430,SBD,,,England
16,Enric Sangra Navarro,M,Raw,MR-O,91.5,93,125,132.5,142.5,142.5,85,92.5,97.5,97.5,150,162.5,172.5,172.5,412.5,SBD,,,England
17,Camilo Cárdenas,M,Raw,MR-O,87.6,93,125,132.5,140,140,80,87.5,-92.5,87.5,145,157.5,172.5,172.5,400,SBD,,,England
1,Ka Chun Wan,M,Raw,MR-O,98.2,105,222.5,237.5,247.5,247.5,125,132.5,135,135,240,260,272.5,272.5,655,SBD,,,England
2,Ivan Otim,M,Raw,MR-O,97.8,105,185,-197.5,202.5,202.5,110,115,120,120,240,260,270,270,592.5,SBD,,,England
3,Paul Reid,M,Raw,MR-O,104.2,105,190,200,-205,200,135,140,-145,140,187.5,200,205,205,545,SBD,,,England
4,Jonathan Dench,M,Raw,MR-O,97.7,105,172.5,182.5,187.5,187.5,105,110,112.5,112.5,180,192.5,197.5,197.5,497.5,SBD,,,England
5,Kasper Kacper,M,Raw,MR-O,93.8,105,85,102.5,110,110,45,60,65,65,115,127.5,140,140,315,SBD,,,England
1,Augustine Adeosun,M,Raw,MR-O,112,120,-240,240,252.5,252.5,140,,,140,-310,330,-350,330,722.5,SBD,,,England
2,Darren Greville,M,Raw,MR-O,119.4,120,220,237.5,250,250,162.5,-172.5,172.5,172.5,225,250,260,260,682.5,SBD,,,England
3,Mani Owugha,M,Raw,MR-O,116.1,120,225,237.5,242.5,242.5,132.5,140,142.5,142.5,265,285,292.5,292.5,677.5,SBD,,,England
4,Reece Scott,M,Raw,MR-O,112.9,120,-200,215,-225,215,130,142.5,152.5,152.5,250,270,300,300,667.5,SBD,,,England
NS,Reece Scott,M,Raw,MR-O,112.9,120,,,,,,,,,,,,,,SBD,,,England
1,Zakariya Hussein,M,Raw,MR-O,152.9,120+,195,210,220,220,150,160,-165,160,250,260,-270,260,640,SBD,,,England
1,Nathan Young,M,Raw,MR-O,91.2,93,175,190,195,195,135,-140,-140,135,240,260,270,270,600,SBD,,,England
