Division,WeightClassKg,Place,Name,Team,BodyweightKg,Best3SquatKg,Best3BenchKg,Best3DeadliftKg,TotalKg,Equipment,Event,Sex
Boys,51.71,1,Angel Bermudez,Poteet,51.26,170.1,102.06,156.49,428.64,Single-ply,SBD,M
Boys,51.71,2,Caleb Vera,Poteet,48.08,111.13,61.23,129.27,301.64,Single-ply,SBD,M
Boys,51.71,3,Aaron Sanchez,Poteet,50.8,58.97,56.7,97.52,213.19,Single-ply,SBD,M
Boys,55.79,4,Michael Gonzales,San Antonio Memorial,51.8,72.57,20.41,83.91,176.9,Single-ply,SBD,M
Boys,55.79,1,Jermaine Mendiola,Somerset,54.98,183.7,102.06,167.83,453.59,Single-ply,SBD,M
Boys,59.87,2,Dimas Tenorio,Crystal City,55.88,163.29,102.06,167.83,433.18,Single-ply,SBD,M
Boys,55.79,3,Raul Guerra,Poteet,55.34,131.54,111.13,149.69,392.36,Single-ply,SBD,M
Boys,55.79,4,Isaiah Lucio,Pearsall,54.52,127.01,97.52,142.88,367.41,Single-ply,SBD,M
Boys,55.79,5,Rudy Rios,Devine,55.57,120.2,74.84,142.88,337.93,Single-ply,SBD,M
Boys,55.79,6,Ulysses Solis,San Antonio East Central,55.11,127.01,65.77,127.01,319.78,Single-ply,SBD,M
Boys,55.79,7,Luke Torres,Devine,54.88,124.74,72.57,115.67,312.98,Single-ply,SBD,M
Boys,55.79,8,Mercado Dominic,San Antonio Cole,54.88,106.59,58.97,115.67,281.23,Single-ply,SBD,M
Boys,55.79,9,Brandon Mercado,San Antonio Cole,55.07,102.06,54.43,111.13,267.62,Single-ply,SBD,M
Boys,55.79,DQ,Maverick Graham,Lytle,54.16,120.2,,,,Single-ply,SBD,M
Boys,59.87,DQ,Jaime Rodriguez,Jourdanton,56.02,185.97,,,,Single-ply,SBD,M
Boys,59.87,1,Elijah Gonzales,San Antonio East Central,58.69,174.63,102.06,181.44,458.13,Single-ply,SBD,M
Boys,59.87,2,Victor Monsevias,Kenedy,59.87,181.44,79.38,167.83,428.64,Single-ply,SBD,M
Boys,59.87,3,Domingo Zapata,Somerset,59.65,136.08,83.91,149.69,369.68,Single-ply,SBD,M
Boys,67.13,4,Harley Contreras,Lytle,60.1,136.08,86.18,142.88,365.14,Single-ply,SBD,M
Boys,67.13,5,Joe Anthony Oliva,Poteet,59.96,102.06,65.77,147.42,315.25,Single-ply,SBD,M
Boys,67.13,6,Jose Fargason,Devine,60.06,106.59,68.04,117.93,292.57,Single-ply,SBD,M
Boys,67.13,7,Michael Donatas,San Antonio Memorial,60.06,88.45,63.5,104.33,256.28,Single-ply,SBD,M
Boys,59.87,8,Steven Musquiz,Crystal City,58.69,102.06,61.23,83.91,247.21,Single-ply,SBD,M
Boys,59.87,9,Cameron Vera,Somerset,58.79,61.23,52.16,90.72,204.12,Single-ply,SBD,M
Boys,67.13,1,Joe Guerrero,Devine,65.68,183.7,122.47,183.7,489.88,Single-ply,SBD,M
Boys,74.84,2,Juan Medina,Floresville,67.31,181.44,111.13,176.9,469.47,Single-ply,SBD,M
Boys,67.13,3,Colton Rodriguez,Jourdanton,64.05,195.04,102.06,170.1,467.2,Single-ply,SBD,M
Boys,67.13,4,Kristopher Imhof,San Antonio Cole,64.59,170.1,95.25,188.24,453.59,Single-ply,SBD,M
Boys,67.13,5,Jadran Ramirez,Kenedy,66.41,167.83,92.99,192.78,453.59,Single-ply,SBD,M
Boys,67.13,6,Neco Camarillo,Jourdanton,61.46,185.97,88.45,151.95,426.38,Single-ply,SBD,M
Boys,67.13,7,Paul Santana,Devine,62.14,163.29,97.52,165.56,426.38,Single-ply,SBD,M
Boys,67.13,8,Aaron Realme,Pearsall,64.68,165.56,92.99,167.83,426.38,Single-ply,SBD,M
Boys,67.13,9,Manuel Charo,San Antonio East Central,61.01,154.22,92.99,172.37,419.57,Single-ply,SBD,M
Boys,67.13,10,Eddie Anguiano,San Antonio Kennedy,62.23,154.22,90.72,161.03,405.97,Single-ply,SBD,M
Boys,67.13,11,Gil Garcia,Crystal City,66,136.08,83.91,183.7,403.7,Single-ply,SBD,M
Boys,67.13,12,Emmanuel Mireles,Floresville,62.87,138.35,79.38,145.15,362.87,Single-ply,SBD,M
Boys,67.13,13,Noel Zamora,Poteet,61.69,117.93,70.31,149.69,337.93,Single-ply,SBD,M
Boys,67.13,14,Steven Ramirez,Devine,61.42,127.01,63.5,127.01,317.51,Single-ply,SBD,M
Boys,67.13,15,Roy DeLeon,Somerset,64.05,106.59,68.04,136.08,310.71,Single-ply,SBD,M
Boys,67.13,16,Andrew Guerra,Pleasanton,63.68,90.72,61.23,136.08,288.03,Single-ply,SBD,M
Boys,67.13,17,Alberto Salazar,Somerset,62.78,54.43,54.43,131.54,240.4,Single-ply,SBD,M
Boys,67.13,DQ,Robert Rendon,Crystal City,65.09,151.95,,,,Single-ply,SBD,M
Boys,67.13,DQ,Garrison Kindred,Castroville Medina Valley,60.33,138.35,,,,Single-ply,SBD,M
Boys,74.84,1,Joseph Ortiz,Jourdanton,73.48,249.48,129.27,215.46,594.21,Single-ply,SBD,M
Boys,74.84,2,Nathan Medrano,Lytle,73.03,238.14,124.74,199.58,562.45,Single-ply,SBD,M
Boys,74.84,3,Jarett Moreno,San Antonio East Central,72.8,204.12,133.81,199.58,537.51,Single-ply,SBD,M
Boys,74.84,4,Anthony Estrada,Somerset,72.57,181.44,97.52,174.63,453.59,Single-ply,SBD,M
Boys,74.84,5,Rene Rodriguez,Pearsall,69.13,165.56,102.06,176.9,444.52,Single-ply,SBD,M
Boys,74.84,6,Kevin Hernandez,Floresville,70.76,174.63,106.59,154.22,435.45,Single-ply,SBD,M
Boys,74.84,7,Brandon De Los Santos,Jourdanton,67.95,165.56,95.25,161.03,421.84,Single-ply,SBD,M
Boys,74.84,8,Jacob Meis,Castroville Medina Valley,68.04,142.88,102.06,161.03,405.97,Single-ply,SBD,M
Boys,74.84,9,Coltin Bentley,Devine,73.48,165.56,86.18,154.22,405.97,Single-ply,SBD,M
Boys,74.84,10,John Reyes #1,Pearsall,70.13,120.2,95.25,183.7,399.16,Single-ply,SBD,M
Boys,74.84,11,Martin Delgado,Pearsall,68.76,133.81,97.52,142.88,374.21,Single-ply,SBD,M
Boys,74.84,12,Noah Rodriquez,Kenedy,70.76,129.27,88.45,149.69,367.41,Single-ply,SBD,M
Boys,74.84,13,Ysmael Guerrero,San Antonio Memorial,71.85,108.86,92.99,142.88,344.73,Single-ply,SBD,M
Boys,74.84,14,John Cervantez,Poteet,74.84,106.59,88.45,140.61,335.66,Single-ply,SBD,M
Boys,74.84,15,Ruben Pimentel,San Antonio Kennedy,69.13,113.4,83.91,120.2,317.51,Single-ply,SBD,M
Boys,74.84,16,Francisco Arenas,Crystal City,67.59,111.13,61.23,142.88,315.25,Single-ply,SBD,M
Boys,74.84,17,Paolo Valadez,Center Point,68.13,122.47,61.23,127.01,310.71,Single-ply,SBD,M
Boys,74.84,18,Anthony Maldonado,La Pryor,67.59,111.13,68.04,113.4,292.57,Single-ply,SBD,M
Boys,74.84,DQ,Sergio Villarreal,Castroville Medina Valley,74.12,142.88,,,,Single-ply,SBD,M
Boys,82.1,DQ,Devin Garcia,Dilley,75.02,136.08,,,,Single-ply,SBD,M
Boys,74.84,DQ,Alex Pena,Somerset,74.16,183.7,108.86,,,Single-ply,SBD,M
Boys,74.84,DQ,Gary Turnbull,Poteet,73.94,,,,,Single-ply,SBD,M
Boys,82.1,1,Robert Llanas,San Antonio East Central,79.61,222.26,120.2,217.72,560.19,Single-ply,SBD,M
Boys,82.1,2,Preston Taggs,Floresville,80.38,192.78,127.01,231.33,551.11,Single-ply,SBD,M
Boys,82.1,3,Ashton Williams,San Antonio East Central,80.06,215.46,115.67,208.65,539.77,Single-ply,SBD,M
Boys,82.1,4,Mark Sustaita,Castroville Medina Valley,79.61,192.78,106.59,195.04,494.42,Single-ply,SBD,M
Boys,82.1,5,Diego Garza,Pearsall,79.83,195.04,111.13,165.56,471.74,Single-ply,SBD,M
Boys,82.1,6,Israel Ramirez,Dilley,77.84,165.56,108.86,172.37,446.79,Single-ply,SBD,M
Boys,82.1,7,Adrian Sustaita,Castroville Medina Valley,75.75,170.1,92.99,176.9,439.98,Single-ply,SBD,M
Boys,82.1,8,Nick Gonzales,Floresville,80.1,170.1,102.06,161.03,433.18,Single-ply,SBD,M
Boys,82.1,9,Nathan Salazar,Somerset,79.02,142.88,86.18,172.37,401.43,Single-ply,SBD,M
Boys,82.1,10,Rene Romero,Crystal City,79.47,149.69,92.99,151.95,394.63,Single-ply,SBD,M
Boys,82.1,11,Elliot Terrazas,San Antonio Kennedy,80.06,147.42,86.18,145.15,378.75,Single-ply,SBD,M
Boys,82.1,12,Elijah Rollins,Somerset,76.43,120.2,74.84,129.27,324.32,Single-ply,SBD,M
Boys,82.1,13,Rene Guitierez,San Antonio Memorial,79.47,113.4,49.9,140.61,303.91,Single-ply,SBD,M
Boys,82.1,14,Taylor Bryce,Somerset,80.65,108.86,68.04,106.59,283.5,Single-ply,SBD,M
Boys,82.1,15,Demetrius Brown,San Antonio Memorial,75.93,97.52,61.23,111.13,269.89,Single-ply,SBD,M
Boys,82.1,16,Diego Pesina,La Pryor,77.79,102.06,47.63,113.4,263.08,Single-ply,SBD,M
Boys,82.1,17,Richard San Miguel,Dilley,75.75,99.79,52.16,108.86,260.82,Single-ply,SBD,M
Boys,82.1,18,Richard Andrade,Castroville Medina Valley,77.47,90.72,65.77,97.52,254.01,Single-ply,SBD,M
Boys,82.1,DQ,Josh Cooper,Center Point,81.42,142.88,92.99,,,Single-ply,SBD,M
Boys,82.1,DQ,David Ortega,Brackettville Brackett,78.11,165.56,,,,Single-ply,SBD,M
Boys,82.1,DQ,Tristin Burwell,Devine,81.42,215.46,,,,Single-ply,SBD,M
Boys,82.1,DQ,Maleo Garcia,San Antonio Memorial,80.2,136.08,,,,Single-ply,SBD,M
Boys,89.81,1,Isaac Mendoza,San Antonio East Central,86.18,229.06,145.15,226.8,601.01,Single-ply,SBD,M
Boys,89.81,2,Steven Medrano,Dilley,86,229.06,122.47,204.12,555.65,Single-ply,SBD,M
Boys,89.81,3,Paul Castro,Lytle,86.86,226.8,117.93,192.78,537.51,Single-ply,SBD,M
Boys,89.81,4,Daniel Mann #2,Devine,86.86,190.51,142.88,204.12,537.51,Single-ply,SBD,M
Boys,89.81,5,Josh Roberts #2,Floresville,88.36,217.72,115.67,183.7,517.1,Single-ply,SBD,M
Boys,89.81,6,Hagan Brown,Floresville,85.46,197.31,133.81,174.63,505.76,Single-ply,SBD,M
Boys,89.81,7,Demetrius Lino,San Antonio East Central,88.09,181.44,88.45,208.65,478.54,Single-ply,SBD,M
Boys,89.81,8,Tony Rivas,Brackettville Brackett,89.18,170.1,95.25,183.7,449.06,Single-ply,SBD,M
Boys,89.81,9,Jesse Ramirez #3,Floresville,88.45,151.95,97.52,197.31,446.79,Single-ply,SBD,M
Boys,89.81,10,Roy Trevino,Poteet,89.81,167.83,95.25,165.56,428.64,Single-ply,SBD,M
Boys,89.81,11,Olivieri Jose,San Antonio Cole,86.36,129.27,77.11,140.61,347,Single-ply,SBD,M
Boys,89.81,12,Jonathon Alvarado,Crystal City,84.82,111.13,83.91,145.15,340.19,Single-ply,SBD,M
Boys,89.81,13,Ariel Perez,Crystal City,88.18,117.93,77.11,145.15,340.19,Single-ply,SBD,M
Boys,89.81,14,Jesús Torres,Somerset,85.64,108.86,70.31,158.76,337.93,Single-ply,SBD,M
Boys,89.81,DQ,Dustin Stevens,Somerset,82.67,90.72,,,,Single-ply,SBD,M
Boys,89.81,DQ,Chris Zepeda,Somerset,83.01,61.23,,,,Single-ply,SBD,M
Boys,89.81,DQ,Josh Guerra,Castroville Medina Valley,87.09,185.97,,,,Single-ply,SBD,M
Boys,89.81,DQ,Eugene Perez,San Antonio Memorial,83.46,102.06,,,,Single-ply,SBD,M
Boys,99.79,1,Ed Ruiz,Jourdanton,91.72,249.48,124.74,219.99,594.21,Single-ply,SBD,M
Boys,99.79,2,Nick Delgado,Pleasanton,93.26,226.8,149.69,215.46,591.94,Single-ply,SBD,M
Boys,99.79,3,Jose Orellana,La Pryor,95.25,204.12,149.69,215.46,569.26,Single-ply,SBD,M
Boys,99.79,4,Tyler Crisp,Poteet,98.88,229.06,113.4,226.8,569.26,Single-ply,SBD,M
Boys,99.79,5,Isaac Guzman,Castroville Medina Valley,94.53,185.97,136.08,199.58,521.63,Single-ply,SBD,M
Boys,99.79,6,Andrew Garcia,Pleasanton,93.62,197.31,106.59,215.46,519.36,Single-ply,SBD,M
Boys,99.79,7,Robert Cervantes,Dilley,92.62,199.58,102.06,192.78,494.42,Single-ply,SBD,M
Boys,99.79,8,Jacob Thomas,Floresville,95.98,206.38,108.86,172.37,487.61,Single-ply,SBD,M
Boys,99.79,9,Emanual Moreno,Somerset,91.44,183.7,106.59,183.7,474,Single-ply,SBD,M
Boys,99.79,10,Cristian Lopez,La Pryor,95.25,183.7,79.38,183.7,446.79,Single-ply,SBD,M
Boys,99.79,11,Eddie Moreno,Somerset,98.52,158.76,106.59,172.37,437.72,Single-ply,SBD,M
Boys,99.79,12,David Arvizo,La Pryor,90.72,163.29,99.79,154.22,417.3,Single-ply,SBD,M
Boys,99.79,13,Vicente Abundes,Somerset,93.98,127.01,108.86,154.22,390.09,Single-ply,SBD,M
Boys,99.79,14,Zack Zamarripa,San Antonio Memorial,91.4,145.15,90.72,149.69,385.55,Single-ply,SBD,M
Boys,99.79,15,Riley Garcia,Poteet,97.07,136.08,86.18,154.22,376.48,Single-ply,SBD,M
Boys,99.79,16,Travis McGeehee,Center Point,94.44,140.61,81.65,151.95,374.21,Single-ply,SBD,M
Boys,99.79,17,Alejandro Gonzalez,Crystal City,91.26,142.88,83.91,145.15,371.95,Single-ply,SBD,M
Boys,99.79,18,Austin Felan,Devine,91.35,142.88,92.99,136.08,371.95,Single-ply,SBD,M
Boys,99.79,19,Robert Guzman,Somerset,93.44,149.69,72.57,147.42,369.68,Single-ply,SBD,M
Boys,99.79,20,Phillip Aguero,Somerset,90.9,129.27,72.57,149.69,351.53,Single-ply,SBD,M
Boys,99.79,21,George Perez,Somerset,92.76,113.4,77.11,151.95,342.46,Single-ply,SBD,M
Boys,99.79,DQ,Antonio Ramirez,Crystal City,97.89,149.69,90.72,,,Single-ply,SBD,M
Boys,109.77,DQ,Bernard Aguilar,Poteet,99.88,185.97,127.01,,,Single-ply,SBD,M
Boys,109.77,1,Caesar Soto,San Antonio East Central,108.18,317.51,172.37,226.8,716.68,Single-ply,SBD,M
Boys,109.77,2,Jacob Ybarra,Somerset,108.86,226.8,149.69,197.31,573.79,Single-ply,SBD,M
Boys,109.77,3,Dustin De La Vega,Somerset,103.78,233.6,129.27,197.31,560.19,Single-ply,SBD,M
Boys,109.77,4,Jacob Caldera,San Antonio Cole,106.59,226.8,138.35,190.51,555.65,Single-ply,SBD,M
Boys,109.77,5,Ray Palomeque,Pearsall,107.59,197.31,120.2,226.8,544.31,Single-ply,SBD,M
Boys,109.77,6,Juan Trevino,San Antonio East Central,107.68,226.8,122.47,188.24,537.51,Single-ply,SBD,M
Boys,109.77,7,Jacob Esquibel,La Pryor,100.97,181.44,108.86,183.7,474,Single-ply,SBD,M
Boys,109.77,8,Rudy Vasquez,Kenedy,109.5,174.63,95.25,156.49,426.38,Single-ply,SBD,M
Boys,109.77,9,Ben Ledesma,Somerset,102.51,181.44,95.25,145.15,421.84,Single-ply,SBD,M
Boys,109.77,10,Fabien Morales,San Antonio Memorial,102.87,136.08,104.33,149.69,390.09,Single-ply,SBD,M
Boys,109.77,11,Brian Hernandez,Brackettville Brackett,104.05,147.42,61.23,165.56,374.21,Single-ply,SBD,M
Boys,109.77,12,Jose Coronado,San Antonio Memorial,100.43,131.54,83.91,142.88,358.34,Single-ply,SBD,M
Boys,109.77,13,Dalton Porter,Castroville Medina Valley,109.09,83.91,68.04,111.13,263.08,Single-ply,SBD,M
Boys,124.74,1,Joshua Macat,Lytle,119.75,272.16,154.22,242.67,669.05,Single-ply,SBD,M
Boys,124.74,2,James Woods,Somerset,115.39,278.96,138.35,242.67,659.98,Single-ply,SBD,M
Boys,124.74,3,William Olson,Jourdanton,118.16,260.82,158.76,226.8,646.37,Single-ply,SBD,M
Boys,124.74,4,Cory Opiela,Floresville,112.31,229.06,145.15,249.48,623.69,Single-ply,SBD,M
Boys,124.74,5,Jp Ortiz,Devine,114.53,226.8,136.08,231.33,594.21,Single-ply,SBD,M
Boys,124.74,6,Austin Soto,Devine,114.85,217.72,170.1,188.24,576.06,Single-ply,SBD,M
Boys,124.74,7,Jose Mata,La Pryor,122.11,208.65,149.69,204.12,562.45,Single-ply,SBD,M
Boys,124.74,8,Sisto Pacheco,Pleasanton,113.31,224.53,140.61,195.04,560.19,Single-ply,SBD,M
Boys,124.74,9,Eric Perez,Pleasanton,119.02,240.4,129.27,183.7,553.38,Single-ply,SBD,M
Boys,124.74,10,Jonathan Ricks,Pleasanton,119.2,229.06,129.27,195.04,553.38,Single-ply,SBD,M
Boys,124.74,11,Anthony Cantu,San Antonio East Central,112.94,233.6,106.59,199.58,539.77,Single-ply,SBD,M
Boys,124.74,12,Cesar Morales,Somerset,111.77,204.12,129.27,188.24,521.63,Single-ply,SBD,M
Boys,124.74,13,Andres Garces,San Antonio Memorial,112.49,204.12,117.93,183.7,505.76,Single-ply,SBD,M
Boys,124.74,14,Paul Lozano,Poteet,117.03,170.1,124.74,174.63,469.47,Single-ply,SBD,M
Boys,124.74,15,Hector Garcia,Poteet,119.29,181.44,106.59,170.1,458.13,Single-ply,SBD,M
Boys,124.74,16,Nathan Pearson,Brackettville Brackett,120.84,142.88,79.38,165.56,387.82,Single-ply,SBD,M
Boys,124.74,17,Isaiah Asteriak,San Antonio Cole,124.47,136.08,68.04,136.08,340.19,Single-ply,SBD,M
Boys,124.74+,1,Joseph Peña #1,San Antonio Holy Cross,147.6,347,183.7,256.28,786.98,Single-ply,SBD,M
Boys,124.74+,2,Edward Gonzalez,Crystal City,131.72,267.62,142.88,190.51,601.01,Single-ply,SBD,M
Boys,124.74+,3,James Cooksey,Kenedy,138.98,233.6,131.54,229.06,594.21,Single-ply,SBD,M
Boys,124.74+,4,Leo Martinez,Center Point,125.74,222.26,138.35,210.92,571.53,Single-ply,SBD,M
Boys,124.74+,5,Michael Balderas,Poteet,131.09,254.01,99.79,190.51,544.31,Single-ply,SBD,M
Boys,124.74+,6,Jonah Masters,San Antonio Cole,128.19,195.04,111.13,201.85,508.02,Single-ply,SBD,M
Boys,124.74+,7,Chris Cobb,Somerset,152.04,192.78,124.74,190.51,508.02,Single-ply,SBD,M
Boys,124.74+,8,Rolando DeLuna,Castroville Medina Valley,129.95,206.38,113.4,183.7,503.49,Single-ply,SBD,M
Boys,124.74+,9,Brandon Woltman,Pleasanton,147.15,192.78,104.33,181.44,478.54,Single-ply,SBD,M
Boys,124.74+,10,Mike Kessler,Castroville Medina Valley,136.62,174.63,106.59,174.63,455.86,Single-ply,SBD,M
Boys,124.74+,11,Javier De Leon,Somerset,134.9,204.12,83.91,156.49,444.52,Single-ply,SBD,M
Boys,124.74+,12,Joey Alvarado,Poteet,127.41,170.1,90.72,165.56,426.38,Single-ply,SBD,M
Boys,124.74+,13,John Yanez,Somerset,141.61,127.01,72.57,208.65,408.23,Single-ply,SBD,M
Boys,124.74+,14,Elliot Gilliam,Poteet,126.1,106.59,95.25,142.88,344.73,Single-ply,SBD,M
Boys,124.74+,DQ,Mike Romero,Somerset,153.04,,,,,Single-ply,SBD,M
Boys,124.74+,DQ,Isaiah Reyna,Somerset,133.99,104.33,,,,Single-ply,SBD,M
